####### Ordered Logger #######


Final Duration: 400.0
Final Quality: 0.0
Seed: 2157523833

##### Method Results #####

##### Relationship Results #####

##### Agent Results #####


    ## Agent ##
        Name Agent1
        Sent: 93
        Received: 942
        Completed: Method28, Method1, Method12, Method29, Method21, Method8, Method6, Method10, Method22, Method18, Method5, Method30, Method16, Method2, Method15, Method13, Method4, Method7, Method24, Method26, Method23, Method19, Method17, Method27, Method20, Method9