####### Ordered Logger #######


Final Duration: 400.0
Final Quality: 0.0
Seed: 8130523833

##### Method Results #####

##### Relationship Results #####

##### Agent Results #####


    ## Agent ##
        Name Agent1
        Sent: 90
        Received: 1240
        Completed: Method1, Method26, Method16, Method13, Method6, Method22, Method23, Method14, Method12, Method29, Method24, Method5, Method30, Method4, Method2, Method7, Method28, Method15, Method10, Method9, Method20, Method17, Method25, Method18, Method27, Method8, Method19, Method11, Method21