####### Sequential Logger #######



    ## Message ##
        Sending a SetRandomSeedMessage to Agent1
        The random seed is 2157523833


    ## Message ##
        Sending a InitialTreeMessage to Agent1
        Tree Head: Problem1


    ## Message ##
        Sending a StartSimulationMessage to Agent1
        The Simulation has Started


    ## Message ##
        Sending a EndSimulationMessage to Agent1
        The Simulation is Over


    ## Agent ##
        Name Agent1
        Sent: 149
        Received: 596
        Completed: Method26, Method1, Method24, Method29, Method22, Method15, Method19, Method21, Method18, Method10, Method12, Method17, Method13, Method6, Method16, Method28, Method20, Method7, Method5, Method23, Method9, Method2, Method4, Method27, Method30, Method8