####### Ordered Logger #######


Final Duration: 400.0
Final Quality: 0.0
Seed: 2157523833

##### Method Results #####

##### Relationship Results #####

##### Agent Results #####


    ## Agent ##
        Name Agent1
        Sent: 102
        Received: 909
        Completed: 