digraph G {
	"RTS121-AND-80000-SUM" -> "T1-AND-80000-SUM"
	"T1-AND-80000-SUM" -> "T2-AND-80000-SUM"
	"T2-AND-80000-SUM" -> "T3-AND-2805-SUM"
	"T2-AND-80000-SUM" -> "T4-OR-9130-MAX"
	"T2-AND-80000-SUM" -> "T5-AND-24096-SUM"
	"T2-AND-80000-SUM" -> "T6-OR-43969-MAX"
	"T3-AND-2805-SUM" -> M1
	"T4-OR-9130-MAX" -> M2
	"T4-OR-9130-MAX" -> M3
	"T4-OR-9130-MAX" -> M4
	"T5-AND-24096-SUM" -> M5
	"T5-AND-24096-SUM" -> M6
	"T5-AND-24096-SUM" -> M7
	"T5-AND-24096-SUM" -> M8
	"T5-AND-24096-SUM" -> M9
	"T5-AND-24096-SUM" -> M10
	"T6-OR-43969-MAX" -> M11
	"T6-OR-43969-MAX" -> M12
	"T6-OR-43969-MAX" -> M13
}
