digraph G {
	"RTS131-AND-80000-SUM" -> "T1-AND-80000-SUM"
	"T1-AND-80000-SUM" -> "T2-AND-6689-SUM"
	"T1-AND-80000-SUM" -> "T3-OR-15445-MAX"
	"T1-AND-80000-SUM" -> "T4-OR-15680-MAX"
	"T1-AND-80000-SUM" -> "T5-AND-20402-SUM"
	"T1-AND-80000-SUM" -> "T6-OR-21784-MAX"
	"T2-AND-6689-SUM" -> M1
	"T3-OR-15445-MAX" -> M2
	"T3-OR-15445-MAX" -> M3
	"T3-OR-15445-MAX" -> M4
	"T4-OR-15680-MAX" -> M5
	"T4-OR-15680-MAX" -> M6
	"T4-OR-15680-MAX" -> M7
	"T5-AND-20402-SUM" -> M8
	"T6-OR-21784-MAX" -> M9
	"T6-OR-21784-MAX" -> M10
}
