digraph G {
	"RTS189-AND-80000-SUM" -> "T1-OR-80000-MAX"
	"T1-OR-80000-MAX" -> "T2-AND-80000-SUM"
	"T2-AND-80000-SUM" -> "T4-AND-4258-SUM"
	"T2-AND-80000-SUM" -> "T5-AND-9901-SUM"
	"T2-AND-80000-SUM" -> "T6-AND-26491-SUM"
	"T2-AND-80000-SUM" -> "T7-AND-39350-SUM"
	"T1-OR-80000-MAX" -> "T3-OR-80000-MAX"
	"T3-OR-80000-MAX" -> "T8-AND-80000-SUM"
	"T3-OR-80000-MAX" -> "T9-OR-80000-MAX"
	"T4-AND-4258-SUM" -> M1
	"T5-AND-9901-SUM" -> M2
	"T6-AND-26491-SUM" -> M3
	"T7-AND-39350-SUM" -> M4
	"T8-AND-80000-SUM" -> M5
	"T9-OR-80000-MAX" -> M6
	"T9-OR-80000-MAX" -> M7
	"T9-OR-80000-MAX" -> M8
	"T9-OR-80000-MAX" -> M9
	"T9-OR-80000-MAX" -> M10
	"T9-OR-80000-MAX" -> M11
}
