digraph G {
	"RTS163-AND-80000-SUM" -> "T1-OR-80000-MAX"
	"T1-OR-80000-MAX" -> "T2-AND-80000-SUM"
	"T2-AND-80000-SUM" -> "T6-AND-80000-SUM"
	"T1-OR-80000-MAX" -> "T3-AND-80000-SUM"
	"T3-AND-80000-SUM" -> "T7-AND-80000-SUM"
	"T1-OR-80000-MAX" -> "T4-AND-80000-SUM"
	"T4-AND-80000-SUM" -> "T8-AND-80000-SUM"
	"T1-OR-80000-MAX" -> "T5-AND-80000-SUM"
	"T5-AND-80000-SUM" -> "T9-AND-80000-SUM"
	"T6-AND-80000-SUM" -> M1
	"T6-AND-80000-SUM" -> M2
	"T6-AND-80000-SUM" -> M3
	"T6-AND-80000-SUM" -> M4
	"T7-AND-80000-SUM" -> M5
	"T7-AND-80000-SUM" -> M6
	"T8-AND-80000-SUM" -> M7
	"T8-AND-80000-SUM" -> M8
	"T8-AND-80000-SUM" -> M9
	"T8-AND-80000-SUM" -> M10
	"T8-AND-80000-SUM" -> M11
	"T9-AND-80000-SUM" -> M12
}
