digraph G {
	"RTS13-AND-80000-SUM" -> "T1-AND-80000-SUM"
	"T1-AND-80000-SUM" -> "T2-AND-7411-SUM"
	"T1-AND-80000-SUM" -> "T3-AND-25549-SUM"
	"T1-AND-80000-SUM" -> "T4-AND-47040-SUM"
	"T2-AND-7411-SUM" -> M1
	"T3-AND-25549-SUM" -> M2
	"T3-AND-25549-SUM" -> M3
	"T3-AND-25549-SUM" -> M4
	"T3-AND-25549-SUM" -> M5
	"T3-AND-25549-SUM" -> M6
	"T4-AND-47040-SUM" -> M7
	"T4-AND-47040-SUM" -> M8
	"T4-AND-47040-SUM" -> M9
	"T4-AND-47040-SUM" -> M10
	"T4-AND-47040-SUM" -> M11
}
