digraph G {
	"RTS137-AND-80000-SUM" -> "T1-AND-80000-SUM"
	"T1-AND-80000-SUM" -> "T2-OR-21662-MAX"
	"T1-AND-80000-SUM" -> "T3-OR-22571-MAX"
	"T1-AND-80000-SUM" -> "T4-AND-35767-SUM"
	"T2-OR-21662-MAX" -> M1
	"T2-OR-21662-MAX" -> M2
	"T2-OR-21662-MAX" -> M3
	"T2-OR-21662-MAX" -> M4
	"T2-OR-21662-MAX" -> M5
	"T3-OR-22571-MAX" -> M6
	"T3-OR-22571-MAX" -> M7
	"T3-OR-22571-MAX" -> M8
	"T3-OR-22571-MAX" -> M9
	"T3-OR-22571-MAX" -> M10
	"T3-OR-22571-MAX" -> M11
	"T3-OR-22571-MAX" -> M12
	"T3-OR-22571-MAX" -> M13
	"T4-AND-35767-SUM" -> M14
}
