digraph G {
	"RTS184-AND-80000-SUM" -> "T1-AND-80000-SUM"
	"T1-AND-80000-SUM" -> "T2-AND-10254-SUM"
	"T1-AND-80000-SUM" -> "T3-AND-11117-SUM"
	"T1-AND-80000-SUM" -> "T4-AND-58629-SUM"
	"T2-AND-10254-SUM" -> M1
	"T3-AND-11117-SUM" -> M2
	"T3-AND-11117-SUM" -> M3
	"T3-AND-11117-SUM" -> M4
	"T3-AND-11117-SUM" -> M5
	"T3-AND-11117-SUM" -> M6
	"T3-AND-11117-SUM" -> M7
	"T3-AND-11117-SUM" -> M8
	"T3-AND-11117-SUM" -> M9
	"T3-AND-11117-SUM" -> M10
	"T4-AND-58629-SUM" -> M11
}
