digraph G {
	"RTS168-AND-80000-SUM" -> "T1-AND-2924-SUM"
	"T1-AND-2924-SUM" -> "T4-AND-2924-SUM"
	"T4-AND-2924-SUM" -> "T7-OR-2924-MAX"
	"RTS168-AND-80000-SUM" -> "T2-AND-20175-SUM"
	"T2-AND-20175-SUM" -> "T5-AND-20175-SUM"
	"T5-AND-20175-SUM" -> "T8-OR-20175-MAX"
	"RTS168-AND-80000-SUM" -> "T3-AND-56901-SUM"
	"T3-AND-56901-SUM" -> "T6-AND-56901-SUM"
	"T6-AND-56901-SUM" -> "T9-OR-56901-MAX"
	"T7-OR-2924-MAX" -> M1
	"T7-OR-2924-MAX" -> M2
	"T7-OR-2924-MAX" -> M3
	"T8-OR-20175-MAX" -> M4
	"T8-OR-20175-MAX" -> M5
	"T8-OR-20175-MAX" -> M6
	"T9-OR-56901-MAX" -> M7
	"T9-OR-56901-MAX" -> M8
	"T9-OR-56901-MAX" -> M9
	"T9-OR-56901-MAX" -> M10
}
