digraph G {
	"RTS218-AND-80000-SUM" -> "T1-AND-80000-SUM"
	"T1-AND-80000-SUM" -> "T2-OR-8401-MAX"
	"T2-OR-8401-MAX" -> "T5-AND-8401-SUM"
	"T2-OR-8401-MAX" -> "T6-AND-8401-SUM"
	"T2-OR-8401-MAX" -> "T7-OR-8401-MAX"
	"T1-AND-80000-SUM" -> "T3-AND-24168-SUM"
	"T3-AND-24168-SUM" -> "T8-AND-24168-SUM"
	"T1-AND-80000-SUM" -> "T4-AND-47431-SUM"
	"T4-AND-47431-SUM" -> "T9-OR-47431-MAX"
	"T5-AND-8401-SUM" -> M1
	"T6-AND-8401-SUM" -> M2
	"T6-AND-8401-SUM" -> M3
	"T6-AND-8401-SUM" -> M4
	"T6-AND-8401-SUM" -> M5
	"T6-AND-8401-SUM" -> M6
	"T7-OR-8401-MAX" -> M7
	"T7-OR-8401-MAX" -> M8
	"T7-OR-8401-MAX" -> M9
	"T8-AND-24168-SUM" -> M10
	"T9-OR-47431-MAX" -> M11
	"T9-OR-47431-MAX" -> M12
	"T9-OR-47431-MAX" -> M13
}
