digraph G {
	"RTS250-AND-80000-SUM" -> "T1-AND-29611-SUM"
	"T1-AND-29611-SUM" -> "T3-OR-29611-MAX"
	"T3-OR-29611-MAX" -> "T5-AND-29611-SUM"
	"T3-OR-29611-MAX" -> "T6-AND-29611-SUM"
	"RTS250-AND-80000-SUM" -> "T2-AND-50389-SUM"
	"T2-AND-50389-SUM" -> "T4-AND-50389-SUM"
	"T4-AND-50389-SUM" -> "T7-AND-11084-SUM"
	"T4-AND-50389-SUM" -> "T8-OR-13749-MAX"
	"T4-AND-50389-SUM" -> "T9-AND-25556-SUM"
	"T5-AND-29611-SUM" -> M1
	"T6-AND-29611-SUM" -> M2
	"T7-AND-11084-SUM" -> M3
	"T7-AND-11084-SUM" -> M4
	"T7-AND-11084-SUM" -> M5
	"T7-AND-11084-SUM" -> M6
	"T8-OR-13749-MAX" -> M7
	"T8-OR-13749-MAX" -> M8
	"T8-OR-13749-MAX" -> M9
	"T8-OR-13749-MAX" -> M10
	"T8-OR-13749-MAX" -> M11
	"T8-OR-13749-MAX" -> M12
	"T8-OR-13749-MAX" -> M13
	"T8-OR-13749-MAX" -> M14
	"T9-AND-25556-SUM" -> M15
}
