digraph G {
	"RTS200-AND-80000-SUM" -> "T1-AND-80000-SUM"
	"T1-AND-80000-SUM" -> "T2-OR-378-MAX"
	"T1-AND-80000-SUM" -> "T3-OR-5873-MAX"
	"T1-AND-80000-SUM" -> "T4-AND-16802-SUM"
	"T1-AND-80000-SUM" -> "T5-AND-27786-SUM"
	"T1-AND-80000-SUM" -> "T6-AND-29161-SUM"
	"T2-OR-378-MAX" -> M1
	"T2-OR-378-MAX" -> M2
	"T2-OR-378-MAX" -> M3
	"T2-OR-378-MAX" -> M4
	"T3-OR-5873-MAX" -> M5
	"T3-OR-5873-MAX" -> M6
	"T3-OR-5873-MAX" -> M7
	"T3-OR-5873-MAX" -> M8
	"T3-OR-5873-MAX" -> M9
	"T4-AND-16802-SUM" -> M10
	"T5-AND-27786-SUM" -> M11
	"T6-AND-29161-SUM" -> M12
}
