digraph G {
	"RTS4-AND-80000-SUM" -> "T1-AND-80000-SUM"
	"T1-AND-80000-SUM" -> "T2-AND-80000-SUM"
	"T2-AND-80000-SUM" -> "T3-AND-94-SUM"
	"T2-AND-80000-SUM" -> "T4-OR-1414-MAX"
	"T2-AND-80000-SUM" -> "T5-AND-3963-SUM"
	"T2-AND-80000-SUM" -> "T6-AND-6816-SUM"
	"T2-AND-80000-SUM" -> "T7-OR-9439-MAX"
	"T2-AND-80000-SUM" -> "T8-AND-15001-SUM"
	"T2-AND-80000-SUM" -> "T9-AND-43273-SUM"
	"T3-AND-94-SUM" -> M1
	"T4-OR-1414-MAX" -> M2
	"T4-OR-1414-MAX" -> M3
	"T5-AND-3963-SUM" -> M4
	"T6-AND-6816-SUM" -> M5
	"T6-AND-6816-SUM" -> M6
	"T7-OR-9439-MAX" -> M7
	"T7-OR-9439-MAX" -> M8
	"T8-AND-15001-SUM" -> M9
	"T8-AND-15001-SUM" -> M10
	"T9-AND-43273-SUM" -> M11
	"T9-AND-43273-SUM" -> M12
}
