digraph G {
	"RTS68-AND-80000-SUM" -> "T1-AND-632-SUM"
	"T1-AND-632-SUM" -> "T4-OR-632-MAX"
	"RTS68-AND-80000-SUM" -> "T2-AND-25044-SUM"
	"T2-AND-25044-SUM" -> "T5-OR-25044-MAX"
	"RTS68-AND-80000-SUM" -> "T3-AND-54324-SUM"
	"T3-AND-54324-SUM" -> "T6-AND-54324-SUM"
	"T4-OR-632-MAX" -> M1
	"T4-OR-632-MAX" -> M2
	"T5-OR-25044-MAX" -> M3
	"T5-OR-25044-MAX" -> M4
	"T5-OR-25044-MAX" -> M5
	"T5-OR-25044-MAX" -> M6
	"T6-AND-54324-SUM" -> M7
	"T6-AND-54324-SUM" -> M8
	"T6-AND-54324-SUM" -> M9
	"T6-AND-54324-SUM" -> M10
	"T6-AND-54324-SUM" -> M11
	"T6-AND-54324-SUM" -> M12
}
