digraph G {
	"RTS76-AND-80000-SUM" -> "T1-AND-8379-SUM"
	"T1-AND-8379-SUM" -> "T4-AND-8379-SUM"
	"T4-AND-8379-SUM" -> "T7-AND-8379-SUM"
	"RTS76-AND-80000-SUM" -> "T2-AND-30320-SUM"
	"T2-AND-30320-SUM" -> "T5-AND-30320-SUM"
	"T5-AND-30320-SUM" -> "T8-OR-30320-MAX"
	"RTS76-AND-80000-SUM" -> "T3-AND-41301-SUM"
	"T3-AND-41301-SUM" -> "T6-AND-41301-SUM"
	"T6-AND-41301-SUM" -> "T9-AND-41301-SUM"
	"T7-AND-8379-SUM" -> M1
	"T7-AND-8379-SUM" -> M2
	"T7-AND-8379-SUM" -> M3
	"T8-OR-30320-MAX" -> M4
	"T8-OR-30320-MAX" -> M5
	"T8-OR-30320-MAX" -> M6
	"T8-OR-30320-MAX" -> M7
	"T8-OR-30320-MAX" -> M8
	"T8-OR-30320-MAX" -> M9
	"T9-AND-41301-SUM" -> M10
	"T9-AND-41301-SUM" -> M11
	"T9-AND-41301-SUM" -> M12
	"T9-AND-41301-SUM" -> M13
}
