digraph G {
	"RTS75-AND-80000-SUM" -> "T1-AND-80000-SUM"
	"T1-AND-80000-SUM" -> "T2-OR-28243-MAX"
	"T2-OR-28243-MAX" -> "T4-OR-28243-MAX"
	"T2-OR-28243-MAX" -> "T5-OR-28243-MAX"
	"T1-AND-80000-SUM" -> "T3-AND-51757-SUM"
	"T3-AND-51757-SUM" -> "T6-AND-51757-SUM"
	"T4-OR-28243-MAX" -> M1
	"T4-OR-28243-MAX" -> M2
	"T4-OR-28243-MAX" -> M3
	"T4-OR-28243-MAX" -> M4
	"T4-OR-28243-MAX" -> M5
	"T5-OR-28243-MAX" -> M6
	"T5-OR-28243-MAX" -> M7
	"T6-AND-51757-SUM" -> M8
	"T6-AND-51757-SUM" -> M9
	"T6-AND-51757-SUM" -> M10
	"T6-AND-51757-SUM" -> M11
	"T6-AND-51757-SUM" -> M12
	"T6-AND-51757-SUM" -> M13
	"T6-AND-51757-SUM" -> M14
}
