digraph G {
	"RTS9-AND-80000-SUM" -> "T1-AND-13095-SUM"
	"T1-AND-13095-SUM" -> "T3-AND-13095-SUM"
	"RTS9-AND-80000-SUM" -> "T2-AND-66905-SUM"
	"T2-AND-66905-SUM" -> "T4-AND-66905-SUM"
	"T3-AND-13095-SUM" -> M1
	"T3-AND-13095-SUM" -> M2
	"T3-AND-13095-SUM" -> M3
	"T3-AND-13095-SUM" -> M4
	"T4-AND-66905-SUM" -> M5
	"T4-AND-66905-SUM" -> M6
	"T4-AND-66905-SUM" -> M7
	"T4-AND-66905-SUM" -> M8
	"T4-AND-66905-SUM" -> M9
	"T4-AND-66905-SUM" -> M10
}
