digraph G {
	"RTS199-AND-50000-SUM" -> "T1-OR-50000-MAX"
	"T1-OR-50000-MAX" -> "T2-AND-50000-SUM"
	"T2-AND-50000-SUM" -> "T4-AND-50000-SUM"
	"T1-OR-50000-MAX" -> "T3-OR-50000-MAX"
	"T3-OR-50000-MAX" -> "T5-OR-50000-MAX"
	"T3-OR-50000-MAX" -> "T6-AND-50000-SUM"
	"T3-OR-50000-MAX" -> "T7-AND-50000-SUM"
	"T3-OR-50000-MAX" -> "T8-OR-50000-MAX"
	"T3-OR-50000-MAX" -> "T9-AND-50000-SUM"
	"T4-AND-50000-SUM" -> M1
	"T4-AND-50000-SUM" -> M2
	"T4-AND-50000-SUM" -> M3
	"T4-AND-50000-SUM" -> M4
	"T5-OR-50000-MAX" -> M5
	"T5-OR-50000-MAX" -> M6
	"T5-OR-50000-MAX" -> M7
	"T6-AND-50000-SUM" -> M8
	"T7-AND-50000-SUM" -> M9
	"T8-OR-50000-MAX" -> M10
	"T8-OR-50000-MAX" -> M11
	"T9-AND-50000-SUM" -> M12
}
