digraph G {
	"RTS142-OR-50000-MAX" -> "T1-AND-50000-SUM"
	"T1-AND-50000-SUM" -> "T4-AND-50000-SUM"
	"T4-AND-50000-SUM" -> "T7-AND-50000-SUM"
	"RTS142-OR-50000-MAX" -> "T2-AND-50000-SUM"
	"T2-AND-50000-SUM" -> "T5-AND-50000-SUM"
	"T5-AND-50000-SUM" -> "T8-OR-50000-MAX"
	"RTS142-OR-50000-MAX" -> "T3-AND-50000-SUM"
	"T3-AND-50000-SUM" -> "T6-AND-50000-SUM"
	"T6-AND-50000-SUM" -> "T9-AND-50000-SUM"
	"T7-AND-50000-SUM" -> M1
	"T7-AND-50000-SUM" -> M2
	"T7-AND-50000-SUM" -> M3
	"T7-AND-50000-SUM" -> M4
	"T7-AND-50000-SUM" -> M5
	"T7-AND-50000-SUM" -> M6
	"T7-AND-50000-SUM" -> M7
	"T8-OR-50000-MAX" -> M8
	"T8-OR-50000-MAX" -> M9
	"T8-OR-50000-MAX" -> M10
	"T8-OR-50000-MAX" -> M11
	"T8-OR-50000-MAX" -> M12
	"T9-AND-50000-SUM" -> M13
}
