digraph G {
	"RTS122-AND-50000-SUM" -> "T1-OR-50000-MAX"
	"T1-OR-50000-MAX" -> "T2-OR-50000-MAX"
	"T1-OR-50000-MAX" -> "T3-AND-50000-SUM"
	"T1-OR-50000-MAX" -> "T4-AND-50000-SUM"
	"T2-OR-50000-MAX" -> M1
	"T2-OR-50000-MAX" -> M2
	"T2-OR-50000-MAX" -> M3
	"T2-OR-50000-MAX" -> M4
	"T2-OR-50000-MAX" -> M5
	"T2-OR-50000-MAX" -> M6
	"T2-OR-50000-MAX" -> M7
	"T3-AND-50000-SUM" -> M8
	"T4-AND-50000-SUM" -> M9
	"T4-AND-50000-SUM" -> M10
	"T4-AND-50000-SUM" -> M11
}
