digraph G {
	"RTS163-OR-50000-MAX" -> "T1-AND-50000-SUM"
	"T1-AND-50000-SUM" -> "T3-AND-15309-SUM"
	"T3-AND-15309-SUM" -> "T6-OR-15309-MAX"
	"T1-AND-50000-SUM" -> "T4-OR-34691-MAX"
	"T4-OR-34691-MAX" -> "T7-OR-34691-MAX"
	"T4-OR-34691-MAX" -> "T8-OR-34691-MAX"
	"RTS163-OR-50000-MAX" -> "T2-AND-50000-SUM"
	"T2-AND-50000-SUM" -> "T5-AND-50000-SUM"
	"T5-AND-50000-SUM" -> "T9-AND-50000-SUM"
	"T6-OR-15309-MAX" -> M1
	"T6-OR-15309-MAX" -> M2
	"T7-OR-34691-MAX" -> M3
	"T7-OR-34691-MAX" -> M4
	"T7-OR-34691-MAX" -> M5
	"T7-OR-34691-MAX" -> M6
	"T7-OR-34691-MAX" -> M7
	"T8-OR-34691-MAX" -> M8
	"T8-OR-34691-MAX" -> M9
	"T9-AND-50000-SUM" -> M10
	"T9-AND-50000-SUM" -> M11
}
