digraph G {
	"RTS190-OR-50000-MAX" -> "T1-AND-50000-SUM"
	"T1-AND-50000-SUM" -> "T3-AND-50000-SUM"
	"RTS190-OR-50000-MAX" -> "T2-AND-50000-SUM"
	"T2-AND-50000-SUM" -> "T4-AND-50000-SUM"
	"T3-AND-50000-SUM" -> M1
	"T4-AND-50000-SUM" -> M2
	"T4-AND-50000-SUM" -> M3
	"T4-AND-50000-SUM" -> M4
	"T4-AND-50000-SUM" -> M5
	"T4-AND-50000-SUM" -> M6
	"T4-AND-50000-SUM" -> M7
	"T4-AND-50000-SUM" -> M8
	"T4-AND-50000-SUM" -> M9
	"T4-AND-50000-SUM" -> M10
	"T4-AND-50000-SUM" -> M11
}
