digraph G {
	"RTS203-AND-50000-SUM" -> "T1-AND-50000-SUM"
	"T1-AND-50000-SUM" -> "T2-AND-8243-SUM"
	"T2-AND-8243-SUM" -> "T4-OR-8243-MAX"
	"T1-AND-50000-SUM" -> "T3-OR-41757-MAX"
	"T3-OR-41757-MAX" -> "T5-OR-41757-MAX"
	"T3-OR-41757-MAX" -> "T6-AND-41757-SUM"
	"T4-OR-8243-MAX" -> M1
	"T4-OR-8243-MAX" -> M2
	"T4-OR-8243-MAX" -> M3
	"T5-OR-41757-MAX" -> M4
	"T5-OR-41757-MAX" -> M5
	"T5-OR-41757-MAX" -> M6
	"T5-OR-41757-MAX" -> M7
	"T5-OR-41757-MAX" -> M8
	"T5-OR-41757-MAX" -> M9
	"T6-AND-41757-SUM" -> M10
	"T6-AND-41757-SUM" -> M11
	"T6-AND-41757-SUM" -> M12
	"T6-AND-41757-SUM" -> M13
	"T6-AND-41757-SUM" -> M14
	"T6-AND-41757-SUM" -> M15
}
