digraph G {
	"RTS213-AND-50000-SUM" -> "T1-AND-50000-SUM"
	"T1-AND-50000-SUM" -> "T2-AND-6381-SUM"
	"T1-AND-50000-SUM" -> "T3-AND-14037-SUM"
	"T1-AND-50000-SUM" -> "T4-AND-29582-SUM"
	"T2-AND-6381-SUM" -> M1
	"T3-AND-14037-SUM" -> M2
	"T3-AND-14037-SUM" -> M3
	"T3-AND-14037-SUM" -> M4
	"T3-AND-14037-SUM" -> M5
	"T3-AND-14037-SUM" -> M6
	"T3-AND-14037-SUM" -> M7
	"T3-AND-14037-SUM" -> M8
	"T3-AND-14037-SUM" -> M9
	"T3-AND-14037-SUM" -> M10
	"T4-AND-29582-SUM" -> M11
	"T4-AND-29582-SUM" -> M12
	"T4-AND-29582-SUM" -> M13
	"T4-AND-29582-SUM" -> M14
}
