digraph G {
	"RTS226-AND-50000-SUM" -> "T1-AND-8332-SUM"
	"T1-AND-8332-SUM" -> "T4-AND-8332-SUM"
	"RTS226-AND-50000-SUM" -> "T2-AND-18870-SUM"
	"T2-AND-18870-SUM" -> "T5-OR-18870-MAX"
	"RTS226-AND-50000-SUM" -> "T3-AND-22798-SUM"
	"T3-AND-22798-SUM" -> "T6-OR-22798-MAX"
	"T4-AND-8332-SUM" -> M1
	"T4-AND-8332-SUM" -> M2
	"T4-AND-8332-SUM" -> M3
	"T4-AND-8332-SUM" -> M4
	"T4-AND-8332-SUM" -> M5
	"T4-AND-8332-SUM" -> M6
	"T5-OR-18870-MAX" -> M7
	"T5-OR-18870-MAX" -> M8
	"T6-OR-22798-MAX" -> M9
	"T6-OR-22798-MAX" -> M10
}
