digraph G {
	"RTS239-AND-50000-SUM" -> "T1-OR-50000-MAX"
	"T1-OR-50000-MAX" -> "T2-AND-50000-SUM"
	"T2-AND-50000-SUM" -> "T4-OR-4552-MAX"
	"T2-AND-50000-SUM" -> "T5-AND-5383-SUM"
	"T2-AND-50000-SUM" -> "T6-AND-6388-SUM"
	"T2-AND-50000-SUM" -> "T7-AND-12665-SUM"
	"T2-AND-50000-SUM" -> "T8-AND-21012-SUM"
	"T1-OR-50000-MAX" -> "T3-AND-50000-SUM"
	"T3-AND-50000-SUM" -> "T9-AND-50000-SUM"
	"T4-OR-4552-MAX" -> M1
	"T4-OR-4552-MAX" -> M2
	"T5-AND-5383-SUM" -> M3
	"T6-AND-6388-SUM" -> M4
	"T7-AND-12665-SUM" -> M5
	"T8-AND-21012-SUM" -> M6
	"T8-AND-21012-SUM" -> M7
	"T8-AND-21012-SUM" -> M8
	"T8-AND-21012-SUM" -> M9
	"T9-AND-50000-SUM" -> M10
	"T9-AND-50000-SUM" -> M11
	"T9-AND-50000-SUM" -> M12
	"T9-AND-50000-SUM" -> M13
}
