digraph G {
	"RTS214-AND-50000-SUM" -> "T1-AND-50000-SUM"
	"T1-AND-50000-SUM" -> "T2-AND-2514-SUM"
	"T1-AND-50000-SUM" -> "T3-OR-6314-MAX"
	"T1-AND-50000-SUM" -> "T4-AND-10297-SUM"
	"T1-AND-50000-SUM" -> "T5-OR-10980-MAX"
	"T1-AND-50000-SUM" -> "T6-AND-19895-SUM"
	"T2-AND-2514-SUM" -> M1
	"T2-AND-2514-SUM" -> M2
	"T3-OR-6314-MAX" -> M3
	"T3-OR-6314-MAX" -> M4
	"T3-OR-6314-MAX" -> M5
	"T3-OR-6314-MAX" -> M6
	"T3-OR-6314-MAX" -> M7
	"T4-AND-10297-SUM" -> M8
	"T5-OR-10980-MAX" -> M9
	"T5-OR-10980-MAX" -> M10
	"T6-AND-19895-SUM" -> M11
}
