digraph G {
	"RTS34-AND-50000-SUM" -> "T1-AND-50000-SUM"
	"T1-AND-50000-SUM" -> "T2-AND-309-SUM"
	"T2-AND-309-SUM" -> "T6-AND-309-SUM"
	"T1-AND-50000-SUM" -> "T3-AND-375-SUM"
	"T3-AND-375-SUM" -> "T7-OR-375-MAX"
	"T1-AND-50000-SUM" -> "T4-AND-6608-SUM"
	"T4-AND-6608-SUM" -> "T8-OR-6608-MAX"
	"T1-AND-50000-SUM" -> "T5-AND-42708-SUM"
	"T5-AND-42708-SUM" -> "T9-OR-42708-MAX"
	"T6-AND-309-SUM" -> M1
	"T7-OR-375-MAX" -> M2
	"T7-OR-375-MAX" -> M3
	"T7-OR-375-MAX" -> M4
	"T7-OR-375-MAX" -> M5
	"T8-OR-6608-MAX" -> M6
	"T8-OR-6608-MAX" -> M7
	"T8-OR-6608-MAX" -> M8
	"T9-OR-42708-MAX" -> M9
	"T9-OR-42708-MAX" -> M10
	"T9-OR-42708-MAX" -> M11
	"T9-OR-42708-MAX" -> M12
	"T9-OR-42708-MAX" -> M13
}
