digraph G {
	"RTS68-AND-50000-SUM" -> "T1-AND-50000-SUM"
	"T1-AND-50000-SUM" -> "T2-AND-1907-SUM"
	"T2-AND-1907-SUM" -> "T5-OR-145-MAX"
	"T2-AND-1907-SUM" -> "T6-OR-172-MAX"
	"T2-AND-1907-SUM" -> "T7-AND-1590-SUM"
	"T1-AND-50000-SUM" -> "T3-AND-11938-SUM"
	"T3-AND-11938-SUM" -> "T8-OR-11938-MAX"
	"T1-AND-50000-SUM" -> "T4-AND-36155-SUM"
	"T4-AND-36155-SUM" -> "T9-AND-36155-SUM"
	"T5-OR-145-MAX" -> M1
	"T5-OR-145-MAX" -> M2
	"T5-OR-145-MAX" -> M3
	"T6-OR-172-MAX" -> M4
	"T6-OR-172-MAX" -> M5
	"T7-AND-1590-SUM" -> M6
	"T7-AND-1590-SUM" -> M7
	"T7-AND-1590-SUM" -> M8
	"T7-AND-1590-SUM" -> M9
	"T7-AND-1590-SUM" -> M10
	"T8-OR-11938-MAX" -> M11
	"T8-OR-11938-MAX" -> M12
	"T9-AND-36155-SUM" -> M13
	"T9-AND-36155-SUM" -> M14
}
