digraph G {
	"RTS60-OR-50000-MAX" -> "T1-AND-50000-SUM"
	"T1-AND-50000-SUM" -> "T4-AND-50000-SUM"
	"RTS60-OR-50000-MAX" -> "T2-AND-50000-SUM"
	"T2-AND-50000-SUM" -> "T5-AND-50000-SUM"
	"RTS60-OR-50000-MAX" -> "T3-AND-50000-SUM"
	"T3-AND-50000-SUM" -> "T6-AND-50000-SUM"
	"T4-AND-50000-SUM" -> M1
	"T5-AND-50000-SUM" -> M2
	"T5-AND-50000-SUM" -> M3
	"T5-AND-50000-SUM" -> M4
	"T5-AND-50000-SUM" -> M5
	"T5-AND-50000-SUM" -> M6
	"T5-AND-50000-SUM" -> M7
	"T5-AND-50000-SUM" -> M8
	"T5-AND-50000-SUM" -> M9
	"T5-AND-50000-SUM" -> M10
	"T5-AND-50000-SUM" -> M11
	"T5-AND-50000-SUM" -> M12
	"T5-AND-50000-SUM" -> M13
	"T6-AND-50000-SUM" -> M14
}
