digraph G {
	"RTS62-OR-50000-MAX" -> "T1-AND-50000-SUM"
	"T1-AND-50000-SUM" -> "T4-OR-50000-MAX"
	"RTS62-OR-50000-MAX" -> "T2-AND-50000-SUM"
	"T2-AND-50000-SUM" -> "T5-OR-50000-MAX"
	"RTS62-OR-50000-MAX" -> "T3-AND-50000-SUM"
	"T3-AND-50000-SUM" -> "T6-AND-50000-SUM"
	"T4-OR-50000-MAX" -> M1
	"T4-OR-50000-MAX" -> M2
	"T5-OR-50000-MAX" -> M3
	"T5-OR-50000-MAX" -> M4
	"T5-OR-50000-MAX" -> M5
	"T5-OR-50000-MAX" -> M6
	"T5-OR-50000-MAX" -> M7
	"T6-AND-50000-SUM" -> M8
	"T6-AND-50000-SUM" -> M9
	"T6-AND-50000-SUM" -> M10
}
