digraph G {
	"RTS75-AND-50000-SUM" -> "T1-OR-50000-MAX"
	"T1-OR-50000-MAX" -> "T2-AND-50000-SUM"
	"T2-AND-50000-SUM" -> "T5-OR-9425-MAX"
	"T2-AND-50000-SUM" -> "T6-OR-40575-MAX"
	"T1-OR-50000-MAX" -> "T3-AND-50000-SUM"
	"T3-AND-50000-SUM" -> "T7-OR-108-MAX"
	"T3-AND-50000-SUM" -> "T8-AND-49892-SUM"
	"T1-OR-50000-MAX" -> "T4-AND-50000-SUM"
	"T4-AND-50000-SUM" -> "T9-AND-50000-SUM"
	"T5-OR-9425-MAX" -> M1
	"T5-OR-9425-MAX" -> M2
	"T5-OR-9425-MAX" -> M3
	"T6-OR-40575-MAX" -> M4
	"T6-OR-40575-MAX" -> M5
	"T6-OR-40575-MAX" -> M6
	"T7-OR-108-MAX" -> M7
	"T7-OR-108-MAX" -> M8
	"T8-AND-49892-SUM" -> M9
	"T9-AND-50000-SUM" -> M10
	"T9-AND-50000-SUM" -> M11
	"T9-AND-50000-SUM" -> M12
}
