####### Sequential Logger #######



    ## Message ##
        Sending a SetRandomSeedMessage to Agent1
        The random seed is -365680563749903118


    ## Message ##
        Sending a InitialTreeMessage to Agent1
        Tree Head: Problem1


    ## Message ##
        Sending a StartSimulationMessage to Agent1
        The Simulation has Started


    ## Message ##
        Sending a NextTickMessage to Agent1
        Tick 1 has occurred


    ## Message ##
        Sending a NextTickMessage to Agent1
        Tick 2 has occurred


    ## Message ##
        Sending a NextTickMessage to Agent1
        Tick 3 has occurred


    ## Message ##
        Sending a NextTickMessage to Agent1
        Tick 4 has occurred


    ## Message ##
        Sending a NextTickMessage to Agent1
        Tick 5 has occurred


    ## Message ##
        Sending a NextTickMessage to Agent1
        Tick 6 has occurred


    ## Message ##
        Sending a NextTickMessage to Agent1
        Tick 7 has occurred


    ## Message ##
        Sending a NextTickMessage to Agent1
        Tick 8 has occurred


    ## Message ##
        Sending a NextTickMessage to Agent1
        Tick 9 has occurred


    ## Message ##
        Sending a NextTickMessage to Agent1
        Tick 10 has occurred


    ## Message ##
        Sending a NextTickMessage to Agent1
        Tick 11 has occurred


    ## Message ##
        Sending a NextTickMessage to Agent1
        Tick 12 has occurred


    ## Message ##
        Sending a NextTickMessage to Agent1
        Tick 13 has occurred


    ## Message ##
        Sending a NextTickMessage to Agent1
        Tick 14 has occurred


    ## Message ##
        Sending a NextTickMessage to Agent1
        Tick 15 has occurred


    ## Message ##
        Sending a NextTickMessage to Agent1
        Tick 16 has occurred


    ## Message ##
        Sending a NextTickMessage to Agent1
        Tick 17 has occurred


    ## Message ##
        Sending a NextTickMessage to Agent1
        Tick 18 has occurred


    ## Message ##
        Sending a NextTickMessage to Agent1
        Tick 19 has occurred


    ## Message ##
        Sending a NextTickMessage to Agent1
        Tick 20 has occurred


    ## Message ##
        Sending a NextTickMessage to Agent1
        Tick 21 has occurred


    ## Message ##
        Sending a NextTickMessage to Agent1
        Tick 22 has occurred


    ## Message ##
        Sending a NextTickMessage to Agent1
        Tick 23 has occurred


    ## Message ##
        Sending a NextTickMessage to Agent1
        Tick 24 has occurred


    ## Message ##
        Sending a NextTickMessage to Agent1
        Tick 25 has occurred


    ## Message ##
        Sending a NextTickMessage to Agent1
        Tick 26 has occurred


    ## Message ##
        Sending a NextTickMessage to Agent1
        Tick 27 has occurred


    ## Message ##
        Sending a NextTickMessage to Agent1
        Tick 28 has occurred


    ## Message ##
        Sending a NextTickMessage to Agent1
        Tick 29 has occurred


    ## Message ##
        Sending a NextTickMessage to Agent1
        Tick 30 has occurred


    ## Message ##
        Sending a NextTickMessage to Agent1
        Tick 31 has occurred


    ## Message ##
        Sending a NextTickMessage to Agent1
        Tick 32 has occurred


    ## Message ##
        Sending a NextTickMessage to Agent1
        Tick 33 has occurred


    ## Message ##
        Sending a NextTickMessage to Agent1
        Tick 34 has occurred


    ## Message ##
        Sending a NextTickMessage to Agent1
        Tick 35 has occurred


    ## Message ##
        Sending a NextTickMessage to Agent1
        Tick 36 has occurred


    ## Message ##
        Sending a NextTickMessage to Agent1
        Tick 37 has occurred


    ## Message ##
        Sending a NextTickMessage to Agent1
        Tick 38 has occurred


    ## Message ##
        Sending a NextTickMessage to Agent1
        Tick 39 has occurred


    ## Message ##
        Sending a NextTickMessage to Agent1
        Tick 40 has occurred


    ## Message ##
        Sending a NextTickMessage to Agent1
        Tick 41 has occurred


    ## Message ##
        Sending a NextTickMessage to Agent1
        Tick 42 has occurred


    ## Message ##
        Sending a NextTickMessage to Agent1
        Tick 43 has occurred


    ## Message ##
        Sending a NextTickMessage to Agent1
        Tick 44 has occurred


    ## Message ##
        Sending a NextTickMessage to Agent1
        Tick 45 has occurred


    ## Message ##
        Sending a NextTickMessage to Agent1
        Tick 46 has occurred


    ## Message ##
        Sending a NextTickMessage to Agent1
        Tick 47 has occurred


    ## Message ##
        Sending a NextTickMessage to Agent1
        Tick 48 has occurred


    ## Message ##
        Sending a NextTickMessage to Agent1
        Tick 49 has occurred


    ## Message ##
        Sending a NextTickMessage to Agent1
        Tick 50 has occurred


    ## Message ##
        Sending a NextTickMessage to Agent1
        Tick 51 has occurred


    ## Message ##
        Sending a NextTickMessage to Agent1
        Tick 52 has occurred


    ## Message ##
        Sending a NextTickMessage to Agent1
        Tick 53 has occurred


    ## Message ##
        Sending a NextTickMessage to Agent1
        Tick 54 has occurred


    ## Message ##
        Sending a NextTickMessage to Agent1
        Tick 55 has occurred


    ## Message ##
        Sending a NextTickMessage to Agent1
        Tick 56 has occurred


    ## Message ##
        Sending a NextTickMessage to Agent1
        Tick 57 has occurred


    ## Message ##
        Sending a NextTickMessage to Agent1
        Tick 58 has occurred


    ## Message ##
        Sending a NextTickMessage to Agent1
        Tick 59 has occurred


    ## Message ##
        Sending a NextTickMessage to Agent1
        Tick 60 has occurred


    ## Message ##
        Sending a NextTickMessage to Agent1
        Tick 61 has occurred


    ## Message ##
        Sending a NextTickMessage to Agent1
        Tick 62 has occurred


    ## Message ##
        Sending a NextTickMessage to Agent1
        Tick 63 has occurred


    ## Message ##
        Sending a NextTickMessage to Agent1
        Tick 64 has occurred


    ## Message ##
        Sending a NextTickMessage to Agent1
        Tick 65 has occurred


    ## Message ##
        Sending a NextTickMessage to Agent1
        Tick 66 has occurred


    ## Message ##
        Sending a NextTickMessage to Agent1
        Tick 67 has occurred


    ## Message ##
        Sending a NextTickMessage to Agent1
        Tick 68 has occurred


    ## Message ##
        Sending a NextTickMessage to Agent1
        Tick 69 has occurred


    ## Message ##
        Sending a NextTickMessage to Agent1
        Tick 70 has occurred


    ## Message ##
        Sending a NextTickMessage to Agent1
        Tick 71 has occurred


    ## Message ##
        Sending a NextTickMessage to Agent1
        Tick 72 has occurred


    ## Message ##
        Sending a NextTickMessage to Agent1
        Tick 73 has occurred


    ## Message ##
        Sending a NextTickMessage to Agent1
        Tick 74 has occurred


    ## Message ##
        Sending a NextTickMessage to Agent1
        Tick 75 has occurred


    ## Message ##
        Sending a NextTickMessage to Agent1
        Tick 76 has occurred


    ## Message ##
        Sending a NextTickMessage to Agent1
        Tick 77 has occurred


    ## Message ##
        Sending a NextTickMessage to Agent1
        Tick 78 has occurred


    ## Message ##
        Sending a NextTickMessage to Agent1
        Tick 79 has occurred


    ## Message ##
        Sending a NextTickMessage to Agent1
        Tick 80 has occurred


    ## Message ##
        Sending a NextTickMessage to Agent1
        Tick 81 has occurred


    ## Message ##
        Sending a NextTickMessage to Agent1
        Tick 82 has occurred


    ## Message ##
        Sending a NextTickMessage to Agent1
        Tick 83 has occurred


    ## Message ##
        Sending a NextTickMessage to Agent1
        Tick 84 has occurred


    ## Message ##
        Sending a NextTickMessage to Agent1
        Tick 85 has occurred


    ## Message ##
        Sending a NextTickMessage to Agent1
        Tick 86 has occurred


    ## Message ##
        Sending a NextTickMessage to Agent1
        Tick 87 has occurred


    ## Message ##
        Sending a NextTickMessage to Agent1
        Tick 88 has occurred


    ## Message ##
        Sending a NextTickMessage to Agent1
        Tick 89 has occurred


    ## Message ##
        Sending a NextTickMessage to Agent1
        Tick 90 has occurred


    ## Message ##
        Sending a NextTickMessage to Agent1
        Tick 91 has occurred


    ## Message ##
        Sending a NextTickMessage to Agent1
        Tick 92 has occurred


    ## Message ##
        Sending a NextTickMessage to Agent1
        Tick 93 has occurred


    ## Message ##
        Sending a NextTickMessage to Agent1
        Tick 94 has occurred


    ## Message ##
        Sending a NextTickMessage to Agent1
        Tick 95 has occurred


    ## Message ##
        Sending a NextTickMessage to Agent1
        Tick 96 has occurred


    ## Message ##
        Sending a NextTickMessage to Agent1
        Tick 97 has occurred


    ## Message ##
        Sending a NextTickMessage to Agent1
        Tick 98 has occurred


    ## Message ##
        Sending a NextTickMessage to Agent1
        Tick 99 has occurred


    ## Message ##
        Sending a NextTickMessage to Agent1
        Tick 100 has occurred


    ## Message ##
        Sending a NextTickMessage to Agent1
        Tick 101 has occurred


    ## Message ##
        Sending a NextTickMessage to Agent1
        Tick 102 has occurred


    ## Message ##
        Sending a NextTickMessage to Agent1
        Tick 103 has occurred


    ## Message ##
        Sending a NextTickMessage to Agent1
        Tick 104 has occurred


    ## Message ##
        Sending a NextTickMessage to Agent1
        Tick 105 has occurred


    ## Message ##
        Sending a NextTickMessage to Agent1
        Tick 106 has occurred


    ## Message ##
        Sending a NextTickMessage to Agent1
        Tick 107 has occurred


    ## Message ##
        Sending a NextTickMessage to Agent1
        Tick 108 has occurred


    ## Message ##
        Sending a NextTickMessage to Agent1
        Tick 109 has occurred


    ## Message ##
        Sending a NextTickMessage to Agent1
        Tick 110 has occurred


    ## Message ##
        Sending a NextTickMessage to Agent1
        Tick 111 has occurred


    ## Message ##
        Sending a NextTickMessage to Agent1
        Tick 112 has occurred


    ## Message ##
        Sending a NextTickMessage to Agent1
        Tick 113 has occurred


    ## Message ##
        Sending a NextTickMessage to Agent1
        Tick 114 has occurred


    ## Message ##
        Sending a NextTickMessage to Agent1
        Tick 115 has occurred


    ## Message ##
        Sending a NextTickMessage to Agent1
        Tick 116 has occurred


    ## Message ##
        Sending a NextTickMessage to Agent1
        Tick 117 has occurred


    ## Message ##
        Sending a NextTickMessage to Agent1
        Tick 118 has occurred


    ## Message ##
        Sending a NextTickMessage to Agent1
        Tick 119 has occurred


    ## Message ##
        Sending a NextTickMessage to Agent1
        Tick 120 has occurred


    ## Message ##
        Sending a NextTickMessage to Agent1
        Tick 121 has occurred


    ## Message ##
        Sending a NextTickMessage to Agent1
        Tick 122 has occurred


    ## Message ##
        Sending a NextTickMessage to Agent1
        Tick 123 has occurred


    ## Message ##
        Sending a NextTickMessage to Agent1
        Tick 124 has occurred


    ## Message ##
        Sending a NextTickMessage to Agent1
        Tick 125 has occurred


    ## Message ##
        Sending a NextTickMessage to Agent1
        Tick 126 has occurred


    ## Message ##
        Sending a NextTickMessage to Agent1
        Tick 127 has occurred


    ## Message ##
        Sending a NextTickMessage to Agent1
        Tick 128 has occurred


    ## Message ##
        Sending a NextTickMessage to Agent1
        Tick 129 has occurred


    ## Message ##
        Sending a NextTickMessage to Agent1
        Tick 130 has occurred


    ## Message ##
        Sending a NextTickMessage to Agent1
        Tick 131 has occurred


    ## Message ##
        Sending a NextTickMessage to Agent1
        Tick 132 has occurred


    ## Message ##
        Sending a NextTickMessage to Agent1
        Tick 133 has occurred


    ## Message ##
        Sending a NextTickMessage to Agent1
        Tick 134 has occurred


    ## Message ##
        Sending a NextTickMessage to Agent1
        Tick 135 has occurred


    ## Message ##
        Sending a NextTickMessage to Agent1
        Tick 136 has occurred


    ## Message ##
        Sending a NextTickMessage to Agent1
        Tick 137 has occurred


    ## Message ##
        Sending a NextTickMessage to Agent1
        Tick 138 has occurred


    ## Message ##
        Sending a NextTickMessage to Agent1
        Tick 139 has occurred


    ## Message ##
        Sending a NextTickMessage to Agent1
        Tick 140 has occurred


    ## Message ##
        Sending a NextTickMessage to Agent1
        Tick 141 has occurred


    ## Message ##
        Sending a NextTickMessage to Agent1
        Tick 142 has occurred


    ## Message ##
        Sending a NextTickMessage to Agent1
        Tick 143 has occurred


    ## Message ##
        Sending a NextTickMessage to Agent1
        Tick 144 has occurred


    ## Message ##
        Sending a NextTickMessage to Agent1
        Tick 145 has occurred


    ## Message ##
        Sending a NextTickMessage to Agent1
        Tick 146 has occurred


    ## Message ##
        Sending a NextTickMessage to Agent1
        Tick 147 has occurred


    ## Message ##
        Sending a NextTickMessage to Agent1
        Tick 148 has occurred


    ## Message ##
        Sending a NextTickMessage to Agent1
        Tick 149 has occurred


    ## Message ##
        Sending a NextTickMessage to Agent1
        Tick 150 has occurred


    ## Message ##
        Sending a NextTickMessage to Agent1
        Tick 151 has occurred


    ## Message ##
        Sending a NextTickMessage to Agent1
        Tick 152 has occurred


    ## Message ##
        Sending a NextTickMessage to Agent1
        Tick 153 has occurred


    ## Message ##
        Sending a NextTickMessage to Agent1
        Tick 154 has occurred


    ## Message ##
        Sending a NextTickMessage to Agent1
        Tick 155 has occurred


    ## Message ##
        Sending a NextTickMessage to Agent1
        Tick 156 has occurred


    ## Message ##
        Sending a NextTickMessage to Agent1
        Tick 157 has occurred


    ## Message ##
        Sending a NextTickMessage to Agent1
        Tick 158 has occurred


    ## Message ##
        Sending a NextTickMessage to Agent1
        Tick 159 has occurred


    ## Message ##
        Sending a NextTickMessage to Agent1
        Tick 160 has occurred


    ## Message ##
        Sending a NextTickMessage to Agent1
        Tick 161 has occurred


    ## Message ##
        Sending a NextTickMessage to Agent1
        Tick 162 has occurred


    ## Message ##
        Sending a NextTickMessage to Agent1
        Tick 163 has occurred


    ## Message ##
        Sending a NextTickMessage to Agent1
        Tick 164 has occurred


    ## Message ##
        Sending a NextTickMessage to Agent1
        Tick 165 has occurred


    ## Message ##
        Sending a NextTickMessage to Agent1
        Tick 166 has occurred


    ## Message ##
        Sending a NextTickMessage to Agent1
        Tick 167 has occurred


    ## Message ##
        Sending a NextTickMessage to Agent1
        Tick 168 has occurred


    ## Message ##
        Sending a NextTickMessage to Agent1
        Tick 169 has occurred


    ## Message ##
        Sending a NextTickMessage to Agent1
        Tick 170 has occurred


    ## Message ##
        Sending a NextTickMessage to Agent1
        Tick 171 has occurred


    ## Message ##
        Sending a NextTickMessage to Agent1
        Tick 172 has occurred


    ## Message ##
        Sending a NextTickMessage to Agent1
        Tick 173 has occurred


    ## Message ##
        Sending a NextTickMessage to Agent1
        Tick 174 has occurred


    ## Message ##
        Sending a NextTickMessage to Agent1
        Tick 175 has occurred


    ## Message ##
        Sending a NextTickMessage to Agent1
        Tick 176 has occurred


    ## Message ##
        Sending a NextTickMessage to Agent1
        Tick 177 has occurred


    ## Message ##
        Sending a NextTickMessage to Agent1
        Tick 178 has occurred


    ## Message ##
        Sending a NextTickMessage to Agent1
        Tick 179 has occurred


    ## Message ##
        Sending a NextTickMessage to Agent1
        Tick 180 has occurred


    ## Message ##
        Sending a NextTickMessage to Agent1
        Tick 181 has occurred


    ## Message ##
        Sending a NextTickMessage to Agent1
        Tick 182 has occurred


    ## Message ##
        Sending a NextTickMessage to Agent1
        Tick 183 has occurred


    ## Message ##
        Sending a NextTickMessage to Agent1
        Tick 184 has occurred


    ## Message ##
        Sending a NextTickMessage to Agent1
        Tick 185 has occurred


    ## Message ##
        Sending a NextTickMessage to Agent1
        Tick 186 has occurred


    ## Message ##
        Sending a NextTickMessage to Agent1
        Tick 187 has occurred


    ## Message ##
        Sending a NextTickMessage to Agent1
        Tick 188 has occurred


    ## Message ##
        Sending a NextTickMessage to Agent1
        Tick 189 has occurred


    ## Message ##
        Sending a NextTickMessage to Agent1
        Tick 190 has occurred


    ## Message ##
        Sending a NextTickMessage to Agent1
        Tick 191 has occurred


    ## Message ##
        Sending a NextTickMessage to Agent1
        Tick 192 has occurred


    ## Message ##
        Sending a NextTickMessage to Agent1
        Tick 193 has occurred


    ## Message ##
        Sending a NextTickMessage to Agent1
        Tick 194 has occurred


    ## Message ##
        Sending a NextTickMessage to Agent1
        Tick 195 has occurred


    ## Message ##
        Sending a NextTickMessage to Agent1
        Tick 196 has occurred


    ## Message ##
        Sending a NextTickMessage to Agent1
        Tick 197 has occurred


    ## Message ##
        Sending a NextTickMessage to Agent1
        Tick 198 has occurred


    ## Message ##
        Sending a NextTickMessage to Agent1
        Tick 199 has occurred


    ## Message ##
        Sending a NextTickMessage to Agent1
        Tick 200 has occurred


    ## Message ##
        Sending a NextTickMessage to Agent1
        Tick 201 has occurred


    ## Message ##
        Sending a NextTickMessage to Agent1
        Tick 202 has occurred


    ## Message ##
        Sending a NextTickMessage to Agent1
        Tick 203 has occurred


    ## Message ##
        Sending a NextTickMessage to Agent1
        Tick 204 has occurred


    ## Message ##
        Sending a NextTickMessage to Agent1
        Tick 205 has occurred


    ## Message ##
        Sending a NextTickMessage to Agent1
        Tick 206 has occurred


    ## Message ##
        Sending a NextTickMessage to Agent1
        Tick 207 has occurred


    ## Message ##
        Sending a NextTickMessage to Agent1
        Tick 208 has occurred


    ## Message ##
        Sending a NextTickMessage to Agent1
        Tick 209 has occurred


    ## Message ##
        Sending a NextTickMessage to Agent1
        Tick 210 has occurred


    ## Message ##
        Sending a NextTickMessage to Agent1
        Tick 211 has occurred


    ## Message ##
        Sending a NextTickMessage to Agent1
        Tick 212 has occurred


    ## Message ##
        Sending a NextTickMessage to Agent1
        Tick 213 has occurred


    ## Message ##
        Sending a NextTickMessage to Agent1
        Tick 214 has occurred


    ## Message ##
        Sending a NextTickMessage to Agent1
        Tick 215 has occurred


    ## Message ##
        Sending a NextTickMessage to Agent1
        Tick 216 has occurred


    ## Message ##
        Sending a NextTickMessage to Agent1
        Tick 217 has occurred


    ## Message ##
        Sending a NextTickMessage to Agent1
        Tick 218 has occurred


    ## Message ##
        Sending a NextTickMessage to Agent1
        Tick 219 has occurred


    ## Message ##
        Sending a NextTickMessage to Agent1
        Tick 220 has occurred


    ## Message ##
        Sending a NextTickMessage to Agent1
        Tick 221 has occurred


    ## Message ##
        Sending a NextTickMessage to Agent1
        Tick 222 has occurred


    ## Message ##
        Sending a NextTickMessage to Agent1
        Tick 223 has occurred


    ## Message ##
        Sending a NextTickMessage to Agent1
        Tick 224 has occurred


    ## Message ##
        Sending a NextTickMessage to Agent1
        Tick 225 has occurred


    ## Message ##
        Sending a NextTickMessage to Agent1
        Tick 226 has occurred


    ## Message ##
        Sending a NextTickMessage to Agent1
        Tick 227 has occurred


    ## Message ##
        Sending a NextTickMessage to Agent1
        Tick 228 has occurred


    ## Message ##
        Sending a NextTickMessage to Agent1
        Tick 229 has occurred


    ## Message ##
        Sending a NextTickMessage to Agent1
        Tick 230 has occurred


    ## Message ##
        Sending a NextTickMessage to Agent1
        Tick 231 has occurred


    ## Message ##
        Sending a NextTickMessage to Agent1
        Tick 232 has occurred


    ## Message ##
        Sending a NextTickMessage to Agent1
        Tick 233 has occurred


    ## Message ##
        Sending a NextTickMessage to Agent1
        Tick 234 has occurred


    ## Message ##
        Sending a NextTickMessage to Agent1
        Tick 235 has occurred


    ## Message ##
        Sending a NextTickMessage to Agent1
        Tick 236 has occurred


    ## Message ##
        Sending a NextTickMessage to Agent1
        Tick 237 has occurred


    ## Message ##
        Sending a NextTickMessage to Agent1
        Tick 238 has occurred


    ## Message ##
        Sending a NextTickMessage to Agent1
        Tick 239 has occurred


    ## Message ##
        Sending a NextTickMessage to Agent1
        Tick 240 has occurred


    ## Message ##
        Sending a NextTickMessage to Agent1
        Tick 241 has occurred


    ## Message ##
        Sending a NextTickMessage to Agent1
        Tick 242 has occurred


    ## Message ##
        Sending a NextTickMessage to Agent1
        Tick 243 has occurred


    ## Message ##
        Sending a NextTickMessage to Agent1
        Tick 244 has occurred


    ## Message ##
        Sending a NextTickMessage to Agent1
        Tick 245 has occurred


    ## Message ##
        Sending a NextTickMessage to Agent1
        Tick 246 has occurred


    ## Message ##
        Sending a NextTickMessage to Agent1
        Tick 247 has occurred


    ## Message ##
        Sending a NextTickMessage to Agent1
        Tick 248 has occurred


    ## Message ##
        Sending a NextTickMessage to Agent1
        Tick 249 has occurred


    ## Message ##
        Sending a NextTickMessage to Agent1
        Tick 250 has occurred


    ## Message ##
        Sending a NextTickMessage to Agent1
        Tick 251 has occurred


    ## Message ##
        Sending a NextTickMessage to Agent1
        Tick 252 has occurred


    ## Message ##
        Sending a NextTickMessage to Agent1
        Tick 253 has occurred


    ## Message ##
        Sending a NextTickMessage to Agent1
        Tick 254 has occurred


    ## Message ##
        Sending a NextTickMessage to Agent1
        Tick 255 has occurred


    ## Message ##
        Sending a NextTickMessage to Agent1
        Tick 256 has occurred


    ## Message ##
        Sending a NextTickMessage to Agent1
        Tick 257 has occurred


    ## Message ##
        Sending a NextTickMessage to Agent1
        Tick 258 has occurred


    ## Message ##
        Sending a NextTickMessage to Agent1
        Tick 259 has occurred


    ## Message ##
        Sending a NextTickMessage to Agent1
        Tick 260 has occurred


    ## Message ##
        Sending a NextTickMessage to Agent1
        Tick 261 has occurred


    ## Message ##
        Sending a NextTickMessage to Agent1
        Tick 262 has occurred


    ## Message ##
        Sending a NextTickMessage to Agent1
        Tick 263 has occurred


    ## Message ##
        Sending a NextTickMessage to Agent1
        Tick 264 has occurred


    ## Message ##
        Sending a NextTickMessage to Agent1
        Tick 265 has occurred


    ## Message ##
        Sending a NextTickMessage to Agent1
        Tick 266 has occurred


    ## Message ##
        Sending a NextTickMessage to Agent1
        Tick 267 has occurred


    ## Message ##
        Sending a NextTickMessage to Agent1
        Tick 268 has occurred


    ## Message ##
        Sending a NextTickMessage to Agent1
        Tick 269 has occurred


    ## Message ##
        Sending a NextTickMessage to Agent1
        Tick 270 has occurred


    ## Message ##
        Sending a NextTickMessage to Agent1
        Tick 271 has occurred


    ## Message ##
        Sending a NextTickMessage to Agent1
        Tick 272 has occurred


    ## Message ##
        Sending a NextTickMessage to Agent1
        Tick 273 has occurred


    ## Message ##
        Sending a NextTickMessage to Agent1
        Tick 274 has occurred


    ## Message ##
        Sending a NextTickMessage to Agent1
        Tick 275 has occurred


    ## Message ##
        Sending a NextTickMessage to Agent1
        Tick 276 has occurred


    ## Message ##
        Sending a NextTickMessage to Agent1
        Tick 277 has occurred


    ## Message ##
        Sending a NextTickMessage to Agent1
        Tick 278 has occurred


    ## Message ##
        Sending a NextTickMessage to Agent1
        Tick 279 has occurred


    ## Message ##
        Sending a NextTickMessage to Agent1
        Tick 280 has occurred


    ## Message ##
        Sending a NextTickMessage to Agent1
        Tick 281 has occurred


    ## Message ##
        Sending a NextTickMessage to Agent1
        Tick 282 has occurred


    ## Message ##
        Sending a NextTickMessage to Agent1
        Tick 283 has occurred


    ## Message ##
        Sending a NextTickMessage to Agent1
        Tick 284 has occurred


    ## Message ##
        Sending a NextTickMessage to Agent1
        Tick 285 has occurred


    ## Message ##
        Sending a NextTickMessage to Agent1
        Tick 286 has occurred


    ## Message ##
        Sending a NextTickMessage to Agent1
        Tick 287 has occurred


    ## Message ##
        Sending a NextTickMessage to Agent1
        Tick 288 has occurred


    ## Message ##
        Sending a NextTickMessage to Agent1
        Tick 289 has occurred


    ## Message ##
        Sending a NextTickMessage to Agent1
        Tick 290 has occurred


    ## Message ##
        Sending a NextTickMessage to Agent1
        Tick 291 has occurred


    ## Message ##
        Sending a NextTickMessage to Agent1
        Tick 292 has occurred


    ## Message ##
        Sending a NextTickMessage to Agent1
        Tick 293 has occurred


    ## Message ##
        Sending a NextTickMessage to Agent1
        Tick 294 has occurred


    ## Message ##
        Sending a NextTickMessage to Agent1
        Tick 295 has occurred


    ## Message ##
        Sending a NextTickMessage to Agent1
        Tick 296 has occurred


    ## Message ##
        Sending a NextTickMessage to Agent1
        Tick 297 has occurred


    ## Message ##
        Sending a NextTickMessage to Agent1
        Tick 298 has occurred


    ## Message ##
        Sending a NextTickMessage to Agent1
        Tick 299 has occurred


    ## Message ##
        Sending a NextTickMessage to Agent1
        Tick 300 has occurred


    ## Message ##
        Sending a NextTickMessage to Agent1
        Tick 301 has occurred


    ## Message ##
        Sending a NextTickMessage to Agent1
        Tick 302 has occurred


    ## Message ##
        Sending a NextTickMessage to Agent1
        Tick 303 has occurred


    ## Message ##
        Sending a NextTickMessage to Agent1
        Tick 304 has occurred


    ## Message ##
        Sending a NextTickMessage to Agent1
        Tick 305 has occurred


    ## Message ##
        Sending a NextTickMessage to Agent1
        Tick 306 has occurred


    ## Message ##
        Sending a NextTickMessage to Agent1
        Tick 307 has occurred


    ## Message ##
        Sending a NextTickMessage to Agent1
        Tick 308 has occurred


    ## Message ##
        Sending a NextTickMessage to Agent1
        Tick 309 has occurred


    ## Message ##
        Sending a NextTickMessage to Agent1
        Tick 310 has occurred


    ## Message ##
        Sending a NextTickMessage to Agent1
        Tick 311 has occurred


    ## Message ##
        Sending a NextTickMessage to Agent1
        Tick 312 has occurred


    ## Message ##
        Sending a NextTickMessage to Agent1
        Tick 313 has occurred


    ## Message ##
        Sending a NextTickMessage to Agent1
        Tick 314 has occurred


    ## Message ##
        Sending a NextTickMessage to Agent1
        Tick 315 has occurred


    ## Message ##
        Sending a NextTickMessage to Agent1
        Tick 316 has occurred


    ## Message ##
        Sending a NextTickMessage to Agent1
        Tick 317 has occurred


    ## Message ##
        Sending a NextTickMessage to Agent1
        Tick 318 has occurred


    ## Message ##
        Sending a NextTickMessage to Agent1
        Tick 319 has occurred


    ## Message ##
        Sending a NextTickMessage to Agent1
        Tick 320 has occurred


    ## Message ##
        Sending a NextTickMessage to Agent1
        Tick 321 has occurred


    ## Message ##
        Sending a NextTickMessage to Agent1
        Tick 322 has occurred


    ## Message ##
        Sending a NextTickMessage to Agent1
        Tick 323 has occurred


    ## Message ##
        Sending a NextTickMessage to Agent1
        Tick 324 has occurred


    ## Message ##
        Sending a NextTickMessage to Agent1
        Tick 325 has occurred


    ## Message ##
        Sending a NextTickMessage to Agent1
        Tick 326 has occurred


    ## Message ##
        Sending a NextTickMessage to Agent1
        Tick 327 has occurred


    ## Message ##
        Sending a NextTickMessage to Agent1
        Tick 328 has occurred


    ## Message ##
        Sending a NextTickMessage to Agent1
        Tick 329 has occurred


    ## Message ##
        Sending a NextTickMessage to Agent1
        Tick 330 has occurred


    ## Message ##
        Sending a NextTickMessage to Agent1
        Tick 331 has occurred


    ## Message ##
        Sending a NextTickMessage to Agent1
        Tick 332 has occurred


    ## Message ##
        Sending a NextTickMessage to Agent1
        Tick 333 has occurred


    ## Message ##
        Sending a NextTickMessage to Agent1
        Tick 334 has occurred


    ## Message ##
        Sending a NextTickMessage to Agent1
        Tick 335 has occurred


    ## Message ##
        Sending a NextTickMessage to Agent1
        Tick 336 has occurred


    ## Message ##
        Sending a NextTickMessage to Agent1
        Tick 337 has occurred


    ## Message ##
        Sending a NextTickMessage to Agent1
        Tick 338 has occurred


    ## Message ##
        Sending a NextTickMessage to Agent1
        Tick 339 has occurred


    ## Message ##
        Sending a NextTickMessage to Agent1
        Tick 340 has occurred


    ## Message ##
        Sending a NextTickMessage to Agent1
        Tick 341 has occurred


    ## Message ##
        Sending a NextTickMessage to Agent1
        Tick 342 has occurred


    ## Message ##
        Sending a NextTickMessage to Agent1
        Tick 343 has occurred


    ## Message ##
        Sending a NextTickMessage to Agent1
        Tick 344 has occurred


    ## Message ##
        Sending a NextTickMessage to Agent1
        Tick 345 has occurred


    ## Message ##
        Sending a NextTickMessage to Agent1
        Tick 346 has occurred


    ## Message ##
        Sending a NextTickMessage to Agent1
        Tick 347 has occurred


    ## Message ##
        Sending a NextTickMessage to Agent1
        Tick 348 has occurred


    ## Message ##
        Sending a NextTickMessage to Agent1
        Tick 349 has occurred


    ## Message ##
        Sending a NextTickMessage to Agent1
        Tick 350 has occurred


    ## Message ##
        Sending a NextTickMessage to Agent1
        Tick 351 has occurred


    ## Message ##
        Sending a NextTickMessage to Agent1
        Tick 352 has occurred


    ## Message ##
        Sending a NextTickMessage to Agent1
        Tick 353 has occurred


    ## Message ##
        Sending a NextTickMessage to Agent1
        Tick 354 has occurred


    ## Message ##
        Sending a NextTickMessage to Agent1
        Tick 355 has occurred


    ## Message ##
        Sending a NextTickMessage to Agent1
        Tick 356 has occurred


    ## Message ##
        Sending a NextTickMessage to Agent1
        Tick 357 has occurred


    ## Message ##
        Sending a NextTickMessage to Agent1
        Tick 358 has occurred


    ## Message ##
        Sending a NextTickMessage to Agent1
        Tick 359 has occurred


    ## Message ##
        Sending a NextTickMessage to Agent1
        Tick 360 has occurred


    ## Message ##
        Sending a NextTickMessage to Agent1
        Tick 361 has occurred


    ## Message ##
        Sending a NextTickMessage to Agent1
        Tick 362 has occurred


    ## Message ##
        Sending a NextTickMessage to Agent1
        Tick 363 has occurred


    ## Message ##
        Sending a NextTickMessage to Agent1
        Tick 364 has occurred


    ## Message ##
        Sending a NextTickMessage to Agent1
        Tick 365 has occurred


    ## Message ##
        Sending a NextTickMessage to Agent1
        Tick 366 has occurred


    ## Message ##
        Sending a NextTickMessage to Agent1
        Tick 367 has occurred


    ## Message ##
        Sending a NextTickMessage to Agent1
        Tick 368 has occurred


    ## Message ##
        Sending a NextTickMessage to Agent1
        Tick 369 has occurred


    ## Message ##
        Sending a NextTickMessage to Agent1
        Tick 370 has occurred


    ## Message ##
        Sending a NextTickMessage to Agent1
        Tick 371 has occurred


    ## Message ##
        Sending a NextTickMessage to Agent1
        Tick 372 has occurred


    ## Message ##
        Sending a NextTickMessage to Agent1
        Tick 373 has occurred


    ## Message ##
        Sending a NextTickMessage to Agent1
        Tick 374 has occurred


    ## Message ##
        Sending a NextTickMessage to Agent1
        Tick 375 has occurred


    ## Message ##
        Sending a NextTickMessage to Agent1
        Tick 376 has occurred


    ## Message ##
        Sending a NextTickMessage to Agent1
        Tick 377 has occurred


    ## Message ##
        Sending a NextTickMessage to Agent1
        Tick 378 has occurred


    ## Message ##
        Sending a NextTickMessage to Agent1
        Tick 379 has occurred


    ## Message ##
        Sending a NextTickMessage to Agent1
        Tick 380 has occurred


    ## Message ##
        Sending a NextTickMessage to Agent1
        Tick 381 has occurred


    ## Message ##
        Sending a NextTickMessage to Agent1
        Tick 382 has occurred


    ## Message ##
        Sending a NextTickMessage to Agent1
        Tick 383 has occurred


    ## Message ##
        Sending a NextTickMessage to Agent1
        Tick 384 has occurred


    ## Message ##
        Sending a NextTickMessage to Agent1
        Tick 385 has occurred


    ## Message ##
        Sending a NextTickMessage to Agent1
        Tick 386 has occurred


    ## Message ##
        Sending a NextTickMessage to Agent1
        Tick 387 has occurred


    ## Message ##
        Sending a NextTickMessage to Agent1
        Tick 388 has occurred


    ## Message ##
        Sending a NextTickMessage to Agent1
        Tick 389 has occurred


    ## Message ##
        Sending a NextTickMessage to Agent1
        Tick 390 has occurred


    ## Message ##
        Sending a NextTickMessage to Agent1
        Tick 391 has occurred


    ## Message ##
        Sending a NextTickMessage to Agent1
        Tick 392 has occurred


    ## Message ##
        Sending a NextTickMessage to Agent1
        Tick 393 has occurred


    ## Message ##
        Sending a NextTickMessage to Agent1
        Tick 394 has occurred


    ## Message ##
        Sending a NextTickMessage to Agent1
        Tick 395 has occurred


    ## Message ##
        Sending a NextTickMessage to Agent1
        Tick 396 has occurred


    ## Message ##
        Sending a NextTickMessage to Agent1
        Tick 397 has occurred


    ## Message ##
        Sending a NextTickMessage to Agent1
        Tick 398 has occurred


    ## Message ##
        Sending a NextTickMessage to Agent1
        Tick 399 has occurred


    ## Message ##
        Sending a NextTickMessage to Agent1
        Tick 400 has occurred


    ## Message ##
        Sending a NextTickMessage to Agent1
        Tick 401 has occurred


    ## Message ##
        Sending a NextTickMessage to Agent1
        Tick 402 has occurred


    ## Message ##
        Sending a NextTickMessage to Agent1
        Tick 403 has occurred


    ## Message ##
        Sending a NextTickMessage to Agent1
        Tick 404 has occurred


    ## Message ##
        Sending a NextTickMessage to Agent1
        Tick 405 has occurred


    ## Message ##
        Sending a NextTickMessage to Agent1
        Tick 406 has occurred


    ## Message ##
        Sending a NextTickMessage to Agent1
        Tick 407 has occurred


    ## Message ##
        Sending a NextTickMessage to Agent1
        Tick 408 has occurred


    ## Message ##
        Sending a NextTickMessage to Agent1
        Tick 409 has occurred


    ## Message ##
        Sending a NextTickMessage to Agent1
        Tick 410 has occurred


    ## Message ##
        Sending a NextTickMessage to Agent1
        Tick 411 has occurred


    ## Message ##
        Sending a NextTickMessage to Agent1
        Tick 412 has occurred


    ## Message ##
        Sending a NextTickMessage to Agent1
        Tick 413 has occurred


    ## Message ##
        Sending a NextTickMessage to Agent1
        Tick 414 has occurred


    ## Message ##
        Sending a NextTickMessage to Agent1
        Tick 415 has occurred


    ## Message ##
        Sending a NextTickMessage to Agent1
        Tick 416 has occurred


    ## Message ##
        Sending a NextTickMessage to Agent1
        Tick 417 has occurred


    ## Message ##
        Sending a NextTickMessage to Agent1
        Tick 418 has occurred


    ## Message ##
        Sending a NextTickMessage to Agent1
        Tick 419 has occurred


    ## Message ##
        Sending a NextTickMessage to Agent1
        Tick 420 has occurred


    ## Message ##
        Sending a NextTickMessage to Agent1
        Tick 421 has occurred


    ## Message ##
        Sending a NextTickMessage to Agent1
        Tick 422 has occurred


    ## Message ##
        Sending a NextTickMessage to Agent1
        Tick 423 has occurred


    ## Message ##
        Sending a NextTickMessage to Agent1
        Tick 424 has occurred


    ## Message ##
        Sending a NextTickMessage to Agent1
        Tick 425 has occurred


    ## Message ##
        Sending a NextTickMessage to Agent1
        Tick 426 has occurred


    ## Message ##
        Sending a NextTickMessage to Agent1
        Tick 427 has occurred


    ## Message ##
        Sending a NextTickMessage to Agent1
        Tick 428 has occurred


    ## Message ##
        Sending a NextTickMessage to Agent1
        Tick 429 has occurred


    ## Message ##
        Sending a NextTickMessage to Agent1
        Tick 430 has occurred


    ## Message ##
        Sending a NextTickMessage to Agent1
        Tick 431 has occurred


    ## Message ##
        Sending a NextTickMessage to Agent1
        Tick 432 has occurred


    ## Message ##
        Sending a NextTickMessage to Agent1
        Tick 433 has occurred


    ## Message ##
        Sending a NextTickMessage to Agent1
        Tick 434 has occurred


    ## Message ##
        Sending a NextTickMessage to Agent1
        Tick 435 has occurred


    ## Message ##
        Sending a NextTickMessage to Agent1
        Tick 436 has occurred


    ## Message ##
        Sending a NextTickMessage to Agent1
        Tick 437 has occurred


    ## Message ##
        Sending a NextTickMessage to Agent1
        Tick 438 has occurred


    ## Message ##
        Sending a NextTickMessage to Agent1
        Tick 439 has occurred


    ## Message ##
        Sending a NextTickMessage to Agent1
        Tick 440 has occurred


    ## Message ##
        Sending a NextTickMessage to Agent1
        Tick 441 has occurred


    ## Message ##
        Sending a NextTickMessage to Agent1
        Tick 442 has occurred


    ## Message ##
        Sending a NextTickMessage to Agent1
        Tick 443 has occurred


    ## Message ##
        Sending a NextTickMessage to Agent1
        Tick 444 has occurred


    ## Message ##
        Sending a NextTickMessage to Agent1
        Tick 445 has occurred


    ## Message ##
        Sending a NextTickMessage to Agent1
        Tick 446 has occurred


    ## Message ##
        Sending a NextTickMessage to Agent1
        Tick 447 has occurred


    ## Message ##
        Sending a NextTickMessage to Agent1
        Tick 448 has occurred


    ## Message ##
        Sending a NextTickMessage to Agent1
        Tick 449 has occurred


    ## Message ##
        Sending a NextTickMessage to Agent1
        Tick 450 has occurred


    ## Message ##
        Sending a NextTickMessage to Agent1
        Tick 451 has occurred


    ## Message ##
        Sending a NextTickMessage to Agent1
        Tick 452 has occurred


    ## Message ##
        Sending a NextTickMessage to Agent1
        Tick 453 has occurred


    ## Message ##
        Sending a NextTickMessage to Agent1
        Tick 454 has occurred


    ## Message ##
        Sending a NextTickMessage to Agent1
        Tick 455 has occurred


    ## Message ##
        Sending a NextTickMessage to Agent1
        Tick 456 has occurred


    ## Message ##
        Sending a NextTickMessage to Agent1
        Tick 457 has occurred


    ## Message ##
        Sending a NextTickMessage to Agent1
        Tick 458 has occurred


    ## Message ##
        Sending a NextTickMessage to Agent1
        Tick 459 has occurred


    ## Message ##
        Sending a NextTickMessage to Agent1
        Tick 460 has occurred


    ## Message ##
        Sending a NextTickMessage to Agent1
        Tick 461 has occurred


    ## Message ##
        Sending a NextTickMessage to Agent1
        Tick 462 has occurred


    ## Message ##
        Sending a NextTickMessage to Agent1
        Tick 463 has occurred


    ## Message ##
        Sending a NextTickMessage to Agent1
        Tick 464 has occurred


    ## Message ##
        Sending a NextTickMessage to Agent1
        Tick 465 has occurred


    ## Message ##
        Sending a NextTickMessage to Agent1
        Tick 466 has occurred


    ## Message ##
        Sending a NextTickMessage to Agent1
        Tick 467 has occurred


    ## Message ##
        Sending a NextTickMessage to Agent1
        Tick 468 has occurred


    ## Message ##
        Sending a NextTickMessage to Agent1
        Tick 469 has occurred


    ## Message ##
        Sending a NextTickMessage to Agent1
        Tick 470 has occurred


    ## Message ##
        Sending a NextTickMessage to Agent1
        Tick 471 has occurred


    ## Message ##
        Sending a NextTickMessage to Agent1
        Tick 472 has occurred


    ## Message ##
        Sending a NextTickMessage to Agent1
        Tick 473 has occurred


    ## Message ##
        Sending a NextTickMessage to Agent1
        Tick 474 has occurred


    ## Message ##
        Sending a NextTickMessage to Agent1
        Tick 475 has occurred


    ## Message ##
        Sending a NextTickMessage to Agent1
        Tick 476 has occurred


    ## Message ##
        Sending a NextTickMessage to Agent1
        Tick 477 has occurred


    ## Message ##
        Sending a NextTickMessage to Agent1
        Tick 478 has occurred


    ## Message ##
        Sending a NextTickMessage to Agent1
        Tick 479 has occurred


    ## Message ##
        Sending a NextTickMessage to Agent1
        Tick 480 has occurred


    ## Message ##
        Sending a NextTickMessage to Agent1
        Tick 481 has occurred


    ## Message ##
        Sending a NextTickMessage to Agent1
        Tick 482 has occurred


    ## Message ##
        Sending a NextTickMessage to Agent1
        Tick 483 has occurred


    ## Message ##
        Sending a NextTickMessage to Agent1
        Tick 484 has occurred


    ## Message ##
        Sending a NextTickMessage to Agent1
        Tick 485 has occurred


    ## Message ##
        Sending a NextTickMessage to Agent1
        Tick 486 has occurred


    ## Message ##
        Sending a NextTickMessage to Agent1
        Tick 487 has occurred


    ## Message ##
        Sending a NextTickMessage to Agent1
        Tick 488 has occurred


    ## Message ##
        Sending a NextTickMessage to Agent1
        Tick 489 has occurred


    ## Message ##
        Sending a NextTickMessage to Agent1
        Tick 490 has occurred


    ## Message ##
        Sending a NextTickMessage to Agent1
        Tick 491 has occurred


    ## Message ##
        Sending a NextTickMessage to Agent1
        Tick 492 has occurred


    ## Message ##
        Sending a NextTickMessage to Agent1
        Tick 493 has occurred


    ## Message ##
        Sending a NextTickMessage to Agent1
        Tick 494 has occurred


    ## Message ##
        Sending a NextTickMessage to Agent1
        Tick 495 has occurred


    ## Message ##
        Sending a NextTickMessage to Agent1
        Tick 496 has occurred


    ## Message ##
        Sending a NextTickMessage to Agent1
        Tick 497 has occurred


    ## Message ##
        Sending a NextTickMessage to Agent1
        Tick 498 has occurred


    ## Message ##
        Sending a NextTickMessage to Agent1
        Tick 499 has occurred


    ## Message ##
        Sending a NextTickMessage to Agent1
        Tick 500 has occurred


    ## Message ##
        Sending a NextTickMessage to Agent1
        Tick 501 has occurred


    ## Message ##
        Sending a NextTickMessage to Agent1
        Tick 502 has occurred


    ## Message ##
        Sending a NextTickMessage to Agent1
        Tick 503 has occurred


    ## Message ##
        Sending a NextTickMessage to Agent1
        Tick 504 has occurred


    ## Message ##
        Sending a NextTickMessage to Agent1
        Tick 505 has occurred


    ## Message ##
        Sending a NextTickMessage to Agent1
        Tick 506 has occurred


    ## Message ##
        Sending a NextTickMessage to Agent1
        Tick 507 has occurred


    ## Message ##
        Sending a NextTickMessage to Agent1
        Tick 508 has occurred


    ## Message ##
        Sending a NextTickMessage to Agent1
        Tick 509 has occurred


    ## Message ##
        Sending a NextTickMessage to Agent1
        Tick 510 has occurred


    ## Message ##
        Sending a NextTickMessage to Agent1
        Tick 511 has occurred


    ## Message ##
        Sending a NextTickMessage to Agent1
        Tick 512 has occurred


    ## Message ##
        Sending a NextTickMessage to Agent1
        Tick 513 has occurred


    ## Message ##
        Sending a NextTickMessage to Agent1
        Tick 514 has occurred


    ## Message ##
        Sending a NextTickMessage to Agent1
        Tick 515 has occurred


    ## Message ##
        Sending a NextTickMessage to Agent1
        Tick 516 has occurred


    ## Message ##
        Sending a NextTickMessage to Agent1
        Tick 517 has occurred


    ## Message ##
        Sending a NextTickMessage to Agent1
        Tick 518 has occurred


    ## Message ##
        Sending a NextTickMessage to Agent1
        Tick 519 has occurred


    ## Message ##
        Sending a NextTickMessage to Agent1
        Tick 520 has occurred


    ## Message ##
        Sending a NextTickMessage to Agent1
        Tick 521 has occurred


    ## Message ##
        Sending a NextTickMessage to Agent1
        Tick 522 has occurred


    ## Message ##
        Sending a NextTickMessage to Agent1
        Tick 523 has occurred


    ## Message ##
        Sending a NextTickMessage to Agent1
        Tick 524 has occurred


    ## Message ##
        Sending a NextTickMessage to Agent1
        Tick 525 has occurred


    ## Message ##
        Sending a NextTickMessage to Agent1
        Tick 526 has occurred


    ## Message ##
        Sending a NextTickMessage to Agent1
        Tick 527 has occurred


    ## Message ##
        Sending a NextTickMessage to Agent1
        Tick 528 has occurred


    ## Message ##
        Sending a NextTickMessage to Agent1
        Tick 529 has occurred


    ## Message ##
        Sending a NextTickMessage to Agent1
        Tick 530 has occurred


    ## Message ##
        Sending a NextTickMessage to Agent1
        Tick 531 has occurred


    ## Message ##
        Sending a NextTickMessage to Agent1
        Tick 532 has occurred


    ## Message ##
        Sending a NextTickMessage to Agent1
        Tick 533 has occurred


    ## Message ##
        Sending a NextTickMessage to Agent1
        Tick 534 has occurred


    ## Message ##
        Sending a NextTickMessage to Agent1
        Tick 535 has occurred


    ## Message ##
        Sending a NextTickMessage to Agent1
        Tick 536 has occurred


    ## Message ##
        Sending a NextTickMessage to Agent1
        Tick 537 has occurred


    ## Message ##
        Sending a NextTickMessage to Agent1
        Tick 538 has occurred


    ## Message ##
        Sending a NextTickMessage to Agent1
        Tick 539 has occurred


    ## Message ##
        Sending a NextTickMessage to Agent1
        Tick 540 has occurred


    ## Message ##
        Sending a NextTickMessage to Agent1
        Tick 541 has occurred


    ## Message ##
        Sending a NextTickMessage to Agent1
        Tick 542 has occurred


    ## Message ##
        Sending a NextTickMessage to Agent1
        Tick 543 has occurred


    ## Message ##
        Sending a NextTickMessage to Agent1
        Tick 544 has occurred


    ## Message ##
        Sending a NextTickMessage to Agent1
        Tick 545 has occurred


    ## Message ##
        Sending a NextTickMessage to Agent1
        Tick 546 has occurred


    ## Message ##
        Sending a NextTickMessage to Agent1
        Tick 547 has occurred


    ## Message ##
        Sending a NextTickMessage to Agent1
        Tick 548 has occurred


    ## Message ##
        Sending a NextTickMessage to Agent1
        Tick 549 has occurred


    ## Message ##
        Sending a NextTickMessage to Agent1
        Tick 550 has occurred


    ## Message ##
        Sending a NextTickMessage to Agent1
        Tick 551 has occurred


    ## Message ##
        Sending a NextTickMessage to Agent1
        Tick 552 has occurred


    ## Message ##
        Sending a NextTickMessage to Agent1
        Tick 553 has occurred


    ## Message ##
        Sending a NextTickMessage to Agent1
        Tick 554 has occurred


    ## Message ##
        Sending a NextTickMessage to Agent1
        Tick 555 has occurred


    ## Message ##
        Sending a NextTickMessage to Agent1
        Tick 556 has occurred


    ## Message ##
        Sending a NextTickMessage to Agent1
        Tick 557 has occurred


    ## Message ##
        Sending a NextTickMessage to Agent1
        Tick 558 has occurred


    ## Message ##
        Sending a NextTickMessage to Agent1
        Tick 559 has occurred


    ## Message ##
        Sending a NextTickMessage to Agent1
        Tick 560 has occurred


    ## Message ##
        Sending a NextTickMessage to Agent1
        Tick 561 has occurred


    ## Message ##
        Sending a NextTickMessage to Agent1
        Tick 562 has occurred


    ## Message ##
        Sending a NextTickMessage to Agent1
        Tick 563 has occurred


    ## Message ##
        Sending a NextTickMessage to Agent1
        Tick 564 has occurred


    ## Message ##
        Sending a NextTickMessage to Agent1
        Tick 565 has occurred


    ## Message ##
        Sending a NextTickMessage to Agent1
        Tick 566 has occurred


    ## Message ##
        Sending a NextTickMessage to Agent1
        Tick 567 has occurred


    ## Message ##
        Sending a NextTickMessage to Agent1
        Tick 568 has occurred


    ## Message ##
        Sending a NextTickMessage to Agent1
        Tick 569 has occurred


    ## Message ##
        Sending a NextTickMessage to Agent1
        Tick 570 has occurred


    ## Message ##
        Sending a NextTickMessage to Agent1
        Tick 571 has occurred


    ## Message ##
        Sending a NextTickMessage to Agent1
        Tick 572 has occurred


    ## Message ##
        Sending a NextTickMessage to Agent1
        Tick 573 has occurred


    ## Message ##
        Sending a NextTickMessage to Agent1
        Tick 574 has occurred


    ## Message ##
        Sending a NextTickMessage to Agent1
        Tick 575 has occurred


    ## Message ##
        Sending a NextTickMessage to Agent1
        Tick 576 has occurred


    ## Message ##
        Sending a NextTickMessage to Agent1
        Tick 577 has occurred


    ## Message ##
        Sending a NextTickMessage to Agent1
        Tick 578 has occurred


    ## Message ##
        Sending a NextTickMessage to Agent1
        Tick 579 has occurred


    ## Message ##
        Sending a NextTickMessage to Agent1
        Tick 580 has occurred


    ## Message ##
        Sending a NextTickMessage to Agent1
        Tick 581 has occurred


    ## Message ##
        Sending a NextTickMessage to Agent1
        Tick 582 has occurred


    ## Message ##
        Sending a NextTickMessage to Agent1
        Tick 583 has occurred


    ## Message ##
        Sending a NextTickMessage to Agent1
        Tick 584 has occurred


    ## Message ##
        Sending a NextTickMessage to Agent1
        Tick 585 has occurred


    ## Message ##
        Sending a NextTickMessage to Agent1
        Tick 586 has occurred


    ## Message ##
        Sending a NextTickMessage to Agent1
        Tick 587 has occurred


    ## Message ##
        Sending a NextTickMessage to Agent1
        Tick 588 has occurred


    ## Message ##
        Sending a NextTickMessage to Agent1
        Tick 589 has occurred


    ## Message ##
        Sending a NextTickMessage to Agent1
        Tick 590 has occurred


    ## Message ##
        Sending a NextTickMessage to Agent1
        Tick 591 has occurred


    ## Message ##
        Sending a NextTickMessage to Agent1
        Tick 592 has occurred


    ## Message ##
        Sending a NextTickMessage to Agent1
        Tick 593 has occurred


    ## Message ##
        Sending a NextTickMessage to Agent1
        Tick 594 has occurred


    ## Message ##
        Sending a NextTickMessage to Agent1
        Tick 595 has occurred


    ## Message ##
        Sending a NextTickMessage to Agent1
        Tick 596 has occurred


    ## Message ##
        Sending a NextTickMessage to Agent1
        Tick 597 has occurred


    ## Message ##
        Sending a NextTickMessage to Agent1
        Tick 598 has occurred


    ## Message ##
        Sending a NextTickMessage to Agent1
        Tick 599 has occurred


    ## Message ##
        Sending a NextTickMessage to Agent1
        Tick 600 has occurred


    ## Message ##
        Sending a NextTickMessage to Agent1
        Tick 601 has occurred


    ## Message ##
        Sending a NextTickMessage to Agent1
        Tick 602 has occurred


    ## Message ##
        Sending a NextTickMessage to Agent1
        Tick 603 has occurred


    ## Message ##
        Sending a NextTickMessage to Agent1
        Tick 604 has occurred


    ## Message ##
        Sending a NextTickMessage to Agent1
        Tick 605 has occurred


    ## Message ##
        Sending a NextTickMessage to Agent1
        Tick 606 has occurred


    ## Message ##
        Sending a NextTickMessage to Agent1
        Tick 607 has occurred


    ## Message ##
        Sending a NextTickMessage to Agent1
        Tick 608 has occurred


    ## Message ##
        Sending a NextTickMessage to Agent1
        Tick 609 has occurred


    ## Message ##
        Sending a NextTickMessage to Agent1
        Tick 610 has occurred


    ## Message ##
        Sending a NextTickMessage to Agent1
        Tick 611 has occurred


    ## Message ##
        Sending a NextTickMessage to Agent1
        Tick 612 has occurred


    ## Message ##
        Sending a NextTickMessage to Agent1
        Tick 613 has occurred


    ## Message ##
        Sending a NextTickMessage to Agent1
        Tick 614 has occurred


    ## Message ##
        Sending a NextTickMessage to Agent1
        Tick 615 has occurred


    ## Message ##
        Sending a NextTickMessage to Agent1
        Tick 616 has occurred


    ## Message ##
        Sending a NextTickMessage to Agent1
        Tick 617 has occurred


    ## Message ##
        Sending a NextTickMessage to Agent1
        Tick 618 has occurred


    ## Message ##
        Sending a NextTickMessage to Agent1
        Tick 619 has occurred


    ## Message ##
        Sending a NextTickMessage to Agent1
        Tick 620 has occurred


    ## Message ##
        Sending a NextTickMessage to Agent1
        Tick 621 has occurred


    ## Message ##
        Sending a NextTickMessage to Agent1
        Tick 622 has occurred


    ## Message ##
        Sending a NextTickMessage to Agent1
        Tick 623 has occurred


    ## Message ##
        Sending a NextTickMessage to Agent1
        Tick 624 has occurred


    ## Message ##
        Sending a NextTickMessage to Agent1
        Tick 625 has occurred


    ## Message ##
        Sending a NextTickMessage to Agent1
        Tick 626 has occurred


    ## Message ##
        Sending a NextTickMessage to Agent1
        Tick 627 has occurred


    ## Message ##
        Sending a NextTickMessage to Agent1
        Tick 628 has occurred


    ## Message ##
        Sending a NextTickMessage to Agent1
        Tick 629 has occurred


    ## Message ##
        Sending a NextTickMessage to Agent1
        Tick 630 has occurred


    ## Message ##
        Sending a NextTickMessage to Agent1
        Tick 631 has occurred


    ## Message ##
        Sending a NextTickMessage to Agent1
        Tick 632 has occurred


    ## Message ##
        Sending a NextTickMessage to Agent1
        Tick 633 has occurred


    ## Message ##
        Sending a NextTickMessage to Agent1
        Tick 634 has occurred


    ## Message ##
        Sending a NextTickMessage to Agent1
        Tick 635 has occurred


    ## Message ##
        Sending a NextTickMessage to Agent1
        Tick 636 has occurred


    ## Message ##
        Sending a NextTickMessage to Agent1
        Tick 637 has occurred


    ## Message ##
        Sending a NextTickMessage to Agent1
        Tick 638 has occurred


    ## Message ##
        Sending a NextTickMessage to Agent1
        Tick 639 has occurred


    ## Message ##
        Sending a NextTickMessage to Agent1
        Tick 640 has occurred


    ## Message ##
        Sending a NextTickMessage to Agent1
        Tick 641 has occurred


    ## Message ##
        Sending a NextTickMessage to Agent1
        Tick 642 has occurred


    ## Message ##
        Sending a NextTickMessage to Agent1
        Tick 643 has occurred


    ## Message ##
        Sending a NextTickMessage to Agent1
        Tick 644 has occurred


    ## Message ##
        Sending a NextTickMessage to Agent1
        Tick 645 has occurred


    ## Message ##
        Sending a NextTickMessage to Agent1
        Tick 646 has occurred


    ## Message ##
        Sending a NextTickMessage to Agent1
        Tick 647 has occurred


    ## Message ##
        Sending a NextTickMessage to Agent1
        Tick 648 has occurred


    ## Message ##
        Sending a NextTickMessage to Agent1
        Tick 649 has occurred


    ## Message ##
        Sending a NextTickMessage to Agent1
        Tick 650 has occurred


    ## Message ##
        Sending a NextTickMessage to Agent1
        Tick 651 has occurred


    ## Message ##
        Sending a NextTickMessage to Agent1
        Tick 652 has occurred


    ## Message ##
        Sending a NextTickMessage to Agent1
        Tick 653 has occurred


    ## Message ##
        Sending a NextTickMessage to Agent1
        Tick 654 has occurred


    ## Message ##
        Sending a NextTickMessage to Agent1
        Tick 655 has occurred


    ## Message ##
        Sending a NextTickMessage to Agent1
        Tick 656 has occurred


    ## Message ##
        Sending a NextTickMessage to Agent1
        Tick 657 has occurred


    ## Message ##
        Sending a NextTickMessage to Agent1
        Tick 658 has occurred


    ## Message ##
        Sending a NextTickMessage to Agent1
        Tick 659 has occurred


    ## Message ##
        Sending a NextTickMessage to Agent1
        Tick 660 has occurred


    ## Message ##
        Sending a NextTickMessage to Agent1
        Tick 661 has occurred


    ## Message ##
        Sending a NextTickMessage to Agent1
        Tick 662 has occurred


    ## Message ##
        Sending a NextTickMessage to Agent1
        Tick 663 has occurred


    ## Message ##
        Sending a NextTickMessage to Agent1
        Tick 664 has occurred


    ## Message ##
        Sending a NextTickMessage to Agent1
        Tick 665 has occurred


    ## Message ##
        Sending a NextTickMessage to Agent1
        Tick 666 has occurred


    ## Message ##
        Sending a NextTickMessage to Agent1
        Tick 667 has occurred


    ## Message ##
        Sending a NextTickMessage to Agent1
        Tick 668 has occurred


    ## Message ##
        Sending a NextTickMessage to Agent1
        Tick 669 has occurred


    ## Message ##
        Sending a NextTickMessage to Agent1
        Tick 670 has occurred


    ## Message ##
        Sending a NextTickMessage to Agent1
        Tick 671 has occurred


    ## Message ##
        Sending a NextTickMessage to Agent1
        Tick 672 has occurred


    ## Message ##
        Sending a NextTickMessage to Agent1
        Tick 673 has occurred


    ## Message ##
        Sending a NextTickMessage to Agent1
        Tick 674 has occurred


    ## Message ##
        Sending a NextTickMessage to Agent1
        Tick 675 has occurred


    ## Message ##
        Sending a NextTickMessage to Agent1
        Tick 676 has occurred


    ## Message ##
        Sending a NextTickMessage to Agent1
        Tick 677 has occurred


    ## Message ##
        Sending a NextTickMessage to Agent1
        Tick 678 has occurred


    ## Message ##
        Sending a NextTickMessage to Agent1
        Tick 679 has occurred


    ## Message ##
        Sending a NextTickMessage to Agent1
        Tick 680 has occurred


    ## Message ##
        Sending a NextTickMessage to Agent1
        Tick 681 has occurred


    ## Message ##
        Sending a NextTickMessage to Agent1
        Tick 682 has occurred


    ## Message ##
        Sending a NextTickMessage to Agent1
        Tick 683 has occurred


    ## Message ##
        Sending a NextTickMessage to Agent1
        Tick 684 has occurred


    ## Message ##
        Sending a NextTickMessage to Agent1
        Tick 685 has occurred


    ## Message ##
        Sending a NextTickMessage to Agent1
        Tick 686 has occurred


    ## Message ##
        Sending a NextTickMessage to Agent1
        Tick 687 has occurred


    ## Message ##
        Sending a NextTickMessage to Agent1
        Tick 688 has occurred


    ## Message ##
        Sending a NextTickMessage to Agent1
        Tick 689 has occurred


    ## Message ##
        Sending a NextTickMessage to Agent1
        Tick 690 has occurred


    ## Message ##
        Sending a NextTickMessage to Agent1
        Tick 691 has occurred


    ## Message ##
        Sending a NextTickMessage to Agent1
        Tick 692 has occurred


    ## Message ##
        Sending a NextTickMessage to Agent1
        Tick 693 has occurred


    ## Message ##
        Sending a NextTickMessage to Agent1
        Tick 694 has occurred


    ## Message ##
        Sending a NextTickMessage to Agent1
        Tick 695 has occurred


    ## Message ##
        Sending a NextTickMessage to Agent1
        Tick 696 has occurred


    ## Message ##
        Sending a NextTickMessage to Agent1
        Tick 697 has occurred


    ## Message ##
        Sending a NextTickMessage to Agent1
        Tick 698 has occurred


    ## Message ##
        Sending a NextTickMessage to Agent1
        Tick 699 has occurred


    ## Message ##
        Sending a NextTickMessage to Agent1
        Tick 700 has occurred


    ## Message ##
        Sending a NextTickMessage to Agent1
        Tick 701 has occurred


    ## Message ##
        Sending a NextTickMessage to Agent1
        Tick 702 has occurred


    ## Message ##
        Sending a NextTickMessage to Agent1
        Tick 703 has occurred


    ## Message ##
        Sending a NextTickMessage to Agent1
        Tick 704 has occurred


    ## Message ##
        Sending a NextTickMessage to Agent1
        Tick 705 has occurred


    ## Message ##
        Sending a NextTickMessage to Agent1
        Tick 706 has occurred


    ## Message ##
        Sending a NextTickMessage to Agent1
        Tick 707 has occurred


    ## Message ##
        Sending a NextTickMessage to Agent1
        Tick 708 has occurred


    ## Message ##
        Sending a NextTickMessage to Agent1
        Tick 709 has occurred


    ## Message ##
        Sending a NextTickMessage to Agent1
        Tick 710 has occurred


    ## Message ##
        Sending a NextTickMessage to Agent1
        Tick 711 has occurred


    ## Message ##
        Sending a NextTickMessage to Agent1
        Tick 712 has occurred


    ## Message ##
        Sending a NextTickMessage to Agent1
        Tick 713 has occurred


    ## Message ##
        Sending a NextTickMessage to Agent1
        Tick 714 has occurred


    ## Message ##
        Sending a NextTickMessage to Agent1
        Tick 715 has occurred


    ## Message ##
        Sending a NextTickMessage to Agent1
        Tick 716 has occurred


    ## Message ##
        Sending a NextTickMessage to Agent1
        Tick 717 has occurred


    ## Message ##
        Sending a NextTickMessage to Agent1
        Tick 718 has occurred


    ## Message ##
        Sending a NextTickMessage to Agent1
        Tick 719 has occurred


    ## Message ##
        Sending a NextTickMessage to Agent1
        Tick 720 has occurred


    ## Message ##
        Sending a NextTickMessage to Agent1
        Tick 721 has occurred


    ## Message ##
        Sending a NextTickMessage to Agent1
        Tick 722 has occurred


    ## Message ##
        Sending a NextTickMessage to Agent1
        Tick 723 has occurred


    ## Message ##
        Sending a NextTickMessage to Agent1
        Tick 724 has occurred


    ## Message ##
        Sending a NextTickMessage to Agent1
        Tick 725 has occurred


    ## Message ##
        Sending a NextTickMessage to Agent1
        Tick 726 has occurred


    ## Message ##
        Sending a NextTickMessage to Agent1
        Tick 727 has occurred


    ## Message ##
        Sending a NextTickMessage to Agent1
        Tick 728 has occurred


    ## Message ##
        Sending a NextTickMessage to Agent1
        Tick 729 has occurred


    ## Message ##
        Sending a NextTickMessage to Agent1
        Tick 730 has occurred


    ## Message ##
        Sending a NextTickMessage to Agent1
        Tick 731 has occurred


    ## Message ##
        Sending a NextTickMessage to Agent1
        Tick 732 has occurred


    ## Message ##
        Sending a NextTickMessage to Agent1
        Tick 733 has occurred


    ## Message ##
        Sending a NextTickMessage to Agent1
        Tick 734 has occurred


    ## Message ##
        Sending a NextTickMessage to Agent1
        Tick 735 has occurred


    ## Message ##
        Sending a NextTickMessage to Agent1
        Tick 736 has occurred


    ## Message ##
        Sending a NextTickMessage to Agent1
        Tick 737 has occurred


    ## Message ##
        Sending a NextTickMessage to Agent1
        Tick 738 has occurred


    ## Message ##
        Sending a NextTickMessage to Agent1
        Tick 739 has occurred


    ## Message ##
        Sending a NextTickMessage to Agent1
        Tick 740 has occurred


    ## Message ##
        Sending a NextTickMessage to Agent1
        Tick 741 has occurred


    ## Message ##
        Sending a NextTickMessage to Agent1
        Tick 742 has occurred


    ## Message ##
        Sending a NextTickMessage to Agent1
        Tick 743 has occurred


    ## Message ##
        Sending a NextTickMessage to Agent1
        Tick 744 has occurred


    ## Message ##
        Sending a NextTickMessage to Agent1
        Tick 745 has occurred


    ## Message ##
        Sending a NextTickMessage to Agent1
        Tick 746 has occurred


    ## Message ##
        Sending a NextTickMessage to Agent1
        Tick 747 has occurred


    ## Message ##
        Sending a NextTickMessage to Agent1
        Tick 748 has occurred


    ## Message ##
        Sending a NextTickMessage to Agent1
        Tick 749 has occurred


    ## Message ##
        Sending a NextTickMessage to Agent1
        Tick 750 has occurred


    ## Message ##
        Sending a NextTickMessage to Agent1
        Tick 751 has occurred


    ## Message ##
        Sending a NextTickMessage to Agent1
        Tick 752 has occurred


    ## Message ##
        Sending a NextTickMessage to Agent1
        Tick 753 has occurred


    ## Message ##
        Sending a NextTickMessage to Agent1
        Tick 754 has occurred


    ## Message ##
        Sending a NextTickMessage to Agent1
        Tick 755 has occurred


    ## Message ##
        Sending a NextTickMessage to Agent1
        Tick 756 has occurred


    ## Message ##
        Sending a NextTickMessage to Agent1
        Tick 757 has occurred


    ## Message ##
        Sending a NextTickMessage to Agent1
        Tick 758 has occurred


    ## Message ##
        Sending a NextTickMessage to Agent1
        Tick 759 has occurred


    ## Message ##
        Sending a NextTickMessage to Agent1
        Tick 760 has occurred


    ## Message ##
        Sending a NextTickMessage to Agent1
        Tick 761 has occurred


    ## Message ##
        Sending a NextTickMessage to Agent1
        Tick 762 has occurred


    ## Message ##
        Sending a NextTickMessage to Agent1
        Tick 763 has occurred


    ## Message ##
        Sending a NextTickMessage to Agent1
        Tick 764 has occurred


    ## Message ##
        Sending a NextTickMessage to Agent1
        Tick 765 has occurred


    ## Message ##
        Sending a NextTickMessage to Agent1
        Tick 766 has occurred


    ## Message ##
        Sending a NextTickMessage to Agent1
        Tick 767 has occurred


    ## Message ##
        Sending a NextTickMessage to Agent1
        Tick 768 has occurred


    ## Message ##
        Sending a NextTickMessage to Agent1
        Tick 769 has occurred


    ## Message ##
        Sending a NextTickMessage to Agent1
        Tick 770 has occurred


    ## Message ##
        Sending a NextTickMessage to Agent1
        Tick 771 has occurred


    ## Message ##
        Sending a NextTickMessage to Agent1
        Tick 772 has occurred


    ## Message ##
        Sending a NextTickMessage to Agent1
        Tick 773 has occurred


    ## Message ##
        Sending a NextTickMessage to Agent1
        Tick 774 has occurred


    ## Message ##
        Sending a NextTickMessage to Agent1
        Tick 775 has occurred


    ## Message ##
        Sending a NextTickMessage to Agent1
        Tick 776 has occurred


    ## Message ##
        Sending a NextTickMessage to Agent1
        Tick 777 has occurred


    ## Message ##
        Sending a NextTickMessage to Agent1
        Tick 778 has occurred


    ## Message ##
        Sending a NextTickMessage to Agent1
        Tick 779 has occurred


    ## Message ##
        Sending a NextTickMessage to Agent1
        Tick 780 has occurred


    ## Message ##
        Sending a NextTickMessage to Agent1
        Tick 781 has occurred


    ## Message ##
        Sending a NextTickMessage to Agent1
        Tick 782 has occurred


    ## Message ##
        Sending a NextTickMessage to Agent1
        Tick 783 has occurred


    ## Message ##
        Sending a NextTickMessage to Agent1
        Tick 784 has occurred


    ## Message ##
        Sending a NextTickMessage to Agent1
        Tick 785 has occurred


    ## Message ##
        Sending a NextTickMessage to Agent1
        Tick 786 has occurred


    ## Message ##
        Sending a NextTickMessage to Agent1
        Tick 787 has occurred


    ## Message ##
        Sending a NextTickMessage to Agent1
        Tick 788 has occurred


    ## Message ##
        Sending a NextTickMessage to Agent1
        Tick 789 has occurred


    ## Message ##
        Sending a NextTickMessage to Agent1
        Tick 790 has occurred


    ## Message ##
        Sending a NextTickMessage to Agent1
        Tick 791 has occurred


    ## Message ##
        Sending a NextTickMessage to Agent1
        Tick 792 has occurred


    ## Message ##
        Sending a NextTickMessage to Agent1
        Tick 793 has occurred


    ## Message ##
        Sending a NextTickMessage to Agent1
        Tick 794 has occurred


    ## Message ##
        Sending a NextTickMessage to Agent1
        Tick 795 has occurred


    ## Message ##
        Sending a NextTickMessage to Agent1
        Tick 796 has occurred


    ## Message ##
        Sending a NextTickMessage to Agent1
        Tick 797 has occurred


    ## Message ##
        Sending a NextTickMessage to Agent1
        Tick 798 has occurred


    ## Message ##
        Sending a NextTickMessage to Agent1
        Tick 799 has occurred


    ## Message ##
        Sending a NextTickMessage to Agent1
        Tick 800 has occurred


    ## Message ##
        Sending a NextTickMessage to Agent1
        Tick 801 has occurred


    ## Message ##
        Sending a NextTickMessage to Agent1
        Tick 802 has occurred


    ## Message ##
        Sending a NextTickMessage to Agent1
        Tick 803 has occurred


    ## Message ##
        Sending a NextTickMessage to Agent1
        Tick 804 has occurred


    ## Message ##
        Sending a NextTickMessage to Agent1
        Tick 805 has occurred


    ## Message ##
        Sending a NextTickMessage to Agent1
        Tick 806 has occurred


    ## Message ##
        Sending a NextTickMessage to Agent1
        Tick 807 has occurred


    ## Message ##
        Sending a NextTickMessage to Agent1
        Tick 808 has occurred


    ## Message ##
        Sending a NextTickMessage to Agent1
        Tick 809 has occurred


    ## Message ##
        Sending a NextTickMessage to Agent1
        Tick 810 has occurred


    ## Message ##
        Sending a NextTickMessage to Agent1
        Tick 811 has occurred


    ## Message ##
        Sending a NextTickMessage to Agent1
        Tick 812 has occurred


    ## Message ##
        Sending a NextTickMessage to Agent1
        Tick 813 has occurred


    ## Message ##
        Sending a NextTickMessage to Agent1
        Tick 814 has occurred


    ## Message ##
        Sending a NextTickMessage to Agent1
        Tick 815 has occurred


    ## Message ##
        Sending a NextTickMessage to Agent1
        Tick 816 has occurred


    ## Message ##
        Sending a NextTickMessage to Agent1
        Tick 817 has occurred


    ## Message ##
        Sending a NextTickMessage to Agent1
        Tick 818 has occurred


    ## Message ##
        Sending a NextTickMessage to Agent1
        Tick 819 has occurred


    ## Message ##
        Sending a NextTickMessage to Agent1
        Tick 820 has occurred


    ## Message ##
        Sending a NextTickMessage to Agent1
        Tick 821 has occurred


    ## Message ##
        Sending a NextTickMessage to Agent1
        Tick 822 has occurred


    ## Message ##
        Sending a NextTickMessage to Agent1
        Tick 823 has occurred


    ## Message ##
        Sending a NextTickMessage to Agent1
        Tick 824 has occurred


    ## Message ##
        Sending a NextTickMessage to Agent1
        Tick 825 has occurred


    ## Message ##
        Sending a NextTickMessage to Agent1
        Tick 826 has occurred


    ## Message ##
        Sending a NextTickMessage to Agent1
        Tick 827 has occurred


    ## Message ##
        Sending a NextTickMessage to Agent1
        Tick 828 has occurred


    ## Message ##
        Sending a NextTickMessage to Agent1
        Tick 829 has occurred


    ## Message ##
        Sending a NextTickMessage to Agent1
        Tick 830 has occurred


    ## Message ##
        Sending a NextTickMessage to Agent1
        Tick 831 has occurred


    ## Message ##
        Sending a NextTickMessage to Agent1
        Tick 832 has occurred


    ## Message ##
        Sending a NextTickMessage to Agent1
        Tick 833 has occurred


    ## Message ##
        Sending a NextTickMessage to Agent1
        Tick 834 has occurred


    ## Message ##
        Sending a NextTickMessage to Agent1
        Tick 835 has occurred


    ## Message ##
        Sending a NextTickMessage to Agent1
        Tick 836 has occurred


    ## Message ##
        Sending a NextTickMessage to Agent1
        Tick 837 has occurred


    ## Message ##
        Sending a NextTickMessage to Agent1
        Tick 838 has occurred


    ## Message ##
        Sending a NextTickMessage to Agent1
        Tick 839 has occurred


    ## Message ##
        Sending a NextTickMessage to Agent1
        Tick 840 has occurred


    ## Message ##
        Sending a NextTickMessage to Agent1
        Tick 841 has occurred


    ## Message ##
        Sending a NextTickMessage to Agent1
        Tick 842 has occurred


    ## Message ##
        Sending a NextTickMessage to Agent1
        Tick 843 has occurred


    ## Message ##
        Sending a NextTickMessage to Agent1
        Tick 844 has occurred


    ## Message ##
        Sending a NextTickMessage to Agent1
        Tick 845 has occurred


    ## Message ##
        Sending a NextTickMessage to Agent1
        Tick 846 has occurred


    ## Message ##
        Sending a NextTickMessage to Agent1
        Tick 847 has occurred


    ## Message ##
        Sending a NextTickMessage to Agent1
        Tick 848 has occurred


    ## Message ##
        Sending a NextTickMessage to Agent1
        Tick 849 has occurred


    ## Message ##
        Sending a NextTickMessage to Agent1
        Tick 850 has occurred


    ## Message ##
        Sending a NextTickMessage to Agent1
        Tick 851 has occurred


    ## Message ##
        Sending a NextTickMessage to Agent1
        Tick 852 has occurred


    ## Message ##
        Sending a NextTickMessage to Agent1
        Tick 853 has occurred


    ## Message ##
        Sending a NextTickMessage to Agent1
        Tick 854 has occurred


    ## Message ##
        Sending a NextTickMessage to Agent1
        Tick 855 has occurred


    ## Message ##
        Sending a NextTickMessage to Agent1
        Tick 856 has occurred


    ## Message ##
        Sending a NextTickMessage to Agent1
        Tick 857 has occurred


    ## Message ##
        Sending a NextTickMessage to Agent1
        Tick 858 has occurred


    ## Message ##
        Sending a NextTickMessage to Agent1
        Tick 859 has occurred


    ## Message ##
        Sending a NextTickMessage to Agent1
        Tick 860 has occurred


    ## Message ##
        Sending a NextTickMessage to Agent1
        Tick 861 has occurred


    ## Message ##
        Sending a NextTickMessage to Agent1
        Tick 862 has occurred


    ## Message ##
        Sending a NextTickMessage to Agent1
        Tick 863 has occurred


    ## Message ##
        Sending a NextTickMessage to Agent1
        Tick 864 has occurred


    ## Message ##
        Sending a NextTickMessage to Agent1
        Tick 865 has occurred


    ## Message ##
        Sending a NextTickMessage to Agent1
        Tick 866 has occurred


    ## Message ##
        Sending a NextTickMessage to Agent1
        Tick 867 has occurred


    ## Message ##
        Sending a NextTickMessage to Agent1
        Tick 868 has occurred


    ## Message ##
        Sending a NextTickMessage to Agent1
        Tick 869 has occurred


    ## Message ##
        Sending a NextTickMessage to Agent1
        Tick 870 has occurred


    ## Message ##
        Sending a NextTickMessage to Agent1
        Tick 871 has occurred


    ## Message ##
        Sending a NextTickMessage to Agent1
        Tick 872 has occurred


    ## Message ##
        Sending a NextTickMessage to Agent1
        Tick 873 has occurred


    ## Message ##
        Sending a NextTickMessage to Agent1
        Tick 874 has occurred


    ## Message ##
        Sending a NextTickMessage to Agent1
        Tick 875 has occurred


    ## Message ##
        Sending a NextTickMessage to Agent1
        Tick 876 has occurred


    ## Message ##
        Sending a NextTickMessage to Agent1
        Tick 877 has occurred


    ## Message ##
        Sending a NextTickMessage to Agent1
        Tick 878 has occurred


    ## Message ##
        Sending a NextTickMessage to Agent1
        Tick 879 has occurred


    ## Message ##
        Sending a NextTickMessage to Agent1
        Tick 880 has occurred


    ## Message ##
        Sending a NextTickMessage to Agent1
        Tick 881 has occurred


    ## Message ##
        Sending a NextTickMessage to Agent1
        Tick 882 has occurred


    ## Message ##
        Sending a NextTickMessage to Agent1
        Tick 883 has occurred


    ## Message ##
        Sending a NextTickMessage to Agent1
        Tick 884 has occurred


    ## Message ##
        Sending a NextTickMessage to Agent1
        Tick 885 has occurred


    ## Message ##
        Sending a NextTickMessage to Agent1
        Tick 886 has occurred


    ## Message ##
        Sending a NextTickMessage to Agent1
        Tick 887 has occurred


    ## Message ##
        Sending a NextTickMessage to Agent1
        Tick 888 has occurred


    ## Message ##
        Sending a NextTickMessage to Agent1
        Tick 889 has occurred


    ## Message ##
        Sending a NextTickMessage to Agent1
        Tick 890 has occurred


    ## Message ##
        Sending a NextTickMessage to Agent1
        Tick 891 has occurred


    ## Message ##
        Sending a NextTickMessage to Agent1
        Tick 892 has occurred


    ## Message ##
        Sending a NextTickMessage to Agent1
        Tick 893 has occurred


    ## Message ##
        Sending a NextTickMessage to Agent1
        Tick 894 has occurred


    ## Message ##
        Sending a NextTickMessage to Agent1
        Tick 895 has occurred


    ## Message ##
        Sending a NextTickMessage to Agent1
        Tick 896 has occurred


    ## Message ##
        Sending a NextTickMessage to Agent1
        Tick 897 has occurred


    ## Message ##
        Sending a NextTickMessage to Agent1
        Tick 898 has occurred


    ## Message ##
        Sending a NextTickMessage to Agent1
        Tick 899 has occurred


    ## Message ##
        Sending a NextTickMessage to Agent1
        Tick 900 has occurred


    ## Message ##
        Sending a NextTickMessage to Agent1
        Tick 901 has occurred


    ## Message ##
        Sending a NextTickMessage to Agent1
        Tick 902 has occurred


    ## Message ##
        Sending a NextTickMessage to Agent1
        Tick 903 has occurred


    ## Message ##
        Sending a NextTickMessage to Agent1
        Tick 904 has occurred


    ## Message ##
        Sending a NextTickMessage to Agent1
        Tick 905 has occurred


    ## Message ##
        Sending a NextTickMessage to Agent1
        Tick 906 has occurred


    ## Message ##
        Sending a NextTickMessage to Agent1
        Tick 907 has occurred


    ## Message ##
        Sending a NextTickMessage to Agent1
        Tick 908 has occurred


    ## Message ##
        Sending a NextTickMessage to Agent1
        Tick 909 has occurred


    ## Message ##
        Sending a NextTickMessage to Agent1
        Tick 910 has occurred


    ## Message ##
        Sending a NextTickMessage to Agent1
        Tick 911 has occurred


    ## Message ##
        Sending a NextTickMessage to Agent1
        Tick 912 has occurred


    ## Message ##
        Sending a NextTickMessage to Agent1
        Tick 913 has occurred


    ## Message ##
        Sending a NextTickMessage to Agent1
        Tick 914 has occurred


    ## Message ##
        Sending a NextTickMessage to Agent1
        Tick 915 has occurred


    ## Message ##
        Sending a NextTickMessage to Agent1
        Tick 916 has occurred


    ## Message ##
        Sending a NextTickMessage to Agent1
        Tick 917 has occurred


    ## Message ##
        Sending a NextTickMessage to Agent1
        Tick 918 has occurred


    ## Message ##
        Sending a NextTickMessage to Agent1
        Tick 919 has occurred


    ## Message ##
        Sending a NextTickMessage to Agent1
        Tick 920 has occurred


    ## Message ##
        Sending a NextTickMessage to Agent1
        Tick 921 has occurred


    ## Message ##
        Sending a NextTickMessage to Agent1
        Tick 922 has occurred


    ## Message ##
        Sending a NextTickMessage to Agent1
        Tick 923 has occurred


    ## Message ##
        Sending a NextTickMessage to Agent1
        Tick 924 has occurred


    ## Message ##
        Sending a NextTickMessage to Agent1
        Tick 925 has occurred


    ## Message ##
        Sending a NextTickMessage to Agent1
        Tick 926 has occurred


    ## Message ##
        Sending a NextTickMessage to Agent1
        Tick 927 has occurred


    ## Message ##
        Sending a NextTickMessage to Agent1
        Tick 928 has occurred


    ## Message ##
        Sending a NextTickMessage to Agent1
        Tick 929 has occurred


    ## Message ##
        Sending a NextTickMessage to Agent1
        Tick 930 has occurred


    ## Message ##
        Sending a NextTickMessage to Agent1
        Tick 931 has occurred


    ## Message ##
        Sending a NextTickMessage to Agent1
        Tick 932 has occurred


    ## Message ##
        Sending a NextTickMessage to Agent1
        Tick 933 has occurred


    ## Message ##
        Sending a NextTickMessage to Agent1
        Tick 934 has occurred


    ## Message ##
        Sending a NextTickMessage to Agent1
        Tick 935 has occurred


    ## Message ##
        Sending a NextTickMessage to Agent1
        Tick 936 has occurred


    ## Message ##
        Sending a NextTickMessage to Agent1
        Tick 937 has occurred


    ## Message ##
        Sending a NextTickMessage to Agent1
        Tick 938 has occurred


    ## Message ##
        Sending a NextTickMessage to Agent1
        Tick 939 has occurred


    ## Message ##
        Sending a NextTickMessage to Agent1
        Tick 940 has occurred


    ## Message ##
        Sending a NextTickMessage to Agent1
        Tick 941 has occurred


    ## Message ##
        Sending a NextTickMessage to Agent1
        Tick 942 has occurred


    ## Message ##
        Sending a NextTickMessage to Agent1
        Tick 943 has occurred


    ## Message ##
        Sending a NextTickMessage to Agent1
        Tick 944 has occurred


    ## Message ##
        Sending a NextTickMessage to Agent1
        Tick 945 has occurred


    ## Message ##
        Sending a NextTickMessage to Agent1
        Tick 946 has occurred


    ## Message ##
        Sending a NextTickMessage to Agent1
        Tick 947 has occurred


    ## Message ##
        Sending a NextTickMessage to Agent1
        Tick 948 has occurred


    ## Message ##
        Sending a NextTickMessage to Agent1
        Tick 949 has occurred


    ## Message ##
        Sending a NextTickMessage to Agent1
        Tick 950 has occurred


    ## Message ##
        Sending a NextTickMessage to Agent1
        Tick 951 has occurred


    ## Message ##
        Sending a NextTickMessage to Agent1
        Tick 952 has occurred


    ## Message ##
        Sending a NextTickMessage to Agent1
        Tick 953 has occurred


    ## Message ##
        Sending a NextTickMessage to Agent1
        Tick 954 has occurred


    ## Message ##
        Sending a NextTickMessage to Agent1
        Tick 955 has occurred


    ## Message ##
        Sending a NextTickMessage to Agent1
        Tick 956 has occurred


    ## Message ##
        Sending a NextTickMessage to Agent1
        Tick 957 has occurred


    ## Message ##
        Sending a NextTickMessage to Agent1
        Tick 958 has occurred


    ## Message ##
        Sending a NextTickMessage to Agent1
        Tick 959 has occurred


    ## Message ##
        Sending a NextTickMessage to Agent1
        Tick 960 has occurred


    ## Message ##
        Sending a NextTickMessage to Agent1
        Tick 961 has occurred


    ## Message ##
        Sending a NextTickMessage to Agent1
        Tick 962 has occurred


    ## Message ##
        Sending a NextTickMessage to Agent1
        Tick 963 has occurred


    ## Message ##
        Sending a NextTickMessage to Agent1
        Tick 964 has occurred


    ## Message ##
        Sending a NextTickMessage to Agent1
        Tick 965 has occurred


    ## Message ##
        Sending a NextTickMessage to Agent1
        Tick 966 has occurred


    ## Message ##
        Sending a NextTickMessage to Agent1
        Tick 967 has occurred


    ## Message ##
        Sending a NextTickMessage to Agent1
        Tick 968 has occurred


    ## Message ##
        Sending a NextTickMessage to Agent1
        Tick 969 has occurred


    ## Message ##
        Sending a NextTickMessage to Agent1
        Tick 970 has occurred


    ## Message ##
        Sending a NextTickMessage to Agent1
        Tick 971 has occurred


    ## Message ##
        Sending a NextTickMessage to Agent1
        Tick 972 has occurred


    ## Message ##
        Sending a NextTickMessage to Agent1
        Tick 973 has occurred


    ## Message ##
        Sending a NextTickMessage to Agent1
        Tick 974 has occurred


    ## Message ##
        Sending a NextTickMessage to Agent1
        Tick 975 has occurred


    ## Message ##
        Sending a NextTickMessage to Agent1
        Tick 976 has occurred


    ## Message ##
        Sending a NextTickMessage to Agent1
        Tick 977 has occurred


    ## Message ##
        Sending a NextTickMessage to Agent1
        Tick 978 has occurred


    ## Message ##
        Sending a NextTickMessage to Agent1
        Tick 979 has occurred


    ## Message ##
        Sending a NextTickMessage to Agent1
        Tick 980 has occurred


    ## Message ##
        Sending a NextTickMessage to Agent1
        Tick 981 has occurred


    ## Message ##
        Sending a NextTickMessage to Agent1
        Tick 982 has occurred


    ## Message ##
        Sending a NextTickMessage to Agent1
        Tick 983 has occurred


    ## Message ##
        Sending a NextTickMessage to Agent1
        Tick 984 has occurred


    ## Message ##
        Sending a NextTickMessage to Agent1
        Tick 985 has occurred


    ## Message ##
        Sending a NextTickMessage to Agent1
        Tick 986 has occurred


    ## Message ##
        Sending a NextTickMessage to Agent1
        Tick 987 has occurred


    ## Message ##
        Sending a NextTickMessage to Agent1
        Tick 988 has occurred


    ## Message ##
        Sending a NextTickMessage to Agent1
        Tick 989 has occurred


    ## Message ##
        Sending a NextTickMessage to Agent1
        Tick 990 has occurred


    ## Message ##
        Sending a NextTickMessage to Agent1
        Tick 991 has occurred


    ## Message ##
        Sending a NextTickMessage to Agent1
        Tick 992 has occurred


    ## Message ##
        Sending a NextTickMessage to Agent1
        Tick 993 has occurred


    ## Message ##
        Sending a NextTickMessage to Agent1
        Tick 994 has occurred


    ## Message ##
        Sending a NextTickMessage to Agent1
        Tick 995 has occurred


    ## Message ##
        Sending a NextTickMessage to Agent1
        Tick 996 has occurred


    ## Message ##
        Sending a NextTickMessage to Agent1
        Tick 997 has occurred


    ## Message ##
        Sending a NextTickMessage to Agent1
        Tick 998 has occurred


    ## Message ##
        Sending a NextTickMessage to Agent1
        Tick 999 has occurred


    ## Message ##
        Sending a NextTickMessage to Agent1
        Tick 1000 has occurred


    ## Message ##
        Sending a EndSimulationMessage to Agent1
        The Simulation is Over
