digraph G {
	"RTS182-AND-80000-SUM" -> "T1-AND-34318-SUM"
	"T1-AND-34318-SUM" -> "T3-AND-34318-SUM"
	"T3-AND-34318-SUM" -> "T5-OR-34318-MAX"
	"RTS182-AND-80000-SUM" -> "T2-AND-45682-SUM"
	"T2-AND-45682-SUM" -> "T4-AND-45682-SUM"
	"T4-AND-45682-SUM" -> "T6-OR-45682-MAX"
	"T5-OR-34318-MAX" -> M1
	"T5-OR-34318-MAX" -> M2
	"T5-OR-34318-MAX" -> M3
	"T5-OR-34318-MAX" -> M4
	"T5-OR-34318-MAX" -> M5
	"T5-OR-34318-MAX" -> M6
	"T5-OR-34318-MAX" -> M7
	"T6-OR-45682-MAX" -> M8
	"T6-OR-45682-MAX" -> M9
	"T6-OR-45682-MAX" -> M10
	"T6-OR-45682-MAX" -> M11
	"T6-OR-45682-MAX" -> M12
}
