digraph G {
	"RTS192-OR-80000-MAX" -> "T1-AND-80000-SUM"
	"T1-AND-80000-SUM" -> "T3-AND-80000-SUM"
	"T3-AND-80000-SUM" -> "T5-AND-2474-SUM"
	"T3-AND-80000-SUM" -> "T6-AND-2594-SUM"
	"T3-AND-80000-SUM" -> "T7-OR-27722-MAX"
	"T3-AND-80000-SUM" -> "T8-AND-47210-SUM"
	"RTS192-OR-80000-MAX" -> "T2-AND-80000-SUM"
	"T2-AND-80000-SUM" -> "T4-AND-80000-SUM"
	"T4-AND-80000-SUM" -> "T9-AND-80000-SUM"
	"T5-AND-2474-SUM" -> M1
	"T6-AND-2594-SUM" -> M2
	"T6-AND-2594-SUM" -> M3
	"T7-OR-27722-MAX" -> M4
	"T7-OR-27722-MAX" -> M5
	"T7-OR-27722-MAX" -> M6
	"T7-OR-27722-MAX" -> M7
	"T7-OR-27722-MAX" -> M8
	"T8-AND-47210-SUM" -> M9
	"T8-AND-47210-SUM" -> M10
	"T8-AND-47210-SUM" -> M11
	"T9-AND-80000-SUM" -> M12
}
