digraph G {
	"RTS154-AND-80000-SUM" -> "T1-AND-29487-SUM"
	"T1-AND-29487-SUM" -> "T3-OR-29487-MAX"
	"T3-OR-29487-MAX" -> "T6-AND-29487-SUM"
	"T3-OR-29487-MAX" -> "T7-AND-29487-SUM"
	"RTS154-AND-80000-SUM" -> "T2-AND-50513-SUM"
	"T2-AND-50513-SUM" -> "T4-AND-17803-SUM"
	"T4-AND-17803-SUM" -> "T8-AND-17803-SUM"
	"T2-AND-50513-SUM" -> "T5-AND-32710-SUM"
	"T5-AND-32710-SUM" -> "T9-AND-32710-SUM"
	"T6-AND-29487-SUM" -> M1
	"T7-AND-29487-SUM" -> M2
	"T7-AND-29487-SUM" -> M3
	"T7-AND-29487-SUM" -> M4
	"T7-AND-29487-SUM" -> M5
	"T7-AND-29487-SUM" -> M6
	"T7-AND-29487-SUM" -> M7
	"T7-AND-29487-SUM" -> M8
	"T8-AND-17803-SUM" -> M9
	"T9-AND-32710-SUM" -> M10
}
