digraph G {
	"RTS163-AND-80000-SUM" -> "T1-AND-80000-SUM"
	"T1-AND-80000-SUM" -> "T2-AND-37112-SUM"
	"T2-AND-37112-SUM" -> "T4-OR-37112-MAX"
	"T1-AND-80000-SUM" -> "T3-OR-42888-MAX"
	"T3-OR-42888-MAX" -> "T5-OR-42888-MAX"
	"T3-OR-42888-MAX" -> "T6-AND-42888-SUM"
	"T4-OR-37112-MAX" -> M1
	"T4-OR-37112-MAX" -> M2
	"T4-OR-37112-MAX" -> M3
	"T4-OR-37112-MAX" -> M4
	"T4-OR-37112-MAX" -> M5
	"T4-OR-37112-MAX" -> M6
	"T5-OR-42888-MAX" -> M7
	"T5-OR-42888-MAX" -> M8
	"T5-OR-42888-MAX" -> M9
	"T5-OR-42888-MAX" -> M10
	"T6-AND-42888-SUM" -> M11
	"T6-AND-42888-SUM" -> M12
	"T6-AND-42888-SUM" -> M13
}
