digraph G {
	"RTS135-AND-80000-SUM" -> "T1-AND-80000-SUM"
	"T1-AND-80000-SUM" -> "T2-AND-80000-SUM"
	"T2-AND-80000-SUM" -> "T3-OR-1084-MAX"
	"T2-AND-80000-SUM" -> "T4-AND-3001-SUM"
	"T2-AND-80000-SUM" -> "T5-AND-3453-SUM"
	"T2-AND-80000-SUM" -> "T6-OR-72462-MAX"
	"T3-OR-1084-MAX" -> M1
	"T3-OR-1084-MAX" -> M2
	"T3-OR-1084-MAX" -> M3
	"T3-OR-1084-MAX" -> M4
	"T3-OR-1084-MAX" -> M5
	"T4-AND-3001-SUM" -> M6
	"T5-AND-3453-SUM" -> M7
	"T5-AND-3453-SUM" -> M8
	"T6-OR-72462-MAX" -> M9
	"T6-OR-72462-MAX" -> M10
}
