digraph G {
	"RTS107-OR-80000-MAX" -> "T1-AND-80000-SUM"
	"T1-AND-80000-SUM" -> "T3-AND-80000-SUM"
	"T3-AND-80000-SUM" -> "T6-OR-80000-MAX"
	"RTS107-OR-80000-MAX" -> "T2-OR-80000-MAX"
	"T2-OR-80000-MAX" -> "T4-AND-80000-SUM"
	"T4-AND-80000-SUM" -> "T7-OR-80000-MAX"
	"T2-OR-80000-MAX" -> "T5-AND-80000-SUM"
	"T5-AND-80000-SUM" -> "T8-AND-27156-SUM"
	"T5-AND-80000-SUM" -> "T9-AND-52844-SUM"
	"T6-OR-80000-MAX" -> M1
	"T6-OR-80000-MAX" -> M2
	"T6-OR-80000-MAX" -> M3
	"T6-OR-80000-MAX" -> M4
	"T7-OR-80000-MAX" -> M5
	"T7-OR-80000-MAX" -> M6
	"T8-AND-27156-SUM" -> M7
	"T9-AND-52844-SUM" -> M8
	"T9-AND-52844-SUM" -> M9
	"T9-AND-52844-SUM" -> M10
	"T9-AND-52844-SUM" -> M11
	"T9-AND-52844-SUM" -> M12
}
