digraph G {
	"RTS201-AND-80000-SUM" -> "T1-OR-80000-MAX"
	"T1-OR-80000-MAX" -> "T2-OR-80000-MAX"
	"T1-OR-80000-MAX" -> "T3-AND-80000-SUM"
	"T1-OR-80000-MAX" -> "T4-AND-80000-SUM"
	"T2-OR-80000-MAX" -> M1
	"T2-OR-80000-MAX" -> M2
	"T2-OR-80000-MAX" -> M3
	"T3-AND-80000-SUM" -> M4
	"T3-AND-80000-SUM" -> M5
	"T4-AND-80000-SUM" -> M6
	"T4-AND-80000-SUM" -> M7
	"T4-AND-80000-SUM" -> M8
	"T4-AND-80000-SUM" -> M9
	"T4-AND-80000-SUM" -> M10
	"T4-AND-80000-SUM" -> M11
}
