digraph G {
	"RTS218-AND-80000-SUM" -> "T1-AND-30274-SUM"
	"T1-AND-30274-SUM" -> "T3-AND-30274-SUM"
	"RTS218-AND-80000-SUM" -> "T2-AND-49726-SUM"
	"T2-AND-49726-SUM" -> "T4-AND-49726-SUM"
	"T3-AND-30274-SUM" -> M1
	"T3-AND-30274-SUM" -> M2
	"T3-AND-30274-SUM" -> M3
	"T3-AND-30274-SUM" -> M4
	"T3-AND-30274-SUM" -> M5
	"T3-AND-30274-SUM" -> M6
	"T3-AND-30274-SUM" -> M7
	"T3-AND-30274-SUM" -> M8
	"T3-AND-30274-SUM" -> M9
	"T3-AND-30274-SUM" -> M10
	"T4-AND-49726-SUM" -> M11
	"T4-AND-49726-SUM" -> M12
	"T4-AND-49726-SUM" -> M13
}
