digraph G {
	"RTS221-AND-80000-SUM" -> "T1-AND-80000-SUM"
	"T1-AND-80000-SUM" -> "T2-AND-4075-SUM"
	"T1-AND-80000-SUM" -> "T3-OR-10551-MAX"
	"T1-AND-80000-SUM" -> "T4-OR-14685-MAX"
	"T1-AND-80000-SUM" -> "T5-OR-17380-MAX"
	"T1-AND-80000-SUM" -> "T6-AND-33309-SUM"
	"T2-AND-4075-SUM" -> M1
	"T3-OR-10551-MAX" -> M2
	"T3-OR-10551-MAX" -> M3
	"T4-OR-14685-MAX" -> M4
	"T4-OR-14685-MAX" -> M5
	"T4-OR-14685-MAX" -> M6
	"T5-OR-17380-MAX" -> M7
	"T5-OR-17380-MAX" -> M8
	"T5-OR-17380-MAX" -> M9
	"T6-AND-33309-SUM" -> M10
}
