digraph G {
	"RTS206-AND-80000-SUM" -> "T1-AND-80000-SUM"
	"T1-AND-80000-SUM" -> "T2-AND-30627-SUM"
	"T2-AND-30627-SUM" -> "T4-OR-30627-MAX"
	"T1-AND-80000-SUM" -> "T3-OR-49373-MAX"
	"T3-OR-49373-MAX" -> "T5-OR-49373-MAX"
	"T3-OR-49373-MAX" -> "T6-AND-49373-SUM"
	"T4-OR-30627-MAX" -> M1
	"T4-OR-30627-MAX" -> M2
	"T4-OR-30627-MAX" -> M3
	"T4-OR-30627-MAX" -> M4
	"T4-OR-30627-MAX" -> M5
	"T4-OR-30627-MAX" -> M6
	"T5-OR-49373-MAX" -> M7
	"T5-OR-49373-MAX" -> M8
	"T5-OR-49373-MAX" -> M9
	"T6-AND-49373-SUM" -> M10
}
