digraph G {
	"RTS250-OR-80000-MAX" -> "T1-AND-80000-SUM"
	"T1-AND-80000-SUM" -> "T3-AND-80000-SUM"
	"RTS250-OR-80000-MAX" -> "T2-AND-80000-SUM"
	"T2-AND-80000-SUM" -> "T4-OR-23915-MAX"
	"T2-AND-80000-SUM" -> "T5-OR-25262-MAX"
	"T2-AND-80000-SUM" -> "T6-AND-30823-SUM"
	"T3-AND-80000-SUM" -> M1
	"T4-OR-23915-MAX" -> M2
	"T4-OR-23915-MAX" -> M3
	"T4-OR-23915-MAX" -> M4
	"T4-OR-23915-MAX" -> M5
	"T5-OR-25262-MAX" -> M6
	"T5-OR-25262-MAX" -> M7
	"T5-OR-25262-MAX" -> M8
	"T5-OR-25262-MAX" -> M9
	"T6-AND-30823-SUM" -> M10
	"T6-AND-30823-SUM" -> M11
}
