digraph G {
	"RTS230-AND-80000-SUM" -> "T1-AND-80000-SUM"
	"T1-AND-80000-SUM" -> "T2-AND-2929-SUM"
	"T1-AND-80000-SUM" -> "T3-AND-5838-SUM"
	"T1-AND-80000-SUM" -> "T4-OR-16521-MAX"
	"T1-AND-80000-SUM" -> "T5-AND-22819-SUM"
	"T1-AND-80000-SUM" -> "T6-AND-31893-SUM"
	"T2-AND-2929-SUM" -> M1
	"T3-AND-5838-SUM" -> M2
	"T4-OR-16521-MAX" -> M3
	"T4-OR-16521-MAX" -> M4
	"T4-OR-16521-MAX" -> M5
	"T4-OR-16521-MAX" -> M6
	"T5-AND-22819-SUM" -> M7
	"T5-AND-22819-SUM" -> M8
	"T5-AND-22819-SUM" -> M9
	"T5-AND-22819-SUM" -> M10
	"T6-AND-31893-SUM" -> M11
	"T6-AND-31893-SUM" -> M12
	"T6-AND-31893-SUM" -> M13
}
