digraph G {
	"RTS41-AND-80000-SUM" -> "T1-AND-80000-SUM"
	"T1-AND-80000-SUM" -> "T2-AND-30881-SUM"
	"T2-AND-30881-SUM" -> "T4-AND-30881-SUM"
	"T1-AND-80000-SUM" -> "T3-OR-49119-MAX"
	"T3-OR-49119-MAX" -> "T5-OR-49119-MAX"
	"T3-OR-49119-MAX" -> "T6-OR-49119-MAX"
	"T3-OR-49119-MAX" -> "T7-AND-49119-SUM"
	"T3-OR-49119-MAX" -> "T8-AND-49119-SUM"
	"T3-OR-49119-MAX" -> "T9-AND-49119-SUM"
	"T4-AND-30881-SUM" -> M1
	"T4-AND-30881-SUM" -> M2
	"T5-OR-49119-MAX" -> M3
	"T5-OR-49119-MAX" -> M4
	"T6-OR-49119-MAX" -> M5
	"T6-OR-49119-MAX" -> M6
	"T6-OR-49119-MAX" -> M7
	"T7-AND-49119-SUM" -> M8
	"T8-AND-49119-SUM" -> M9
	"T9-AND-49119-SUM" -> M10
}
