digraph G {
	"RTS40-AND-80000-SUM" -> "T1-AND-80000-SUM"
	"T1-AND-80000-SUM" -> "T2-AND-1645-SUM"
	"T2-AND-1645-SUM" -> "T4-AND-749-SUM"
	"T2-AND-1645-SUM" -> "T5-OR-896-MAX"
	"T1-AND-80000-SUM" -> "T3-AND-78355-SUM"
	"T3-AND-78355-SUM" -> "T6-AND-78355-SUM"
	"T4-AND-749-SUM" -> M1
	"T4-AND-749-SUM" -> M2
	"T4-AND-749-SUM" -> M3
	"T5-OR-896-MAX" -> M4
	"T5-OR-896-MAX" -> M5
	"T5-OR-896-MAX" -> M6
	"T6-AND-78355-SUM" -> M7
	"T6-AND-78355-SUM" -> M8
	"T6-AND-78355-SUM" -> M9
	"T6-AND-78355-SUM" -> M10
	"T6-AND-78355-SUM" -> M11
	"T6-AND-78355-SUM" -> M12
	"T6-AND-78355-SUM" -> M13
}
