digraph G {
	"RTS61-AND-80000-SUM" -> "T1-AND-80000-SUM"
	"T1-AND-80000-SUM" -> "T2-AND-9000-SUM"
	"T2-AND-9000-SUM" -> "T6-AND-9000-SUM"
	"T1-AND-80000-SUM" -> "T3-AND-13690-SUM"
	"T3-AND-13690-SUM" -> "T7-AND-13690-SUM"
	"T1-AND-80000-SUM" -> "T4-AND-25779-SUM"
	"T4-AND-25779-SUM" -> "T8-OR-25779-MAX"
	"T1-AND-80000-SUM" -> "T5-AND-31531-SUM"
	"T5-AND-31531-SUM" -> "T9-OR-31531-MAX"
	"T6-AND-9000-SUM" -> M1
	"T6-AND-9000-SUM" -> M2
	"T7-AND-13690-SUM" -> M3
	"T8-OR-25779-MAX" -> M4
	"T8-OR-25779-MAX" -> M5
	"T8-OR-25779-MAX" -> M6
	"T8-OR-25779-MAX" -> M7
	"T8-OR-25779-MAX" -> M8
	"T8-OR-25779-MAX" -> M9
	"T8-OR-25779-MAX" -> M10
	"T9-OR-31531-MAX" -> M11
	"T9-OR-31531-MAX" -> M12
}
