digraph G {
	"RTS74-AND-80000-SUM" -> "T1-AND-80000-SUM"
	"T1-AND-80000-SUM" -> "T2-AND-80000-SUM"
	"T2-AND-80000-SUM" -> "T3-OR-499-MAX"
	"T2-AND-80000-SUM" -> "T4-OR-13828-MAX"
	"T2-AND-80000-SUM" -> "T5-OR-28180-MAX"
	"T2-AND-80000-SUM" -> "T6-AND-37493-SUM"
	"T3-OR-499-MAX" -> M1
	"T3-OR-499-MAX" -> M2
	"T4-OR-13828-MAX" -> M3
	"T4-OR-13828-MAX" -> M4
	"T5-OR-28180-MAX" -> M5
	"T5-OR-28180-MAX" -> M6
	"T5-OR-28180-MAX" -> M7
	"T6-AND-37493-SUM" -> M8
	"T6-AND-37493-SUM" -> M9
	"T6-AND-37493-SUM" -> M10
}
