digraph G {
	"RTS72-AND-80000-SUM" -> "T1-AND-80000-SUM"
	"T1-AND-80000-SUM" -> "T2-AND-2022-SUM"
	"T1-AND-80000-SUM" -> "T3-AND-2867-SUM"
	"T1-AND-80000-SUM" -> "T4-AND-6377-SUM"
	"T1-AND-80000-SUM" -> "T5-AND-25331-SUM"
	"T1-AND-80000-SUM" -> "T6-OR-43403-MAX"
	"T2-AND-2022-SUM" -> M1
	"T3-AND-2867-SUM" -> M2
	"T4-AND-6377-SUM" -> M3
	"T4-AND-6377-SUM" -> M4
	"T4-AND-6377-SUM" -> M5
	"T4-AND-6377-SUM" -> M6
	"T5-AND-25331-SUM" -> M7
	"T6-OR-43403-MAX" -> M8
	"T6-OR-43403-MAX" -> M9
	"T6-OR-43403-MAX" -> M10
	"T6-OR-43403-MAX" -> M11
	"T6-OR-43403-MAX" -> M12
	"T6-OR-43403-MAX" -> M13
}
