digraph G {
	"RTS96-OR-80000-MAX" -> "T1-AND-80000-SUM"
	"T1-AND-80000-SUM" -> "T3-OR-80000-MAX"
	"RTS96-OR-80000-MAX" -> "T2-AND-80000-SUM"
	"T2-AND-80000-SUM" -> "T4-AND-80000-SUM"
	"T3-OR-80000-MAX" -> M1
	"T3-OR-80000-MAX" -> M2
	"T3-OR-80000-MAX" -> M3
	"T4-AND-80000-SUM" -> M4
	"T4-AND-80000-SUM" -> M5
	"T4-AND-80000-SUM" -> M6
	"T4-AND-80000-SUM" -> M7
	"T4-AND-80000-SUM" -> M8
	"T4-AND-80000-SUM" -> M9
	"T4-AND-80000-SUM" -> M10
	"T4-AND-80000-SUM" -> M11
	"T4-AND-80000-SUM" -> M12
	"T4-AND-80000-SUM" -> M13
	"T4-AND-80000-SUM" -> M14
}
