digraph G {
	"RTS94-AND-80000-SUM" -> "T1-AND-30774-SUM"
	"T1-AND-30774-SUM" -> "T3-AND-3201-SUM"
	"T1-AND-30774-SUM" -> "T4-OR-27573-MAX"
	"RTS94-AND-80000-SUM" -> "T2-AND-49226-SUM"
	"T2-AND-49226-SUM" -> "T5-AND-23603-SUM"
	"T2-AND-49226-SUM" -> "T6-AND-25623-SUM"
	"T3-AND-3201-SUM" -> M1
	"T4-OR-27573-MAX" -> M2
	"T4-OR-27573-MAX" -> M3
	"T4-OR-27573-MAX" -> M4
	"T5-AND-23603-SUM" -> M5
	"T5-AND-23603-SUM" -> M6
	"T5-AND-23603-SUM" -> M7
	"T5-AND-23603-SUM" -> M8
	"T6-AND-25623-SUM" -> M9
	"T6-AND-25623-SUM" -> M10
}
