####### Ordered Logger #######


Final Duration: 800.0
Final Quality: 0.0
Seed: 1856246117

##### Method Results #####


    ## Method ##
        Name: Method3
        Completed By : Agent1
        With Quality : 5.0
        With Duration: 9
        End Time: 21


    ## Method ##
        Name: Method20
        Completed By : Agent1
        With Quality : 8.0
        With Duration: 5
        End Time: 32


    ## Method ##
        Name: Method5
        Completed By : Agent1
        With Quality : 20.0
        With Duration: 6
        End Time: 109


    ## Method ##
        Name: Method13
        Completed By : Agent1
        With Quality : 33.0
        With Duration: 12
        End Time: 123


    ## Method ##
        Name: Method12
        Completed By : Agent1
        With Quality : 10.0
        With Duration: 7
        End Time: 132


    ## Method ##
        Name: Method7
        Completed By : Agent1
        With Quality : 14.0
        With Duration: 7
        End Time: 141


    ## Method ##
        Name: Method27
        Completed By : Agent1
        With Quality : 18.0
        With Duration: 18
        End Time: 161


    ## Method ##
        Name: Method8
        Completed By : Agent1
        With Quality : 41.666666666666664
        With Duration: 5
        End Time: 172


    ## Method ##
        Name: Method18
        Completed By : Agent1
        With Quality : 21.0
        With Duration: 9
        End Time: 183


    ## Method ##
        Name: Method28
        Completed By : Agent1
        With Quality : 24.0
        With Duration: 7
        End Time: 192


    ## Method ##
        Name: Method1
        Completed By : Agent1
        With Quality : 27.0
        With Duration: 2
        End Time: 196


    ## Method ##
        Name: Method2
        Completed By : Agent1
        With Quality : 10.0
        With Duration: 12
        End Time: 210


    ## Method ##
        Name: Method17
        Completed By : Agent1
        With Quality : 3.0
        With Duration: 1
        End Time: 214


    ## Method ##
        Name: Method29
        Completed By : Agent1
        With Quality : 5.0
        With Duration: 5
        End Time: 221


    ## Method ##
        Name: Method6
        Completed By : Agent1
        With Quality : 15.0
        With Duration: 9
        End Time: 234


    ## Method ##
        Name: Method21
        Completed By : Agent1
        With Quality : 17.0
        With Duration: 18
        End Time: 254


    ## Method ##
        Name: Method26
        Completed By : Agent1
        With Quality : 2.0
        With Duration: 1
        End Time: 257


    ## Method ##
        Name: Method10
        Completed By : Agent1
        With Quality : 37.86153846153846
        With Duration: 3
        End Time: 263


    ## Method ##
        Name: Method22
        Completed By : Agent1
        With Quality : 31.0
        With Duration: 7
        End Time: 272


    ## Method ##
        Name: Method24
        Completed By : Agent1
        With Quality : 12.0
        With Duration: 5
        End Time: 282


    ## Method ##
        Name: Method16
        Completed By : Agent1
        With Quality : 7.0
        With Duration: 6
        End Time: 290


    ## Method ##
        Name: Method15
        Completed By : Agent1
        With Quality : 2.117647058823529
        With Duration: 1
        End Time: 293


    ## Method ##
        Name: Method9
        Completed By : Agent1
        With Quality : 1.0
        With Duration: 5
        End Time: 300


    ## Method ##
        Name: Method23
        Completed By : Agent1
        With Quality : 0.8181818181818181
        With Duration: 8
        End Time: 310


    ## Method ##
        Name: Method30
        Completed By : Agent1
        With Quality : 1.7
        With Duration: 0
        End Time: 315


    ## Method ##
        Name: Method11
        Completed By : Agent1
        With Quality : 2.0
        With Duration: 3
        End Time: 321


    ## Method ##
        Name: Method4
        Completed By : Agent1
        With Quality : 2.0
        With Duration: 5
        End Time: 328

##### Relationship Results #####


    ## Relationship ##
        Name: disables2
        Type: Disables
        Source : Method16
        Target : Method3


    ## Relationship ##
        Name: hinders4
        Type: Hinders
        Source : Method21
        Target : Method20


    ## Relationship ##
        Name: hinders2
        Type: Hinders
        Source : Method5
        Target : Method23


    ## Relationship ##
        Name: facilitates3
        Type: Facilitates
        Source : Method13
        Target : Method30


    ## Relationship ##
        Name: hinders3
        Type: Hinders
        Source : Method28
        Target : Method12


    ## Relationship ##
        Name: facilitates1
        Type: Facilitates
        Source : Method7
        Target : Method8


    ## Relationship ##
        Name: enables3
        Type: Enables
        Source : Method27
        Target : Method11


    ## Relationship ##
        Name: facilitates2
        Type: Facilitates
        Source : Method18
        Target : Method10


    ## Relationship ##
        Name: enables1
        Type: Enables
        Source : Method1
        Target : Method4


    ## Relationship ##
        Name: hinders1
        Type: Hinders
        Source : Method2
        Target : Method15


    ## Relationship ##
        Name: disables3
        Type: Disables
        Source : Method29
        Target : Method14


    ## Relationship ##
        Name: disables1
        Type: Disables
        Source : Method4
        Target : Method6


    ## Relationship ##
        Name: facilitates4
        Type: Facilitates
        Source : Method26
        Target : Method24


    ## Relationship ##
        Name: enables4
        Type: Enables
        Source : Method22
        Target : Method19


    ## Relationship ##
        Name: enables2
        Type: Enables
        Source : Method9
        Target : Method25


    ## Relationship ##
        Name: enables2
        Type: Enables
        Source : Method9
        Target : Method25

##### Agent Results #####


    ## Agent ##
        Name Agent1
        Sent: 60
        Received: 906
        Completed: Method3, Method20, Method5, Method13, Method12, Method7, Method27, Method8, Method18, Method28, Method1, Method2, Method17, Method29, Method6, Method21, Method26, Method10, Method22, Method24, Method16, Method15, Method9, Method23, Method30, Method11, Method4