[2525689918, 8271466932, 4174509522, 8840665241, 9123408902, 2125142490, 8854385507, 6143484648, 8380075908, 9189252833, 1969295956, 7926855541, 6950677923, 8785354528, 3485267923, 2513721403, 1843302273, 8337151652, 8485990464, 3640920354, 9891563144, 1428330369, 9555874981, 5000722759, 9381812654, 9583492820, 8664000765, 1038137959, 4240634925]

[3425893166, 5298497150, 3044182468, 6770014781, 3112482855, 2473231159, 4706445887, 5558420786, 7705171896, 5734469510, 1032587560, 8894808656, 4712614608, 6650555886, 6747224286, 6024302869, 4302951091, 5532389098, 5104130881, 5503272115, 6820176665, 1775951550, 7038187756, 6811257282, 4461924282, 3428895152, 2947176618, 8649154709, 6031755978]

[7183247996, 9789411852, 8927140988, 2693381777, 2931229764, 1155954087, 6303209290, 6606132155, 2827007275, 9404775596, 9887271201, 2147101008, 3765226922, 6501350348, 3572739061, 1555829608, 4817630431, 8481905629, 3905491309, 9125580036, 2484040480, 6270265317, 7360304897, 9790470614, 2201104778, 1031347839, 1464613345, 1381209512, 6622152036]

[3988235099, 2624303190, 2932494837, 4527575160, 5471570157, 6420329751, 6966243201, 7186512994, 2617039782, 9680808853, 6732763245, 1971591111, 1807726457, 4331134795, 4307134688, 9073584879, 6757692309, 3572716390, 6012566227, 2701085661, 9410392374, 1918796111, 7525353730, 6753919045, 5065824358, 3050563562, 3492884801, 2488554453, 8681983572]
