####### Sequential Logger #######



    ## Message ##
        Sending a SetRandomSeedMessage to Agent1
        The random seed is 6879502916


    ## Message ##
        Sending a InitialTreeMessage to Agent1
        Tree Head: Problem1


    ## Message ##
        Sending a StartSimulationMessage to Agent1
        The Simulation has Started


    ## Message ##
        Sending a NextTickMessage to Agent1
        Tick 1 has occurred


    ## Message ##
        Sending a NextTickMessage to Agent1
        Tick 2 has occurred


    ## Message ##
        Sending a NextTickMessage to Agent1
        Tick 3 has occurred


    ## Message ##
        Sending a NextTickMessage to Agent1
        Tick 4 has occurred


    ## Message ##
        Sending a NextTickMessage to Agent1
        Tick 5 has occurred


    ## Message ##
        Sending a NextTickMessage to Agent1
        Tick 6 has occurred


    ## Message ##
        Sending a NextTickMessage to Agent1
        Tick 7 has occurred


    ## Message ##
        Sending a NextTickMessage to Agent1
        Tick 8 has occurred


    ## Message ##
        Sending a NextTickMessage to Agent1
        Tick 9 has occurred


    ## Message ##
        Sending a NextTickMessage to Agent1
        Tick 10 has occurred


    ## Message ##
        Sending a NextTickMessage to Agent1
        Tick 11 has occurred


    ## Message ##
        Sending a NextTickMessage to Agent1
        Tick 12 has occurred


    ## Message ##
        Sending a NextTickMessage to Agent1
        Tick 13 has occurred


    ## Message ##
        Sending a NextTickMessage to Agent1
        Tick 14 has occurred


    ## Message ##
        Sending a NextTickMessage to Agent1
        Tick 15 has occurred


    ## Message ##
        Sending a NextTickMessage to Agent1
        Tick 16 has occurred


    ## Message ##
        Sending a NextTickMessage to Agent1
        Tick 17 has occurred


    ## Message ##
        Sending a NextTickMessage to Agent1
        Tick 18 has occurred


    ## Message ##
        Sending a NextTickMessage to Agent1
        Tick 19 has occurred


    ## Message ##
        Sending a NextTickMessage to Agent1
        Tick 20 has occurred


    ## Message ##
        Sending a NextTickMessage to Agent1
        Tick 21 has occurred


    ## Message ##
        Sending a NextTickMessage to Agent1
        Tick 22 has occurred


    ## Message ##
        Sending a NextTickMessage to Agent1
        Tick 23 has occurred


    ## Message ##
        Sending a NextTickMessage to Agent1
        Tick 24 has occurred


    ## Message ##
        Sending a NextTickMessage to Agent1
        Tick 25 has occurred


    ## Message ##
        Sending a NextTickMessage to Agent1
        Tick 26 has occurred


    ## Message ##
        Sending a NextTickMessage to Agent1
        Tick 27 has occurred


    ## Message ##
        Sending a NextTickMessage to Agent1
        Tick 28 has occurred


    ## Message ##
        Received a AskMethodStatusMessage From Agent1
        Asked Status of Method1


    ## Message ##
        Received a AskMethodStatusMessage From Agent1
        Asked Status of Method4


    ## Message ##
        Received a AskMethodStatusMessage From Agent1
        Asked Status of Method6


    ## Message ##
        Received a AskMethodStatusMessage From Agent1
        Asked Status of Method2


    ## Message ##
        Received a AskMethodStatusMessage From Agent1
        Asked Status of Method15


    ## Message ##
        Received a AskMethodStatusMessage From Agent1
        Asked Status of Method3


    ## Message ##
        Received a AskMethodStatusMessage From Agent1
        Asked Status of Method16


    ## Message ##
        Received a AskMethodStatusMessage From Agent1
        Asked Status of Method5


    ## Message ##
        Received a AskMethodStatusMessage From Agent1
        Asked Status of Method23


    ## Message ##
        Received a AskMethodStatusMessage From Agent1
        Asked Status of Method7


    ## Message ##
        Received a AskMethodStatusMessage From Agent1
        Asked Status of Method8


    ## Message ##
        Received a AskMethodStatusMessage From Agent1
        Asked Status of Method9


    ## Message ##
        Received a AskMethodStatusMessage From Agent1
        Asked Status of Method25


    ## Message ##
        Received a AskMethodStatusMessage From Agent1
        Asked Status of Method10


    ## Message ##
        Received a AskMethodStatusMessage From Agent1
        Asked Status of Method18


    ## Message ##
        Received a AskMethodStatusMessage From Agent1
        Asked Status of Method11


    ## Message ##
        Received a AskMethodStatusMessage From Agent1
        Asked Status of Method27


    ## Message ##
        Received a AskMethodStatusMessage From Agent1
        Asked Status of Method12


    ## Message ##
        Received a AskMethodStatusMessage From Agent1
        Asked Status of Method28


    ## Message ##
        Received a AskMethodStatusMessage From Agent1
        Asked Status of Method13


    ## Message ##
        Received a AskMethodStatusMessage From Agent1
        Asked Status of Method30


    ## Message ##
        Received a AskMethodStatusMessage From Agent1
        Asked Status of Method14


    ## Message ##
        Received a AskMethodStatusMessage From Agent1
        Asked Status of Method29


    ## Message ##
        Received a AskMethodStatusMessage From Agent1
        Asked Status of Method17


    ## Message ##
        Received a AskMethodStatusMessage From Agent1
        Asked Status of Method19


    ## Message ##
        Received a AskMethodStatusMessage From Agent1
        Asked Status of Method22


    ## Message ##
        Received a AskMethodStatusMessage From Agent1
        Asked Status of Method20


    ## Message ##
        Received a AskMethodStatusMessage From Agent1
        Asked Status of Method21


    ## Message ##
        Received a AskMethodStatusMessage From Agent1
        Asked Status of Method24


    ## Message ##
        Received a AskMethodStatusMessage From Agent1
        Asked Status of Method26


    ## Message ##
        Received a AskMethodStatusMessage From Agent1
        Asked Status of Method1


    ## Message ##
        Received a AskMethodStatusMessage From Agent1
        Asked Status of Method4


    ## Message ##
        Received a AskMethodStatusMessage From Agent1
        Asked Status of Method6


    ## Message ##
        Received a AskMethodStatusMessage From Agent1
        Asked Status of Method2


    ## Message ##
        Received a AskMethodStatusMessage From Agent1
        Asked Status of Method15


    ## Message ##
        Received a AskMethodStatusMessage From Agent1
        Asked Status of Method3


    ## Message ##
        Received a AskMethodStatusMessage From Agent1
        Asked Status of Method16


    ## Message ##
        Received a AskMethodStatusMessage From Agent1
        Asked Status of Method5


    ## Message ##
        Received a AskMethodStatusMessage From Agent1
        Asked Status of Method23


    ## Message ##
        Received a AskMethodStatusMessage From Agent1
        Asked Status of Method7


    ## Message ##
        Received a AskMethodStatusMessage From Agent1
        Asked Status of Method8


    ## Message ##
        Received a AskMethodStatusMessage From Agent1
        Asked Status of Method9


    ## Message ##
        Received a AskMethodStatusMessage From Agent1
        Asked Status of Method25


    ## Message ##
        Received a AskMethodStatusMessage From Agent1
        Asked Status of Method10


    ## Message ##
        Received a AskMethodStatusMessage From Agent1
        Asked Status of Method18


    ## Message ##
        Received a AskMethodStatusMessage From Agent1
        Asked Status of Method11


    ## Message ##
        Received a AskMethodStatusMessage From Agent1
        Asked Status of Method27


    ## Message ##
        Received a AskMethodStatusMessage From Agent1
        Asked Status of Method12


    ## Message ##
        Received a AskMethodStatusMessage From Agent1
        Asked Status of Method28


    ## Message ##
        Received a AskMethodStatusMessage From Agent1
        Asked Status of Method13


    ## Message ##
        Received a AskMethodStatusMessage From Agent1
        Asked Status of Method30


    ## Message ##
        Received a AskMethodStatusMessage From Agent1
        Asked Status of Method14


    ## Message ##
        Received a AskMethodStatusMessage From Agent1
        Asked Status of Method29


    ## Message ##
        Received a AskMethodStatusMessage From Agent1
        Asked Status of Method17


    ## Message ##
        Received a AskMethodStatusMessage From Agent1
        Asked Status of Method19


    ## Message ##
        Received a AskMethodStatusMessage From Agent1
        Asked Status of Method22


    ## Message ##
        Received a AskMethodStatusMessage From Agent1
        Asked Status of Method20


    ## Message ##
        Received a AskMethodStatusMessage From Agent1
        Asked Status of Method21


    ## Message ##
        Received a AskMethodStatusMessage From Agent1
        Asked Status of Method24


    ## Message ##
        Received a AskMethodStatusMessage From Agent1
        Asked Status of Method26


    ## Message ##
        Received a AskMethodStatusMessage From Agent1
        Asked Status of Method1


    ## Message ##
        Received a AskMethodStatusMessage From Agent1
        Asked Status of Method4


    ## Message ##
        Received a AskMethodStatusMessage From Agent1
        Asked Status of Method6


    ## Message ##
        Received a AskMethodStatusMessage From Agent1
        Asked Status of Method2


    ## Message ##
        Received a AskMethodStatusMessage From Agent1
        Asked Status of Method15


    ## Message ##
        Received a AskMethodStatusMessage From Agent1
        Asked Status of Method3


    ## Message ##
        Received a AskMethodStatusMessage From Agent1
        Asked Status of Method16


    ## Message ##
        Received a AskMethodStatusMessage From Agent1
        Asked Status of Method5


    ## Message ##
        Received a AskMethodStatusMessage From Agent1
        Asked Status of Method23


    ## Message ##
        Received a AskMethodStatusMessage From Agent1
        Asked Status of Method7


    ## Message ##
        Received a AskMethodStatusMessage From Agent1
        Asked Status of Method8


    ## Message ##
        Received a AskMethodStatusMessage From Agent1
        Asked Status of Method9


    ## Message ##
        Received a AskMethodStatusMessage From Agent1
        Asked Status of Method25


    ## Message ##
        Received a AskMethodStatusMessage From Agent1
        Asked Status of Method10


    ## Message ##
        Received a AskMethodStatusMessage From Agent1
        Asked Status of Method18


    ## Message ##
        Received a AskMethodStatusMessage From Agent1
        Asked Status of Method11


    ## Message ##
        Received a AskMethodStatusMessage From Agent1
        Asked Status of Method27


    ## Message ##
        Received a AskMethodStatusMessage From Agent1
        Asked Status of Method12


    ## Message ##
        Received a AskMethodStatusMessage From Agent1
        Asked Status of Method28


    ## Message ##
        Received a AskMethodStatusMessage From Agent1
        Asked Status of Method13


    ## Message ##
        Received a AskMethodStatusMessage From Agent1
        Asked Status of Method30


    ## Message ##
        Received a AskMethodStatusMessage From Agent1
        Asked Status of Method14


    ## Message ##
        Received a AskMethodStatusMessage From Agent1
        Asked Status of Method29


    ## Message ##
        Received a AskMethodStatusMessage From Agent1
        Asked Status of Method17


    ## Message ##
        Received a AskMethodStatusMessage From Agent1
        Asked Status of Method19


    ## Message ##
        Received a AskMethodStatusMessage From Agent1
        Asked Status of Method22


    ## Message ##
        Received a AskMethodStatusMessage From Agent1
        Asked Status of Method20


    ## Message ##
        Received a AskMethodStatusMessage From Agent1
        Asked Status of Method21


    ## Message ##
        Received a AskMethodStatusMessage From Agent1
        Asked Status of Method24


    ## Message ##
        Received a AskMethodStatusMessage From Agent1
        Asked Status of Method26


    ## Message ##
        Received a AskMethodStatusMessage From Agent1
        Asked Status of Method1


    ## Message ##
        Received a AskMethodStatusMessage From Agent1
        Asked Status of Method4


    ## Message ##
        Received a AskMethodStatusMessage From Agent1
        Asked Status of Method6


    ## Message ##
        Received a AskMethodStatusMessage From Agent1
        Asked Status of Method2


    ## Message ##
        Received a AskMethodStatusMessage From Agent1
        Asked Status of Method15


    ## Message ##
        Received a AskMethodStatusMessage From Agent1
        Asked Status of Method3


    ## Message ##
        Received a AskMethodStatusMessage From Agent1
        Asked Status of Method16


    ## Message ##
        Received a AskMethodStatusMessage From Agent1
        Asked Status of Method5


    ## Message ##
        Received a AskMethodStatusMessage From Agent1
        Asked Status of Method23


    ## Message ##
        Received a AskMethodStatusMessage From Agent1
        Asked Status of Method7


    ## Message ##
        Received a AskMethodStatusMessage From Agent1
        Asked Status of Method8


    ## Message ##
        Received a AskMethodStatusMessage From Agent1
        Asked Status of Method9


    ## Message ##
        Received a AskMethodStatusMessage From Agent1
        Asked Status of Method25


    ## Message ##
        Received a AskMethodStatusMessage From Agent1
        Asked Status of Method10


    ## Message ##
        Received a AskMethodStatusMessage From Agent1
        Asked Status of Method18


    ## Message ##
        Received a AskMethodStatusMessage From Agent1
        Asked Status of Method11


    ## Message ##
        Received a AskMethodStatusMessage From Agent1
        Asked Status of Method27


    ## Message ##
        Received a AskMethodStatusMessage From Agent1
        Asked Status of Method12


    ## Message ##
        Received a AskMethodStatusMessage From Agent1
        Asked Status of Method28


    ## Message ##
        Received a AskMethodStatusMessage From Agent1
        Asked Status of Method13


    ## Message ##
        Received a AskMethodStatusMessage From Agent1
        Asked Status of Method30


    ## Message ##
        Received a AskMethodStatusMessage From Agent1
        Asked Status of Method14


    ## Message ##
        Received a AskMethodStatusMessage From Agent1
        Asked Status of Method29


    ## Message ##
        Received a AskMethodStatusMessage From Agent1
        Asked Status of Method17


    ## Message ##
        Received a AskMethodStatusMessage From Agent1
        Asked Status of Method19


    ## Message ##
        Received a AskMethodStatusMessage From Agent1
        Asked Status of Method22


    ## Message ##
        Received a AskMethodStatusMessage From Agent1
        Asked Status of Method20


    ## Message ##
        Received a AskMethodStatusMessage From Agent1
        Asked Status of Method21


    ## Message ##
        Received a AskMethodStatusMessage From Agent1
        Asked Status of Method24


    ## Message ##
        Received a AskMethodStatusMessage From Agent1
        Asked Status of Method26


    ## Message ##
        Received a AskMethodStatusMessage From Agent1
        Asked Status of Method1


    ## Message ##
        Received a AskMethodStatusMessage From Agent1
        Asked Status of Method4


    ## Message ##
        Received a AskMethodStatusMessage From Agent1
        Asked Status of Method6


    ## Message ##
        Received a AskMethodStatusMessage From Agent1
        Asked Status of Method2


    ## Message ##
        Received a AskMethodStatusMessage From Agent1
        Asked Status of Method15


    ## Message ##
        Received a AskMethodStatusMessage From Agent1
        Asked Status of Method3


    ## Message ##
        Received a AskMethodStatusMessage From Agent1
        Asked Status of Method16


    ## Message ##
        Received a AskMethodStatusMessage From Agent1
        Asked Status of Method5


    ## Message ##
        Received a AskMethodStatusMessage From Agent1
        Asked Status of Method23


    ## Message ##
        Received a AskMethodStatusMessage From Agent1
        Asked Status of Method7


    ## Message ##
        Received a AskMethodStatusMessage From Agent1
        Asked Status of Method8


    ## Message ##
        Received a AskMethodStatusMessage From Agent1
        Asked Status of Method9


    ## Message ##
        Received a AskMethodStatusMessage From Agent1
        Asked Status of Method25


    ## Message ##
        Received a AskMethodStatusMessage From Agent1
        Asked Status of Method10


    ## Message ##
        Received a AskMethodStatusMessage From Agent1
        Asked Status of Method18


    ## Message ##
        Received a AskMethodStatusMessage From Agent1
        Asked Status of Method11


    ## Message ##
        Received a AskMethodStatusMessage From Agent1
        Asked Status of Method27


    ## Message ##
        Received a AskMethodStatusMessage From Agent1
        Asked Status of Method12


    ## Message ##
        Received a AskMethodStatusMessage From Agent1
        Asked Status of Method28


    ## Message ##
        Received a AskMethodStatusMessage From Agent1
        Asked Status of Method13


    ## Message ##
        Received a AskMethodStatusMessage From Agent1
        Asked Status of Method30


    ## Message ##
        Received a AskMethodStatusMessage From Agent1
        Asked Status of Method14


    ## Message ##
        Received a AskMethodStatusMessage From Agent1
        Asked Status of Method29


    ## Message ##
        Received a AskMethodStatusMessage From Agent1
        Asked Status of Method17


    ## Message ##
        Received a AskMethodStatusMessage From Agent1
        Asked Status of Method19


    ## Message ##
        Received a AskMethodStatusMessage From Agent1
        Asked Status of Method22


    ## Message ##
        Received a AskMethodStatusMessage From Agent1
        Asked Status of Method20


    ## Message ##
        Received a AskMethodStatusMessage From Agent1
        Asked Status of Method21


    ## Message ##
        Received a AskMethodStatusMessage From Agent1
        Asked Status of Method24


    ## Message ##
        Received a AskMethodStatusMessage From Agent1
        Asked Status of Method26


    ## Message ##
        Received a AskMethodStatusMessage From Agent1
        Asked Status of Method1


    ## Message ##
        Received a AskMethodStatusMessage From Agent1
        Asked Status of Method4


    ## Message ##
        Received a AskMethodStatusMessage From Agent1
        Asked Status of Method6


    ## Message ##
        Received a AskMethodStatusMessage From Agent1
        Asked Status of Method2


    ## Message ##
        Received a AskMethodStatusMessage From Agent1
        Asked Status of Method15


    ## Message ##
        Received a AskMethodStatusMessage From Agent1
        Asked Status of Method3


    ## Message ##
        Received a AskMethodStatusMessage From Agent1
        Asked Status of Method16


    ## Message ##
        Received a AskMethodStatusMessage From Agent1
        Asked Status of Method5


    ## Message ##
        Received a AskMethodStatusMessage From Agent1
        Asked Status of Method23


    ## Message ##
        Received a AskMethodStatusMessage From Agent1
        Asked Status of Method7


    ## Message ##
        Received a AskMethodStatusMessage From Agent1
        Asked Status of Method8


    ## Message ##
        Received a AskMethodStatusMessage From Agent1
        Asked Status of Method9


    ## Message ##
        Received a AskMethodStatusMessage From Agent1
        Asked Status of Method25


    ## Message ##
        Received a AskMethodStatusMessage From Agent1
        Asked Status of Method10


    ## Message ##
        Received a AskMethodStatusMessage From Agent1
        Asked Status of Method18


    ## Message ##
        Received a AskMethodStatusMessage From Agent1
        Asked Status of Method11


    ## Message ##
        Received a AskMethodStatusMessage From Agent1
        Asked Status of Method27


    ## Message ##
        Received a AskMethodStatusMessage From Agent1
        Asked Status of Method12


    ## Message ##
        Received a AskMethodStatusMessage From Agent1
        Asked Status of Method28


    ## Message ##
        Received a AskMethodStatusMessage From Agent1
        Asked Status of Method13


    ## Message ##
        Received a AskMethodStatusMessage From Agent1
        Asked Status of Method30


    ## Message ##
        Received a AskMethodStatusMessage From Agent1
        Asked Status of Method14


    ## Message ##
        Received a AskMethodStatusMessage From Agent1
        Asked Status of Method29


    ## Message ##
        Received a AskMethodStatusMessage From Agent1
        Asked Status of Method17


    ## Message ##
        Received a AskMethodStatusMessage From Agent1
        Asked Status of Method19


    ## Message ##
        Received a AskMethodStatusMessage From Agent1
        Asked Status of Method22


    ## Message ##
        Received a AskMethodStatusMessage From Agent1
        Asked Status of Method20


    ## Message ##
        Received a AskMethodStatusMessage From Agent1
        Asked Status of Method21


    ## Message ##
        Received a AskMethodStatusMessage From Agent1
        Asked Status of Method24


    ## Message ##
        Received a AskMethodStatusMessage From Agent1
        Asked Status of Method26


    ## Message ##
        Sending a NextTickMessage to Agent1
        Tick 29 has occurred


    ## Message ##
        Sending a NotifyMethodStatusMessage to Agent1
        Method1 is Enabled: true Completed: false In Progress: false


    ## Message ##
        Sending a NotifyMethodStatusMessage to Agent1
        Method4 is Enabled: false Completed: false In Progress: false


    ## Message ##
        Sending a NotifyMethodStatusMessage to Agent1
        Method6 is Enabled: true Completed: false In Progress: false


    ## Message ##
        Sending a NotifyMethodStatusMessage to Agent1
        Method2 is Enabled: true Completed: false In Progress: false


    ## Message ##
        Sending a NotifyMethodStatusMessage to Agent1
        Method15 is Enabled: true Completed: false In Progress: false


    ## Message ##
        Sending a NotifyMethodStatusMessage to Agent1
        Method3 is Enabled: true Completed: false In Progress: false


    ## Message ##
        Sending a NotifyMethodStatusMessage to Agent1
        Method16 is Enabled: true Completed: false In Progress: false


    ## Message ##
        Sending a NotifyMethodStatusMessage to Agent1
        Method5 is Enabled: true Completed: false In Progress: false


    ## Message ##
        Sending a NotifyMethodStatusMessage to Agent1
        Method23 is Enabled: true Completed: false In Progress: false


    ## Message ##
        Sending a NotifyMethodStatusMessage to Agent1
        Method7 is Enabled: true Completed: false In Progress: false


    ## Message ##
        Sending a NotifyMethodStatusMessage to Agent1
        Method8 is Enabled: true Completed: false In Progress: false


    ## Message ##
        Sending a NotifyMethodStatusMessage to Agent1
        Method9 is Enabled: true Completed: false In Progress: false


    ## Message ##
        Sending a NotifyMethodStatusMessage to Agent1
        Method25 is Enabled: false Completed: false In Progress: false


    ## Message ##
        Sending a NotifyMethodStatusMessage to Agent1
        Method10 is Enabled: true Completed: false In Progress: false


    ## Message ##
        Sending a NotifyMethodStatusMessage to Agent1
        Method18 is Enabled: true Completed: false In Progress: false


    ## Message ##
        Sending a NotifyMethodStatusMessage to Agent1
        Method11 is Enabled: false Completed: false In Progress: false


    ## Message ##
        Sending a NotifyMethodStatusMessage to Agent1
        Method27 is Enabled: true Completed: false In Progress: false


    ## Message ##
        Sending a NotifyMethodStatusMessage to Agent1
        Method12 is Enabled: true Completed: false In Progress: false


    ## Message ##
        Sending a NotifyMethodStatusMessage to Agent1
        Method28 is Enabled: true Completed: false In Progress: false


    ## Message ##
        Sending a NotifyMethodStatusMessage to Agent1
        Method13 is Enabled: true Completed: false In Progress: false


    ## Message ##
        Sending a NotifyMethodStatusMessage to Agent1
        Method30 is Enabled: true Completed: false In Progress: false


    ## Message ##
        Sending a NotifyMethodStatusMessage to Agent1
        Method14 is Enabled: true Completed: false In Progress: false


    ## Message ##
        Sending a NotifyMethodStatusMessage to Agent1
        Method29 is Enabled: true Completed: false In Progress: false


    ## Message ##
        Sending a NotifyMethodStatusMessage to Agent1
        Method17 is Enabled: true Completed: false In Progress: false


    ## Message ##
        Sending a NotifyMethodStatusMessage to Agent1
        Method19 is Enabled: false Completed: false In Progress: false


    ## Message ##
        Sending a NotifyMethodStatusMessage to Agent1
        Method22 is Enabled: true Completed: false In Progress: false


    ## Message ##
        Sending a NotifyMethodStatusMessage to Agent1
        Method20 is Enabled: true Completed: false In Progress: false


    ## Message ##
        Sending a NotifyMethodStatusMessage to Agent1
        Method21 is Enabled: true Completed: false In Progress: false


    ## Message ##
        Sending a NotifyMethodStatusMessage to Agent1
        Method24 is Enabled: true Completed: false In Progress: false


    ## Message ##
        Sending a NotifyMethodStatusMessage to Agent1
        Method26 is Enabled: true Completed: false In Progress: false


    ## Message ##
        Sending a NotifyMethodStatusMessage to Agent1
        Method1 is Enabled: true Completed: false In Progress: false


    ## Message ##
        Sending a NotifyMethodStatusMessage to Agent1
        Method4 is Enabled: false Completed: false In Progress: false


    ## Message ##
        Sending a NotifyMethodStatusMessage to Agent1
        Method6 is Enabled: true Completed: false In Progress: false


    ## Message ##
        Sending a NotifyMethodStatusMessage to Agent1
        Method2 is Enabled: true Completed: false In Progress: false


    ## Message ##
        Sending a NotifyMethodStatusMessage to Agent1
        Method15 is Enabled: true Completed: false In Progress: false


    ## Message ##
        Sending a NotifyMethodStatusMessage to Agent1
        Method3 is Enabled: true Completed: false In Progress: false


    ## Message ##
        Sending a NotifyMethodStatusMessage to Agent1
        Method16 is Enabled: true Completed: false In Progress: false


    ## Message ##
        Sending a NotifyMethodStatusMessage to Agent1
        Method5 is Enabled: true Completed: false In Progress: false


    ## Message ##
        Sending a NotifyMethodStatusMessage to Agent1
        Method23 is Enabled: true Completed: false In Progress: false


    ## Message ##
        Sending a NotifyMethodStatusMessage to Agent1
        Method7 is Enabled: true Completed: false In Progress: false


    ## Message ##
        Sending a NotifyMethodStatusMessage to Agent1
        Method8 is Enabled: true Completed: false In Progress: false


    ## Message ##
        Sending a NotifyMethodStatusMessage to Agent1
        Method9 is Enabled: true Completed: false In Progress: false


    ## Message ##
        Sending a NotifyMethodStatusMessage to Agent1
        Method25 is Enabled: false Completed: false In Progress: false


    ## Message ##
        Sending a NotifyMethodStatusMessage to Agent1
        Method10 is Enabled: true Completed: false In Progress: false


    ## Message ##
        Sending a NotifyMethodStatusMessage to Agent1
        Method18 is Enabled: true Completed: false In Progress: false


    ## Message ##
        Sending a NotifyMethodStatusMessage to Agent1
        Method11 is Enabled: false Completed: false In Progress: false


    ## Message ##
        Sending a NotifyMethodStatusMessage to Agent1
        Method27 is Enabled: true Completed: false In Progress: false


    ## Message ##
        Sending a NotifyMethodStatusMessage to Agent1
        Method12 is Enabled: true Completed: false In Progress: false


    ## Message ##
        Sending a NotifyMethodStatusMessage to Agent1
        Method28 is Enabled: true Completed: false In Progress: false


    ## Message ##
        Sending a NotifyMethodStatusMessage to Agent1
        Method13 is Enabled: true Completed: false In Progress: false


    ## Message ##
        Sending a NotifyMethodStatusMessage to Agent1
        Method30 is Enabled: true Completed: false In Progress: false


    ## Message ##
        Sending a NotifyMethodStatusMessage to Agent1
        Method14 is Enabled: true Completed: false In Progress: false


    ## Message ##
        Sending a NotifyMethodStatusMessage to Agent1
        Method29 is Enabled: true Completed: false In Progress: false


    ## Message ##
        Sending a NotifyMethodStatusMessage to Agent1
        Method17 is Enabled: true Completed: false In Progress: false


    ## Message ##
        Sending a NotifyMethodStatusMessage to Agent1
        Method19 is Enabled: false Completed: false In Progress: false


    ## Message ##
        Sending a NotifyMethodStatusMessage to Agent1
        Method22 is Enabled: true Completed: false In Progress: false


    ## Message ##
        Sending a NotifyMethodStatusMessage to Agent1
        Method20 is Enabled: true Completed: false In Progress: false


    ## Message ##
        Sending a NotifyMethodStatusMessage to Agent1
        Method21 is Enabled: true Completed: false In Progress: false


    ## Message ##
        Sending a NotifyMethodStatusMessage to Agent1
        Method24 is Enabled: true Completed: false In Progress: false


    ## Message ##
        Sending a NotifyMethodStatusMessage to Agent1
        Method26 is Enabled: true Completed: false In Progress: false


    ## Message ##
        Sending a NotifyMethodStatusMessage to Agent1
        Method1 is Enabled: true Completed: false In Progress: false


    ## Message ##
        Sending a NotifyMethodStatusMessage to Agent1
        Method4 is Enabled: false Completed: false In Progress: false


    ## Message ##
        Sending a NotifyMethodStatusMessage to Agent1
        Method6 is Enabled: true Completed: false In Progress: false


    ## Message ##
        Sending a NotifyMethodStatusMessage to Agent1
        Method2 is Enabled: true Completed: false In Progress: false


    ## Message ##
        Sending a NotifyMethodStatusMessage to Agent1
        Method15 is Enabled: true Completed: false In Progress: false


    ## Message ##
        Sending a NotifyMethodStatusMessage to Agent1
        Method3 is Enabled: true Completed: false In Progress: false


    ## Message ##
        Sending a NotifyMethodStatusMessage to Agent1
        Method16 is Enabled: true Completed: false In Progress: false


    ## Message ##
        Sending a NotifyMethodStatusMessage to Agent1
        Method5 is Enabled: true Completed: false In Progress: false


    ## Message ##
        Sending a NotifyMethodStatusMessage to Agent1
        Method23 is Enabled: true Completed: false In Progress: false


    ## Message ##
        Sending a NotifyMethodStatusMessage to Agent1
        Method7 is Enabled: true Completed: false In Progress: false


    ## Message ##
        Sending a NotifyMethodStatusMessage to Agent1
        Method8 is Enabled: true Completed: false In Progress: false


    ## Message ##
        Sending a NotifyMethodStatusMessage to Agent1
        Method9 is Enabled: true Completed: false In Progress: false


    ## Message ##
        Sending a NotifyMethodStatusMessage to Agent1
        Method25 is Enabled: false Completed: false In Progress: false


    ## Message ##
        Sending a NotifyMethodStatusMessage to Agent1
        Method10 is Enabled: true Completed: false In Progress: false


    ## Message ##
        Sending a NotifyMethodStatusMessage to Agent1
        Method18 is Enabled: true Completed: false In Progress: false


    ## Message ##
        Sending a NotifyMethodStatusMessage to Agent1
        Method11 is Enabled: false Completed: false In Progress: false


    ## Message ##
        Sending a NotifyMethodStatusMessage to Agent1
        Method27 is Enabled: true Completed: false In Progress: false


    ## Message ##
        Sending a NotifyMethodStatusMessage to Agent1
        Method12 is Enabled: true Completed: false In Progress: false


    ## Message ##
        Sending a NotifyMethodStatusMessage to Agent1
        Method28 is Enabled: true Completed: false In Progress: false


    ## Message ##
        Sending a NotifyMethodStatusMessage to Agent1
        Method13 is Enabled: true Completed: false In Progress: false


    ## Message ##
        Sending a NotifyMethodStatusMessage to Agent1
        Method30 is Enabled: true Completed: false In Progress: false


    ## Message ##
        Sending a NotifyMethodStatusMessage to Agent1
        Method14 is Enabled: true Completed: false In Progress: false


    ## Message ##
        Sending a NotifyMethodStatusMessage to Agent1
        Method29 is Enabled: true Completed: false In Progress: false


    ## Message ##
        Sending a NotifyMethodStatusMessage to Agent1
        Method17 is Enabled: true Completed: false In Progress: false


    ## Message ##
        Sending a NotifyMethodStatusMessage to Agent1
        Method19 is Enabled: false Completed: false In Progress: false


    ## Message ##
        Sending a NotifyMethodStatusMessage to Agent1
        Method22 is Enabled: true Completed: false In Progress: false


    ## Message ##
        Sending a NotifyMethodStatusMessage to Agent1
        Method20 is Enabled: true Completed: false In Progress: false


    ## Message ##
        Sending a NotifyMethodStatusMessage to Agent1
        Method21 is Enabled: true Completed: false In Progress: false


    ## Message ##
        Sending a NotifyMethodStatusMessage to Agent1
        Method24 is Enabled: true Completed: false In Progress: false


    ## Message ##
        Sending a NotifyMethodStatusMessage to Agent1
        Method26 is Enabled: true Completed: false In Progress: false


    ## Message ##
        Sending a NotifyMethodStatusMessage to Agent1
        Method1 is Enabled: true Completed: false In Progress: false


    ## Message ##
        Sending a NotifyMethodStatusMessage to Agent1
        Method4 is Enabled: false Completed: false In Progress: false


    ## Message ##
        Sending a NotifyMethodStatusMessage to Agent1
        Method6 is Enabled: true Completed: false In Progress: false


    ## Message ##
        Sending a NotifyMethodStatusMessage to Agent1
        Method2 is Enabled: true Completed: false In Progress: false


    ## Message ##
        Sending a NotifyMethodStatusMessage to Agent1
        Method15 is Enabled: true Completed: false In Progress: false


    ## Message ##
        Sending a NotifyMethodStatusMessage to Agent1
        Method3 is Enabled: true Completed: false In Progress: false


    ## Message ##
        Sending a NotifyMethodStatusMessage to Agent1
        Method16 is Enabled: true Completed: false In Progress: false


    ## Message ##
        Sending a NotifyMethodStatusMessage to Agent1
        Method5 is Enabled: true Completed: false In Progress: false


    ## Message ##
        Sending a NotifyMethodStatusMessage to Agent1
        Method23 is Enabled: true Completed: false In Progress: false


    ## Message ##
        Sending a NotifyMethodStatusMessage to Agent1
        Method7 is Enabled: true Completed: false In Progress: false


    ## Message ##
        Sending a NotifyMethodStatusMessage to Agent1
        Method8 is Enabled: true Completed: false In Progress: false


    ## Message ##
        Sending a NotifyMethodStatusMessage to Agent1
        Method9 is Enabled: true Completed: false In Progress: false


    ## Message ##
        Sending a NotifyMethodStatusMessage to Agent1
        Method25 is Enabled: false Completed: false In Progress: false


    ## Message ##
        Sending a NotifyMethodStatusMessage to Agent1
        Method10 is Enabled: true Completed: false In Progress: false


    ## Message ##
        Sending a NotifyMethodStatusMessage to Agent1
        Method18 is Enabled: true Completed: false In Progress: false


    ## Message ##
        Sending a NotifyMethodStatusMessage to Agent1
        Method11 is Enabled: false Completed: false In Progress: false


    ## Message ##
        Sending a NotifyMethodStatusMessage to Agent1
        Method27 is Enabled: true Completed: false In Progress: false


    ## Message ##
        Sending a NotifyMethodStatusMessage to Agent1
        Method12 is Enabled: true Completed: false In Progress: false


    ## Message ##
        Sending a NotifyMethodStatusMessage to Agent1
        Method28 is Enabled: true Completed: false In Progress: false


    ## Message ##
        Sending a NotifyMethodStatusMessage to Agent1
        Method13 is Enabled: true Completed: false In Progress: false


    ## Message ##
        Sending a NotifyMethodStatusMessage to Agent1
        Method30 is Enabled: true Completed: false In Progress: false


    ## Message ##
        Sending a NotifyMethodStatusMessage to Agent1
        Method14 is Enabled: true Completed: false In Progress: false


    ## Message ##
        Sending a NotifyMethodStatusMessage to Agent1
        Method29 is Enabled: true Completed: false In Progress: false


    ## Message ##
        Sending a NotifyMethodStatusMessage to Agent1
        Method17 is Enabled: true Completed: false In Progress: false


    ## Message ##
        Sending a NotifyMethodStatusMessage to Agent1
        Method19 is Enabled: false Completed: false In Progress: false


    ## Message ##
        Sending a NotifyMethodStatusMessage to Agent1
        Method22 is Enabled: true Completed: false In Progress: false


    ## Message ##
        Sending a NotifyMethodStatusMessage to Agent1
        Method20 is Enabled: true Completed: false In Progress: false


    ## Message ##
        Sending a NotifyMethodStatusMessage to Agent1
        Method21 is Enabled: true Completed: false In Progress: false


    ## Message ##
        Sending a NotifyMethodStatusMessage to Agent1
        Method24 is Enabled: true Completed: false In Progress: false


    ## Message ##
        Sending a NotifyMethodStatusMessage to Agent1
        Method26 is Enabled: true Completed: false In Progress: false


    ## Message ##
        Sending a NotifyMethodStatusMessage to Agent1
        Method1 is Enabled: true Completed: false In Progress: false


    ## Message ##
        Sending a NotifyMethodStatusMessage to Agent1
        Method4 is Enabled: false Completed: false In Progress: false


    ## Message ##
        Sending a NotifyMethodStatusMessage to Agent1
        Method6 is Enabled: true Completed: false In Progress: false


    ## Message ##
        Sending a NotifyMethodStatusMessage to Agent1
        Method2 is Enabled: true Completed: false In Progress: false


    ## Message ##
        Sending a NotifyMethodStatusMessage to Agent1
        Method15 is Enabled: true Completed: false In Progress: false


    ## Message ##
        Sending a NotifyMethodStatusMessage to Agent1
        Method3 is Enabled: true Completed: false In Progress: false


    ## Message ##
        Sending a NotifyMethodStatusMessage to Agent1
        Method16 is Enabled: true Completed: false In Progress: false


    ## Message ##
        Sending a NotifyMethodStatusMessage to Agent1
        Method5 is Enabled: true Completed: false In Progress: false


    ## Message ##
        Sending a NotifyMethodStatusMessage to Agent1
        Method23 is Enabled: true Completed: false In Progress: false


    ## Message ##
        Sending a NotifyMethodStatusMessage to Agent1
        Method7 is Enabled: true Completed: false In Progress: false


    ## Message ##
        Sending a NotifyMethodStatusMessage to Agent1
        Method8 is Enabled: true Completed: false In Progress: false


    ## Message ##
        Sending a NotifyMethodStatusMessage to Agent1
        Method9 is Enabled: true Completed: false In Progress: false


    ## Message ##
        Sending a NotifyMethodStatusMessage to Agent1
        Method25 is Enabled: false Completed: false In Progress: false


    ## Message ##
        Sending a NotifyMethodStatusMessage to Agent1
        Method10 is Enabled: true Completed: false In Progress: false


    ## Message ##
        Sending a NotifyMethodStatusMessage to Agent1
        Method18 is Enabled: true Completed: false In Progress: false


    ## Message ##
        Sending a NotifyMethodStatusMessage to Agent1
        Method11 is Enabled: false Completed: false In Progress: false


    ## Message ##
        Sending a NotifyMethodStatusMessage to Agent1
        Method27 is Enabled: true Completed: false In Progress: false


    ## Message ##
        Sending a NotifyMethodStatusMessage to Agent1
        Method12 is Enabled: true Completed: false In Progress: false


    ## Message ##
        Sending a NotifyMethodStatusMessage to Agent1
        Method28 is Enabled: true Completed: false In Progress: false


    ## Message ##
        Sending a NotifyMethodStatusMessage to Agent1
        Method13 is Enabled: true Completed: false In Progress: false


    ## Message ##
        Sending a NotifyMethodStatusMessage to Agent1
        Method30 is Enabled: true Completed: false In Progress: false


    ## Message ##
        Sending a NotifyMethodStatusMessage to Agent1
        Method14 is Enabled: true Completed: false In Progress: false


    ## Message ##
        Sending a NotifyMethodStatusMessage to Agent1
        Method29 is Enabled: true Completed: false In Progress: false


    ## Message ##
        Sending a NotifyMethodStatusMessage to Agent1
        Method17 is Enabled: true Completed: false In Progress: false


    ## Message ##
        Sending a NotifyMethodStatusMessage to Agent1
        Method19 is Enabled: false Completed: false In Progress: false


    ## Message ##
        Sending a NotifyMethodStatusMessage to Agent1
        Method22 is Enabled: true Completed: false In Progress: false


    ## Message ##
        Sending a NotifyMethodStatusMessage to Agent1
        Method20 is Enabled: true Completed: false In Progress: false


    ## Message ##
        Sending a NotifyMethodStatusMessage to Agent1
        Method21 is Enabled: true Completed: false In Progress: false


    ## Message ##
        Sending a NotifyMethodStatusMessage to Agent1
        Method24 is Enabled: true Completed: false In Progress: false


    ## Message ##
        Sending a NotifyMethodStatusMessage to Agent1
        Method26 is Enabled: true Completed: false In Progress: false


    ## Message ##
        Sending a NotifyMethodStatusMessage to Agent1
        Method1 is Enabled: true Completed: false In Progress: false


    ## Message ##
        Sending a NotifyMethodStatusMessage to Agent1
        Method4 is Enabled: false Completed: false In Progress: false


    ## Message ##
        Sending a NotifyMethodStatusMessage to Agent1
        Method6 is Enabled: true Completed: false In Progress: false


    ## Message ##
        Sending a NotifyMethodStatusMessage to Agent1
        Method2 is Enabled: true Completed: false In Progress: false


    ## Message ##
        Sending a NotifyMethodStatusMessage to Agent1
        Method15 is Enabled: true Completed: false In Progress: false


    ## Message ##
        Sending a NotifyMethodStatusMessage to Agent1
        Method3 is Enabled: true Completed: false In Progress: false


    ## Message ##
        Sending a NotifyMethodStatusMessage to Agent1
        Method16 is Enabled: true Completed: false In Progress: false


    ## Message ##
        Sending a NotifyMethodStatusMessage to Agent1
        Method5 is Enabled: true Completed: false In Progress: false


    ## Message ##
        Sending a NotifyMethodStatusMessage to Agent1
        Method23 is Enabled: true Completed: false In Progress: false


    ## Message ##
        Sending a NotifyMethodStatusMessage to Agent1
        Method7 is Enabled: true Completed: false In Progress: false


    ## Message ##
        Sending a NotifyMethodStatusMessage to Agent1
        Method8 is Enabled: true Completed: false In Progress: false


    ## Message ##
        Sending a NotifyMethodStatusMessage to Agent1
        Method9 is Enabled: true Completed: false In Progress: false


    ## Message ##
        Sending a NotifyMethodStatusMessage to Agent1
        Method25 is Enabled: false Completed: false In Progress: false


    ## Message ##
        Sending a NotifyMethodStatusMessage to Agent1
        Method10 is Enabled: true Completed: false In Progress: false


    ## Message ##
        Sending a NotifyMethodStatusMessage to Agent1
        Method18 is Enabled: true Completed: false In Progress: false


    ## Message ##
        Sending a NotifyMethodStatusMessage to Agent1
        Method11 is Enabled: false Completed: false In Progress: false


    ## Message ##
        Sending a NotifyMethodStatusMessage to Agent1
        Method27 is Enabled: true Completed: false In Progress: false


    ## Message ##
        Sending a NotifyMethodStatusMessage to Agent1
        Method12 is Enabled: true Completed: false In Progress: false


    ## Message ##
        Sending a NotifyMethodStatusMessage to Agent1
        Method28 is Enabled: true Completed: false In Progress: false


    ## Message ##
        Sending a NotifyMethodStatusMessage to Agent1
        Method13 is Enabled: true Completed: false In Progress: false


    ## Message ##
        Sending a NotifyMethodStatusMessage to Agent1
        Method30 is Enabled: true Completed: false In Progress: false


    ## Message ##
        Sending a NotifyMethodStatusMessage to Agent1
        Method14 is Enabled: true Completed: false In Progress: false


    ## Message ##
        Sending a NotifyMethodStatusMessage to Agent1
        Method29 is Enabled: true Completed: false In Progress: false


    ## Message ##
        Sending a NotifyMethodStatusMessage to Agent1
        Method17 is Enabled: true Completed: false In Progress: false


    ## Message ##
        Sending a NotifyMethodStatusMessage to Agent1
        Method19 is Enabled: false Completed: false In Progress: false


    ## Message ##
        Sending a NotifyMethodStatusMessage to Agent1
        Method22 is Enabled: true Completed: false In Progress: false


    ## Message ##
        Sending a NotifyMethodStatusMessage to Agent1
        Method20 is Enabled: true Completed: false In Progress: false


    ## Message ##
        Sending a NotifyMethodStatusMessage to Agent1
        Method21 is Enabled: true Completed: false In Progress: false


    ## Message ##
        Sending a NotifyMethodStatusMessage to Agent1
        Method24 is Enabled: true Completed: false In Progress: false


    ## Message ##
        Sending a NotifyMethodStatusMessage to Agent1
        Method26 is Enabled: true Completed: false In Progress: false


    ## Message ##
        Sending a NextTickMessage to Agent1
        Tick 30 has occurred


    ## Message ##
        Sending a NextTickMessage to Agent1
        Tick 31 has occurred


    ## Message ##
        Sending a NextTickMessage to Agent1
        Tick 32 has occurred


    ## Message ##
        Sending a NextTickMessage to Agent1
        Tick 33 has occurred


    ## Message ##
        Sending a NextTickMessage to Agent1
        Tick 34 has occurred


    ## Message ##
        Sending a NextTickMessage to Agent1
        Tick 35 has occurred


    ## Message ##
        Sending a NextTickMessage to Agent1
        Tick 36 has occurred


    ## Message ##
        Sending a NextTickMessage to Agent1
        Tick 37 has occurred


    ## Message ##
        Sending a NextTickMessage to Agent1
        Tick 38 has occurred


    ## Message ##
        Sending a NextTickMessage to Agent1
        Tick 39 has occurred


    ## Message ##
        Sending a NextTickMessage to Agent1
        Tick 40 has occurred


    ## Message ##
        Sending a NextTickMessage to Agent1
        Tick 41 has occurred


    ## Message ##
        Sending a NextTickMessage to Agent1
        Tick 42 has occurred


    ## Message ##
        Sending a NextTickMessage to Agent1
        Tick 43 has occurred


    ## Message ##
        Sending a NextTickMessage to Agent1
        Tick 44 has occurred


    ## Message ##
        Sending a NextTickMessage to Agent1
        Tick 45 has occurred


    ## Message ##
        Sending a NextTickMessage to Agent1
        Tick 46 has occurred


    ## Message ##
        Sending a NextTickMessage to Agent1
        Tick 47 has occurred


    ## Message ##
        Sending a NextTickMessage to Agent1
        Tick 48 has occurred


    ## Message ##
        Sending a NextTickMessage to Agent1
        Tick 49 has occurred


    ## Message ##
        Sending a NextTickMessage to Agent1
        Tick 50 has occurred


    ## Message ##
        Sending a NextTickMessage to Agent1
        Tick 51 has occurred


    ## Message ##
        Sending a NextTickMessage to Agent1
        Tick 52 has occurred


    ## Message ##
        Sending a NextTickMessage to Agent1
        Tick 53 has occurred


    ## Message ##
        Sending a NextTickMessage to Agent1
        Tick 54 has occurred


    ## Message ##
        Sending a NextTickMessage to Agent1
        Tick 55 has occurred


    ## Message ##
        Sending a NextTickMessage to Agent1
        Tick 56 has occurred


    ## Message ##
        Sending a NextTickMessage to Agent1
        Tick 57 has occurred


    ## Message ##
        Sending a NextTickMessage to Agent1
        Tick 58 has occurred


    ## Message ##
        Sending a NextTickMessage to Agent1
        Tick 59 has occurred


    ## Message ##
        Sending a NextTickMessage to Agent1
        Tick 60 has occurred


    ## Message ##
        Sending a NextTickMessage to Agent1
        Tick 61 has occurred


    ## Message ##
        Sending a NextTickMessage to Agent1
        Tick 62 has occurred


    ## Message ##
        Sending a NextTickMessage to Agent1
        Tick 63 has occurred


    ## Message ##
        Sending a NextTickMessage to Agent1
        Tick 64 has occurred


    ## Message ##
        Sending a NextTickMessage to Agent1
        Tick 65 has occurred


    ## Message ##
        Sending a NextTickMessage to Agent1
        Tick 66 has occurred


    ## Message ##
        Sending a NextTickMessage to Agent1
        Tick 67 has occurred


    ## Message ##
        Sending a NextTickMessage to Agent1
        Tick 68 has occurred


    ## Message ##
        Sending a NextTickMessage to Agent1
        Tick 69 has occurred


    ## Message ##
        Sending a NextTickMessage to Agent1
        Tick 70 has occurred


    ## Message ##
        Sending a NextTickMessage to Agent1
        Tick 71 has occurred


    ## Message ##
        Sending a NextTickMessage to Agent1
        Tick 72 has occurred


    ## Message ##
        Sending a NextTickMessage to Agent1
        Tick 73 has occurred


    ## Message ##
        Sending a NextTickMessage to Agent1
        Tick 74 has occurred


    ## Message ##
        Sending a NextTickMessage to Agent1
        Tick 75 has occurred


    ## Message ##
        Sending a NextTickMessage to Agent1
        Tick 76 has occurred


    ## Message ##
        Sending a NextTickMessage to Agent1
        Tick 77 has occurred


    ## Message ##
        Sending a NextTickMessage to Agent1
        Tick 78 has occurred


    ## Message ##
        Sending a NextTickMessage to Agent1
        Tick 79 has occurred


    ## Message ##
        Sending a NextTickMessage to Agent1
        Tick 80 has occurred


    ## Message ##
        Sending a NextTickMessage to Agent1
        Tick 81 has occurred


    ## Message ##
        Sending a NextTickMessage to Agent1
        Tick 82 has occurred


    ## Message ##
        Sending a NextTickMessage to Agent1
        Tick 83 has occurred


    ## Message ##
        Sending a NextTickMessage to Agent1
        Tick 84 has occurred


    ## Message ##
        Sending a NextTickMessage to Agent1
        Tick 85 has occurred


    ## Message ##
        Sending a NextTickMessage to Agent1
        Tick 86 has occurred


    ## Message ##
        Sending a NextTickMessage to Agent1
        Tick 87 has occurred


    ## Message ##
        Sending a NextTickMessage to Agent1
        Tick 88 has occurred


    ## Message ##
        Sending a NextTickMessage to Agent1
        Tick 89 has occurred


    ## Message ##
        Sending a NextTickMessage to Agent1
        Tick 90 has occurred


    ## Message ##
        Sending a NextTickMessage to Agent1
        Tick 91 has occurred


    ## Message ##
        Sending a NextTickMessage to Agent1
        Tick 92 has occurred


    ## Message ##
        Sending a NextTickMessage to Agent1
        Tick 93 has occurred


    ## Message ##
        Sending a NextTickMessage to Agent1
        Tick 94 has occurred


    ## Message ##
        Sending a NextTickMessage to Agent1
        Tick 95 has occurred


    ## Message ##
        Sending a NextTickMessage to Agent1
        Tick 96 has occurred


    ## Message ##
        Sending a NextTickMessage to Agent1
        Tick 97 has occurred


    ## Message ##
        Sending a NextTickMessage to Agent1
        Tick 98 has occurred


    ## Message ##
        Sending a NextTickMessage to Agent1
        Tick 99 has occurred


    ## Message ##
        Sending a NextTickMessage to Agent1
        Tick 100 has occurred


    ## Message ##
        Sending a NextTickMessage to Agent1
        Tick 101 has occurred


    ## Message ##
        Sending a NextTickMessage to Agent1
        Tick 102 has occurred


    ## Message ##
        Sending a NextTickMessage to Agent1
        Tick 103 has occurred


    ## Message ##
        Sending a NextTickMessage to Agent1
        Tick 104 has occurred


    ## Message ##
        Sending a NextTickMessage to Agent1
        Tick 105 has occurred


    ## Message ##
        Sending a NextTickMessage to Agent1
        Tick 106 has occurred


    ## Message ##
        Sending a NextTickMessage to Agent1
        Tick 107 has occurred


    ## Message ##
        Sending a NextTickMessage to Agent1
        Tick 108 has occurred


    ## Message ##
        Sending a NextTickMessage to Agent1
        Tick 109 has occurred


    ## Message ##
        Sending a NextTickMessage to Agent1
        Tick 110 has occurred


    ## Message ##
        Sending a NextTickMessage to Agent1
        Tick 111 has occurred


    ## Message ##
        Sending a NextTickMessage to Agent1
        Tick 112 has occurred


    ## Message ##
        Sending a NextTickMessage to Agent1
        Tick 113 has occurred


    ## Message ##
        Sending a NextTickMessage to Agent1
        Tick 114 has occurred


    ## Message ##
        Sending a NextTickMessage to Agent1
        Tick 115 has occurred


    ## Message ##
        Sending a NextTickMessage to Agent1
        Tick 116 has occurred


    ## Message ##
        Sending a NextTickMessage to Agent1
        Tick 117 has occurred


    ## Message ##
        Sending a NextTickMessage to Agent1
        Tick 118 has occurred


    ## Message ##
        Sending a NextTickMessage to Agent1
        Tick 119 has occurred


    ## Message ##
        Sending a NextTickMessage to Agent1
        Tick 120 has occurred


    ## Message ##
        Sending a NextTickMessage to Agent1
        Tick 121 has occurred


    ## Message ##
        Sending a NextTickMessage to Agent1
        Tick 122 has occurred


    ## Message ##
        Sending a NextTickMessage to Agent1
        Tick 123 has occurred


    ## Message ##
        Sending a NextTickMessage to Agent1
        Tick 124 has occurred


    ## Message ##
        Sending a NextTickMessage to Agent1
        Tick 125 has occurred


    ## Message ##
        Sending a NextTickMessage to Agent1
        Tick 126 has occurred


    ## Message ##
        Sending a NextTickMessage to Agent1
        Tick 127 has occurred


    ## Message ##
        Sending a NextTickMessage to Agent1
        Tick 128 has occurred


    ## Message ##
        Sending a NextTickMessage to Agent1
        Tick 129 has occurred


    ## Message ##
        Sending a NextTickMessage to Agent1
        Tick 130 has occurred


    ## Message ##
        Sending a NextTickMessage to Agent1
        Tick 131 has occurred


    ## Message ##
        Sending a NextTickMessage to Agent1
        Tick 132 has occurred


    ## Message ##
        Sending a NextTickMessage to Agent1
        Tick 133 has occurred


    ## Message ##
        Sending a NextTickMessage to Agent1
        Tick 134 has occurred


    ## Message ##
        Sending a NextTickMessage to Agent1
        Tick 135 has occurred


    ## Message ##
        Sending a NextTickMessage to Agent1
        Tick 136 has occurred


    ## Message ##
        Sending a NextTickMessage to Agent1
        Tick 137 has occurred


    ## Message ##
        Sending a NextTickMessage to Agent1
        Tick 138 has occurred


    ## Message ##
        Sending a NextTickMessage to Agent1
        Tick 139 has occurred


    ## Message ##
        Sending a NextTickMessage to Agent1
        Tick 140 has occurred


    ## Message ##
        Sending a NextTickMessage to Agent1
        Tick 141 has occurred


    ## Message ##
        Sending a NextTickMessage to Agent1
        Tick 142 has occurred


    ## Message ##
        Sending a NextTickMessage to Agent1
        Tick 143 has occurred


    ## Message ##
        Sending a NextTickMessage to Agent1
        Tick 144 has occurred


    ## Message ##
        Sending a NextTickMessage to Agent1
        Tick 145 has occurred


    ## Message ##
        Sending a NextTickMessage to Agent1
        Tick 146 has occurred


    ## Message ##
        Sending a NextTickMessage to Agent1
        Tick 147 has occurred


    ## Message ##
        Sending a NextTickMessage to Agent1
        Tick 148 has occurred


    ## Message ##
        Sending a NextTickMessage to Agent1
        Tick 149 has occurred


    ## Message ##
        Sending a NextTickMessage to Agent1
        Tick 150 has occurred


    ## Message ##
        Sending a NextTickMessage to Agent1
        Tick 151 has occurred


    ## Message ##
        Sending a NextTickMessage to Agent1
        Tick 152 has occurred


    ## Message ##
        Sending a NextTickMessage to Agent1
        Tick 153 has occurred


    ## Message ##
        Sending a NextTickMessage to Agent1
        Tick 154 has occurred


    ## Message ##
        Sending a NextTickMessage to Agent1
        Tick 155 has occurred


    ## Message ##
        Sending a NextTickMessage to Agent1
        Tick 156 has occurred


    ## Message ##
        Sending a NextTickMessage to Agent1
        Tick 157 has occurred


    ## Message ##
        Sending a NextTickMessage to Agent1
        Tick 158 has occurred


    ## Message ##
        Sending a NextTickMessage to Agent1
        Tick 159 has occurred


    ## Message ##
        Sending a NextTickMessage to Agent1
        Tick 160 has occurred


    ## Message ##
        Sending a NextTickMessage to Agent1
        Tick 161 has occurred


    ## Message ##
        Sending a NextTickMessage to Agent1
        Tick 162 has occurred


    ## Message ##
        Sending a NextTickMessage to Agent1
        Tick 163 has occurred


    ## Message ##
        Sending a NextTickMessage to Agent1
        Tick 164 has occurred


    ## Message ##
        Sending a NextTickMessage to Agent1
        Tick 165 has occurred


    ## Message ##
        Sending a NextTickMessage to Agent1
        Tick 166 has occurred


    ## Message ##
        Sending a NextTickMessage to Agent1
        Tick 167 has occurred


    ## Message ##
        Sending a NextTickMessage to Agent1
        Tick 168 has occurred


    ## Message ##
        Sending a NextTickMessage to Agent1
        Tick 169 has occurred


    ## Message ##
        Sending a NextTickMessage to Agent1
        Tick 170 has occurred


    ## Message ##
        Sending a NextTickMessage to Agent1
        Tick 171 has occurred


    ## Message ##
        Sending a NextTickMessage to Agent1
        Tick 172 has occurred


    ## Message ##
        Sending a NextTickMessage to Agent1
        Tick 173 has occurred


    ## Message ##
        Sending a NextTickMessage to Agent1
        Tick 174 has occurred


    ## Message ##
        Sending a NextTickMessage to Agent1
        Tick 175 has occurred


    ## Message ##
        Sending a NextTickMessage to Agent1
        Tick 176 has occurred


    ## Message ##
        Sending a NextTickMessage to Agent1
        Tick 177 has occurred


    ## Message ##
        Sending a NextTickMessage to Agent1
        Tick 178 has occurred


    ## Message ##
        Sending a NextTickMessage to Agent1
        Tick 179 has occurred


    ## Message ##
        Sending a NextTickMessage to Agent1
        Tick 180 has occurred


    ## Message ##
        Sending a NextTickMessage to Agent1
        Tick 181 has occurred


    ## Message ##
        Sending a NextTickMessage to Agent1
        Tick 182 has occurred


    ## Message ##
        Sending a NextTickMessage to Agent1
        Tick 183 has occurred


    ## Message ##
        Sending a NextTickMessage to Agent1
        Tick 184 has occurred


    ## Message ##
        Sending a NextTickMessage to Agent1
        Tick 185 has occurred


    ## Message ##
        Sending a NextTickMessage to Agent1
        Tick 186 has occurred


    ## Message ##
        Sending a NextTickMessage to Agent1
        Tick 187 has occurred


    ## Message ##
        Sending a NextTickMessage to Agent1
        Tick 188 has occurred


    ## Message ##
        Sending a NextTickMessage to Agent1
        Tick 189 has occurred


    ## Message ##
        Sending a NextTickMessage to Agent1
        Tick 190 has occurred


    ## Message ##
        Sending a NextTickMessage to Agent1
        Tick 191 has occurred


    ## Message ##
        Sending a NextTickMessage to Agent1
        Tick 192 has occurred


    ## Message ##
        Sending a NextTickMessage to Agent1
        Tick 193 has occurred


    ## Message ##
        Sending a NextTickMessage to Agent1
        Tick 194 has occurred


    ## Message ##
        Sending a NextTickMessage to Agent1
        Tick 195 has occurred


    ## Message ##
        Sending a NextTickMessage to Agent1
        Tick 196 has occurred


    ## Message ##
        Sending a NextTickMessage to Agent1
        Tick 197 has occurred


    ## Message ##
        Sending a NextTickMessage to Agent1
        Tick 198 has occurred


    ## Message ##
        Sending a NextTickMessage to Agent1
        Tick 199 has occurred


    ## Message ##
        Sending a NextTickMessage to Agent1
        Tick 200 has occurred


    ## Message ##
        Sending a NextTickMessage to Agent1
        Tick 201 has occurred


    ## Message ##
        Sending a NextTickMessage to Agent1
        Tick 202 has occurred


    ## Message ##
        Sending a NextTickMessage to Agent1
        Tick 203 has occurred


    ## Message ##
        Sending a NextTickMessage to Agent1
        Tick 204 has occurred


    ## Message ##
        Sending a NextTickMessage to Agent1
        Tick 205 has occurred


    ## Message ##
        Sending a NextTickMessage to Agent1
        Tick 206 has occurred


    ## Message ##
        Sending a NextTickMessage to Agent1
        Tick 207 has occurred


    ## Message ##
        Sending a NextTickMessage to Agent1
        Tick 208 has occurred


    ## Message ##
        Sending a NextTickMessage to Agent1
        Tick 209 has occurred


    ## Message ##
        Sending a NextTickMessage to Agent1
        Tick 210 has occurred


    ## Message ##
        Sending a NextTickMessage to Agent1
        Tick 211 has occurred


    ## Message ##
        Sending a NextTickMessage to Agent1
        Tick 212 has occurred


    ## Message ##
        Sending a NextTickMessage to Agent1
        Tick 213 has occurred


    ## Message ##
        Sending a NextTickMessage to Agent1
        Tick 214 has occurred


    ## Message ##
        Sending a NextTickMessage to Agent1
        Tick 215 has occurred


    ## Message ##
        Sending a NextTickMessage to Agent1
        Tick 216 has occurred


    ## Message ##
        Sending a NextTickMessage to Agent1
        Tick 217 has occurred


    ## Message ##
        Sending a NextTickMessage to Agent1
        Tick 218 has occurred


    ## Message ##
        Sending a NextTickMessage to Agent1
        Tick 219 has occurred


    ## Message ##
        Sending a NextTickMessage to Agent1
        Tick 220 has occurred


    ## Message ##
        Sending a NextTickMessage to Agent1
        Tick 221 has occurred


    ## Message ##
        Sending a NextTickMessage to Agent1
        Tick 222 has occurred


    ## Message ##
        Sending a NextTickMessage to Agent1
        Tick 223 has occurred


    ## Message ##
        Sending a NextTickMessage to Agent1
        Tick 224 has occurred


    ## Message ##
        Sending a NextTickMessage to Agent1
        Tick 225 has occurred


    ## Message ##
        Sending a NextTickMessage to Agent1
        Tick 226 has occurred


    ## Message ##
        Sending a NextTickMessage to Agent1
        Tick 227 has occurred


    ## Message ##
        Sending a NextTickMessage to Agent1
        Tick 228 has occurred


    ## Message ##
        Sending a NextTickMessage to Agent1
        Tick 229 has occurred


    ## Message ##
        Sending a NextTickMessage to Agent1
        Tick 230 has occurred


    ## Message ##
        Sending a NextTickMessage to Agent1
        Tick 231 has occurred


    ## Message ##
        Sending a NextTickMessage to Agent1
        Tick 232 has occurred


    ## Message ##
        Sending a NextTickMessage to Agent1
        Tick 233 has occurred


    ## Message ##
        Sending a NextTickMessage to Agent1
        Tick 234 has occurred


    ## Message ##
        Sending a NextTickMessage to Agent1
        Tick 235 has occurred


    ## Message ##
        Sending a NextTickMessage to Agent1
        Tick 236 has occurred


    ## Message ##
        Sending a NextTickMessage to Agent1
        Tick 237 has occurred


    ## Message ##
        Sending a NextTickMessage to Agent1
        Tick 238 has occurred


    ## Message ##
        Sending a NextTickMessage to Agent1
        Tick 239 has occurred


    ## Message ##
        Sending a NextTickMessage to Agent1
        Tick 240 has occurred


    ## Message ##
        Sending a NextTickMessage to Agent1
        Tick 241 has occurred


    ## Message ##
        Sending a NextTickMessage to Agent1
        Tick 242 has occurred


    ## Message ##
        Sending a NextTickMessage to Agent1
        Tick 243 has occurred


    ## Message ##
        Sending a NextTickMessage to Agent1
        Tick 244 has occurred


    ## Message ##
        Sending a NextTickMessage to Agent1
        Tick 245 has occurred


    ## Message ##
        Sending a NextTickMessage to Agent1
        Tick 246 has occurred


    ## Message ##
        Sending a NextTickMessage to Agent1
        Tick 247 has occurred


    ## Message ##
        Sending a NextTickMessage to Agent1
        Tick 248 has occurred


    ## Message ##
        Sending a NextTickMessage to Agent1
        Tick 249 has occurred


    ## Message ##
        Sending a NextTickMessage to Agent1
        Tick 250 has occurred


    ## Message ##
        Sending a NextTickMessage to Agent1
        Tick 251 has occurred


    ## Message ##
        Sending a NextTickMessage to Agent1
        Tick 252 has occurred


    ## Message ##
        Sending a NextTickMessage to Agent1
        Tick 253 has occurred


    ## Message ##
        Sending a NextTickMessage to Agent1
        Tick 254 has occurred


    ## Message ##
        Sending a NextTickMessage to Agent1
        Tick 255 has occurred


    ## Message ##
        Sending a NextTickMessage to Agent1
        Tick 256 has occurred


    ## Message ##
        Sending a NextTickMessage to Agent1
        Tick 257 has occurred


    ## Message ##
        Sending a NextTickMessage to Agent1
        Tick 258 has occurred


    ## Message ##
        Sending a NextTickMessage to Agent1
        Tick 259 has occurred


    ## Message ##
        Sending a NextTickMessage to Agent1
        Tick 260 has occurred


    ## Message ##
        Sending a NextTickMessage to Agent1
        Tick 261 has occurred


    ## Message ##
        Sending a NextTickMessage to Agent1
        Tick 262 has occurred


    ## Message ##
        Sending a NextTickMessage to Agent1
        Tick 263 has occurred


    ## Message ##
        Sending a NextTickMessage to Agent1
        Tick 264 has occurred


    ## Message ##
        Sending a NextTickMessage to Agent1
        Tick 265 has occurred


    ## Message ##
        Sending a NextTickMessage to Agent1
        Tick 266 has occurred


    ## Message ##
        Sending a NextTickMessage to Agent1
        Tick 267 has occurred


    ## Message ##
        Sending a NextTickMessage to Agent1
        Tick 268 has occurred


    ## Message ##
        Sending a NextTickMessage to Agent1
        Tick 269 has occurred


    ## Message ##
        Sending a NextTickMessage to Agent1
        Tick 270 has occurred


    ## Message ##
        Sending a NextTickMessage to Agent1
        Tick 271 has occurred


    ## Message ##
        Sending a NextTickMessage to Agent1
        Tick 272 has occurred


    ## Message ##
        Sending a NextTickMessage to Agent1
        Tick 273 has occurred


    ## Message ##
        Sending a NextTickMessage to Agent1
        Tick 274 has occurred


    ## Message ##
        Sending a NextTickMessage to Agent1
        Tick 275 has occurred


    ## Message ##
        Sending a NextTickMessage to Agent1
        Tick 276 has occurred


    ## Message ##
        Sending a NextTickMessage to Agent1
        Tick 277 has occurred


    ## Message ##
        Sending a NextTickMessage to Agent1
        Tick 278 has occurred


    ## Message ##
        Sending a NextTickMessage to Agent1
        Tick 279 has occurred


    ## Message ##
        Sending a NextTickMessage to Agent1
        Tick 280 has occurred


    ## Message ##
        Sending a NextTickMessage to Agent1
        Tick 281 has occurred


    ## Message ##
        Sending a NextTickMessage to Agent1
        Tick 282 has occurred


    ## Message ##
        Sending a NextTickMessage to Agent1
        Tick 283 has occurred


    ## Message ##
        Sending a NextTickMessage to Agent1
        Tick 284 has occurred


    ## Message ##
        Sending a NextTickMessage to Agent1
        Tick 285 has occurred


    ## Message ##
        Sending a NextTickMessage to Agent1
        Tick 286 has occurred


    ## Message ##
        Sending a NextTickMessage to Agent1
        Tick 287 has occurred


    ## Message ##
        Sending a NextTickMessage to Agent1
        Tick 288 has occurred


    ## Message ##
        Sending a NextTickMessage to Agent1
        Tick 289 has occurred


    ## Message ##
        Sending a NextTickMessage to Agent1
        Tick 290 has occurred


    ## Message ##
        Sending a NextTickMessage to Agent1
        Tick 291 has occurred


    ## Message ##
        Sending a NextTickMessage to Agent1
        Tick 292 has occurred


    ## Message ##
        Sending a NextTickMessage to Agent1
        Tick 293 has occurred


    ## Message ##
        Sending a NextTickMessage to Agent1
        Tick 294 has occurred


    ## Message ##
        Sending a NextTickMessage to Agent1
        Tick 295 has occurred


    ## Message ##
        Sending a NextTickMessage to Agent1
        Tick 296 has occurred


    ## Message ##
        Sending a NextTickMessage to Agent1
        Tick 297 has occurred


    ## Message ##
        Sending a NextTickMessage to Agent1
        Tick 298 has occurred


    ## Message ##
        Sending a NextTickMessage to Agent1
        Tick 299 has occurred


    ## Message ##
        Sending a NextTickMessage to Agent1
        Tick 300 has occurred


    ## Message ##
        Sending a NextTickMessage to Agent1
        Tick 301 has occurred


    ## Message ##
        Sending a NextTickMessage to Agent1
        Tick 302 has occurred


    ## Message ##
        Sending a NextTickMessage to Agent1
        Tick 303 has occurred


    ## Message ##
        Sending a NextTickMessage to Agent1
        Tick 304 has occurred


    ## Message ##
        Sending a NextTickMessage to Agent1
        Tick 305 has occurred


    ## Message ##
        Sending a NextTickMessage to Agent1
        Tick 306 has occurred


    ## Message ##
        Sending a NextTickMessage to Agent1
        Tick 307 has occurred


    ## Message ##
        Sending a NextTickMessage to Agent1
        Tick 308 has occurred


    ## Message ##
        Sending a NextTickMessage to Agent1
        Tick 309 has occurred


    ## Message ##
        Sending a NextTickMessage to Agent1
        Tick 310 has occurred


    ## Message ##
        Sending a NextTickMessage to Agent1
        Tick 311 has occurred


    ## Message ##
        Sending a NextTickMessage to Agent1
        Tick 312 has occurred


    ## Message ##
        Sending a NextTickMessage to Agent1
        Tick 313 has occurred


    ## Message ##
        Sending a NextTickMessage to Agent1
        Tick 314 has occurred


    ## Message ##
        Sending a NextTickMessage to Agent1
        Tick 315 has occurred


    ## Message ##
        Sending a NextTickMessage to Agent1
        Tick 316 has occurred


    ## Message ##
        Sending a NextTickMessage to Agent1
        Tick 317 has occurred


    ## Message ##
        Sending a NextTickMessage to Agent1
        Tick 318 has occurred


    ## Message ##
        Sending a NextTickMessage to Agent1
        Tick 319 has occurred


    ## Message ##
        Sending a NextTickMessage to Agent1
        Tick 320 has occurred


    ## Message ##
        Sending a NextTickMessage to Agent1
        Tick 321 has occurred


    ## Message ##
        Sending a NextTickMessage to Agent1
        Tick 322 has occurred


    ## Message ##
        Sending a NextTickMessage to Agent1
        Tick 323 has occurred


    ## Message ##
        Sending a NextTickMessage to Agent1
        Tick 324 has occurred


    ## Message ##
        Sending a NextTickMessage to Agent1
        Tick 325 has occurred


    ## Message ##
        Sending a NextTickMessage to Agent1
        Tick 326 has occurred


    ## Message ##
        Sending a NextTickMessage to Agent1
        Tick 327 has occurred


    ## Message ##
        Sending a NextTickMessage to Agent1
        Tick 328 has occurred


    ## Message ##
        Sending a NextTickMessage to Agent1
        Tick 329 has occurred


    ## Message ##
        Sending a NextTickMessage to Agent1
        Tick 330 has occurred


    ## Message ##
        Sending a NextTickMessage to Agent1
        Tick 331 has occurred


    ## Message ##
        Sending a NextTickMessage to Agent1
        Tick 332 has occurred


    ## Message ##
        Sending a NextTickMessage to Agent1
        Tick 333 has occurred


    ## Message ##
        Sending a NextTickMessage to Agent1
        Tick 334 has occurred


    ## Message ##
        Sending a NextTickMessage to Agent1
        Tick 335 has occurred


    ## Message ##
        Sending a NextTickMessage to Agent1
        Tick 336 has occurred


    ## Message ##
        Sending a NextTickMessage to Agent1
        Tick 337 has occurred


    ## Message ##
        Sending a NextTickMessage to Agent1
        Tick 338 has occurred


    ## Message ##
        Sending a NextTickMessage to Agent1
        Tick 339 has occurred


    ## Message ##
        Sending a NextTickMessage to Agent1
        Tick 340 has occurred


    ## Message ##
        Sending a NextTickMessage to Agent1
        Tick 341 has occurred


    ## Message ##
        Sending a NextTickMessage to Agent1
        Tick 342 has occurred


    ## Message ##
        Sending a NextTickMessage to Agent1
        Tick 343 has occurred


    ## Message ##
        Sending a NextTickMessage to Agent1
        Tick 344 has occurred


    ## Message ##
        Sending a NextTickMessage to Agent1
        Tick 345 has occurred


    ## Message ##
        Sending a NextTickMessage to Agent1
        Tick 346 has occurred


    ## Message ##
        Sending a NextTickMessage to Agent1
        Tick 347 has occurred


    ## Message ##
        Sending a NextTickMessage to Agent1
        Tick 348 has occurred


    ## Message ##
        Sending a NextTickMessage to Agent1
        Tick 349 has occurred


    ## Message ##
        Sending a NextTickMessage to Agent1
        Tick 350 has occurred


    ## Message ##
        Sending a NextTickMessage to Agent1
        Tick 351 has occurred


    ## Message ##
        Sending a NextTickMessage to Agent1
        Tick 352 has occurred


    ## Message ##
        Sending a NextTickMessage to Agent1
        Tick 353 has occurred


    ## Message ##
        Sending a NextTickMessage to Agent1
        Tick 354 has occurred


    ## Message ##
        Sending a NextTickMessage to Agent1
        Tick 355 has occurred


    ## Message ##
        Sending a NextTickMessage to Agent1
        Tick 356 has occurred


    ## Message ##
        Sending a NextTickMessage to Agent1
        Tick 357 has occurred


    ## Message ##
        Sending a NextTickMessage to Agent1
        Tick 358 has occurred


    ## Message ##
        Sending a NextTickMessage to Agent1
        Tick 359 has occurred


    ## Message ##
        Sending a NextTickMessage to Agent1
        Tick 360 has occurred


    ## Message ##
        Sending a NextTickMessage to Agent1
        Tick 361 has occurred


    ## Message ##
        Sending a NextTickMessage to Agent1
        Tick 362 has occurred


    ## Message ##
        Sending a NextTickMessage to Agent1
        Tick 363 has occurred


    ## Message ##
        Sending a NextTickMessage to Agent1
        Tick 364 has occurred


    ## Message ##
        Sending a NextTickMessage to Agent1
        Tick 365 has occurred


    ## Message ##
        Sending a NextTickMessage to Agent1
        Tick 366 has occurred


    ## Message ##
        Sending a NextTickMessage to Agent1
        Tick 367 has occurred


    ## Message ##
        Sending a NextTickMessage to Agent1
        Tick 368 has occurred


    ## Message ##
        Sending a NextTickMessage to Agent1
        Tick 369 has occurred


    ## Message ##
        Sending a NextTickMessage to Agent1
        Tick 370 has occurred


    ## Message ##
        Sending a NextTickMessage to Agent1
        Tick 371 has occurred


    ## Message ##
        Sending a NextTickMessage to Agent1
        Tick 372 has occurred


    ## Message ##
        Sending a NextTickMessage to Agent1
        Tick 373 has occurred


    ## Message ##
        Sending a NextTickMessage to Agent1
        Tick 374 has occurred


    ## Message ##
        Sending a NextTickMessage to Agent1
        Tick 375 has occurred


    ## Message ##
        Sending a NextTickMessage to Agent1
        Tick 376 has occurred


    ## Message ##
        Sending a NextTickMessage to Agent1
        Tick 377 has occurred


    ## Message ##
        Sending a NextTickMessage to Agent1
        Tick 378 has occurred


    ## Message ##
        Sending a NextTickMessage to Agent1
        Tick 379 has occurred


    ## Message ##
        Sending a NextTickMessage to Agent1
        Tick 380 has occurred


    ## Message ##
        Sending a NextTickMessage to Agent1
        Tick 381 has occurred


    ## Message ##
        Sending a NextTickMessage to Agent1
        Tick 382 has occurred


    ## Message ##
        Sending a NextTickMessage to Agent1
        Tick 383 has occurred


    ## Message ##
        Sending a NextTickMessage to Agent1
        Tick 384 has occurred


    ## Message ##
        Sending a NextTickMessage to Agent1
        Tick 385 has occurred


    ## Message ##
        Sending a NextTickMessage to Agent1
        Tick 386 has occurred


    ## Message ##
        Sending a NextTickMessage to Agent1
        Tick 387 has occurred


    ## Message ##
        Sending a NextTickMessage to Agent1
        Tick 388 has occurred


    ## Message ##
        Sending a NextTickMessage to Agent1
        Tick 389 has occurred


    ## Message ##
        Sending a NextTickMessage to Agent1
        Tick 390 has occurred


    ## Message ##
        Sending a NextTickMessage to Agent1
        Tick 391 has occurred


    ## Message ##
        Sending a NextTickMessage to Agent1
        Tick 392 has occurred


    ## Message ##
        Sending a NextTickMessage to Agent1
        Tick 393 has occurred


    ## Message ##
        Sending a NextTickMessage to Agent1
        Tick 394 has occurred


    ## Message ##
        Sending a NextTickMessage to Agent1
        Tick 395 has occurred


    ## Message ##
        Sending a NextTickMessage to Agent1
        Tick 396 has occurred


    ## Message ##
        Sending a NextTickMessage to Agent1
        Tick 397 has occurred


    ## Message ##
        Sending a NextTickMessage to Agent1
        Tick 398 has occurred


    ## Message ##
        Sending a NextTickMessage to Agent1
        Tick 399 has occurred


    ## Message ##
        Sending a NextTickMessage to Agent1
        Tick 400 has occurred


    ## Message ##
        Sending a EndSimulationMessage to Agent1
        The Simulation is Over


    ## Agent ##
        Name Agent1
        Sent: 3270
        Received: 14361
        Completed: Method14, Method21, Method20, Method28, Method5, Method30, Method2, Method18, Method29, Method10, Method17, Method8, Method16, Method9, Method6, Method27, Method15, Method1, Method24, Method26, Method23, Method7, Method12, Method13, Method11, Method22, Method25, Method12, Method6, Method20, Method23, Method16, Method13, Method26, Method29, Method21, Method8, Method22, Method27, Method28, Method10, Method21, Method18, Method13, Method9, Method5, Method2, Method30, Method23, Method8, Method26, Method22, Method7, Method14, Method24, Method12, Method1, Method29, Method3, Method15, Method25, Method6, Method17, Method19, Method27, Method16, Method20, Method28, Method5, Method16, Method13, Method14, Method12, Method1, Method20, Method6, Method9, Method17, Method8, Method7, Method26, Method23, Method18, Method10, Method22, Method24, Method29, Method30, Method4, Method2, Method15, Method27, Method21, Method25, Method7, Method17, Method10, Method9, Method1, Method15, Method3, Method26, Method22, Method14, Method27, Method18, Method4, Method28, Method29, Method24, Method16, Method2, Method25, Method5, Method12, Method20, Method30, Method21, Method23, Method13, Method19, Method8, Method12, Method30, Method10, Method20, Method13, Method17, Method1, Method27, Method11, Method26, Method9, Method2, Method5, Method15, Method23, Method18, Method29, Method7, Method3, Method16, Method6, Method24, Method21, Method28, Method8, Method25, Method22, Method29, Method6, Method24, Method15, Method17, Method22, Method30, Method7, Method5, Method21, Method1, Method8, Method9, Method20, Method16, Method19, Method26, Method12, Method23, Method13, Method10, Method2, Method27, Method4, Method18, Method28, Method27, Method3, Method2, Method16, Method18, Method20, Method22, Method17, Method8, Method23, Method10, Method5, Method24, Method12, Method14, Method6, Method21, Method11, Method7, Method13, Method29, Method30, Method15, Method26, Method9, Method28, Method1, Method10, Method2, Method27, Method5, Method30, Method8, Method24, Method6, Method20, Method18, Method16, Method7, Method13, Method28, Method23, Method22, Method12, Method15, Method9, Method26, Method14, Method29, Method19, Method1, Method21, Method17, Method15, Method1, Method10, Method21, Method4, Method18, Method20, Method14, Method16, Method24, Method17, Method13, Method2, Method26, Method9, Method12, Method23, Method22, Method27, Method5, Method28, Method8, Method29, Method7, Method11, Method30, Method25, Method16, Method9, Method14, Method12, Method30, Method27, Method22, Method18, Method24, Method20, Method2, Method21, Method15, Method8, Method28, Method1, Method29, Method19, Method6, Method23, Method17, Method11, Method10, Method26, Method7, Method13, Method4, Method25, Method5, Method13, Method18, Method2, Method20, Method29, Method16, Method12, Method21, Method15, Method9, Method5, Method23, Method26, Method30, Method28, Method17, Method7, Method27, Method8, Method6, Method1, Method24, Method22, Method25, Method10, Method6, Method15, Method13, Method2, Method17, Method23, Method8, Method5, Method1, Method18, Method29, Method30, Method16, Method24, Method4, Method21, Method10, Method22, Method26, Method20, Method27, Method9, Method7, Method28, Method12, Method13, Method14, Method20, Method24, Method2, Method26, Method29, Method30, Method7, Method3, Method21, Method15, Method17, Method16, Method23, Method5, Method10, Method28, Method1, Method4, Method18, Method9, Method22, Method8, Method27, Method12, Method5, Method14, Method15, Method9, Method20, Method22, Method2, Method3, Method10, Method12, Method6, Method30, Method13, Method18, Method29, Method23, Method16, Method26, Method28, Method21, Method1, Method7, Method24, Method17, Method27, Method8, Method19, Method25, Method27, Method3, Method10, Method24, Method11, Method1, Method23, Method30, Method7, Method8, Method28, Method21, Method20, Method5, Method17, Method14, Method16, Method9, Method29, Method6, Method18, Method2, Method22, Method4, Method12, Method13, Method15, Method26, Method6, Method14, Method28, Method13, Method17, Method8, Method20, Method5, Method18, Method7, Method27, Method24, Method26, Method10, Method29, Method1, Method15, Method22, Method9, Method12, Method2, Method21, Method3, Method30, Method16, Method25, Method23, Method15, Method24, Method22, Method6, Method30, Method13, Method26, Method10, Method23, Method12, Method2, Method27, Method3, Method20, Method1, Method7, Method11, Method19, Method8, Method5, Method21, Method18, Method9, Method25