####### Ordered Logger #######


Final Duration: 800.0
Final Quality: 0.0
Seed: 8770756249

##### Method Results #####


    ## Method ##
        Name: Method30
        Completed By : Agent1
        With Quality : 1.0
        With Duration: 2
        End Time: 38


    ## Method ##
        Name: Method15
        Completed By : Agent1
        With Quality : 3.0
        With Duration: 2
        End Time: 42


    ## Method ##
        Name: Method6
        Completed By : Agent1
        With Quality : 11.0
        With Duration: 9
        End Time: 53


    ## Method ##
        Name: Method20
        Completed By : Agent1
        With Quality : 9.0
        With Duration: 7
        End Time: 63


    ## Method ##
        Name: Method17
        Completed By : Agent1
        With Quality : 3.0
        With Duration: 8
        End Time: 78


    ## Method ##
        Name: Method5
        Completed By : Agent1
        With Quality : 20.0
        With Duration: 5
        End Time: 85


    ## Method ##
        Name: Method2
        Completed By : Agent1
        With Quality : 17.0
        With Duration: 7
        End Time: 98


    ## Method ##
        Name: Method26
        Completed By : Agent1
        With Quality : 4.0
        With Duration: 4
        End Time: 108


    ## Method ##
        Name: Method16
        Completed By : Agent1
        With Quality : 7.0
        With Duration: 5
        End Time: 115


    ## Method ##
        Name: Method8
        Completed By : Agent1
        With Quality : 26.0
        With Duration: 14
        End Time: 133


    ## Method ##
        Name: Method27
        Completed By : Agent1
        With Quality : 18.0
        With Duration: 15
        End Time: 150


    ## Method ##
        Name: Method28
        Completed By : Agent1
        With Quality : 27.0
        With Duration: 2
        End Time: 160


    ## Method ##
        Name: Method12
        Completed By : Agent1
        With Quality : 5.0
        With Duration: 10
        End Time: 175


    ## Method ##
        Name: Method10
        Completed By : Agent1
        With Quality : 23.0
        With Duration: 11
        End Time: 188


    ## Method ##
        Name: Method24
        Completed By : Agent1
        With Quality : 14.0
        With Duration: 1
        End Time: 191


    ## Method ##
        Name: Method18
        Completed By : Agent1
        With Quality : 26.0
        With Duration: 9
        End Time: 202


    ## Method ##
        Name: Method29
        Completed By : Agent1
        With Quality : 6.0
        With Duration: 5
        End Time: 209


    ## Method ##
        Name: Method1
        Completed By : Agent1
        With Quality : 27.0
        With Duration: 1
        End Time: 214


    ## Method ##
        Name: Method22
        Completed By : Agent1
        With Quality : 31.0
        With Duration: 5
        End Time: 221


    ## Method ##
        Name: Method21
        Completed By : Agent1
        With Quality : 16.0
        With Duration: 18
        End Time: 241


    ## Method ##
        Name: Method7
        Completed By : Agent1
        With Quality : 18.0
        With Duration: 6
        End Time: 251


    ## Method ##
        Name: Method13
        Completed By : Agent1
        With Quality : 33.0
        With Duration: 12
        End Time: 265


    ## Method ##
        Name: Method9
        Completed By : Agent1
        With Quality : 4.0
        With Duration: 6
        End Time: 273


    ## Method ##
        Name: Method23
        Completed By : Agent1
        With Quality : 0.5454545454545454
        With Duration: 8
        End Time: 283

##### Relationship Results #####


    ## Relationship ##
        Name: facilitates3
        Type: Facilitates
        Source : Method13
        Target : Method30


    ## Relationship ##
        Name: hinders1
        Type: Hinders
        Source : Method2
        Target : Method15


    ## Relationship ##
        Name: disables1
        Type: Disables
        Source : Method4
        Target : Method6


    ## Relationship ##
        Name: hinders4
        Type: Hinders
        Source : Method21
        Target : Method20


    ## Relationship ##
        Name: hinders2
        Type: Hinders
        Source : Method5
        Target : Method23


    ## Relationship ##
        Name: facilitates4
        Type: Facilitates
        Source : Method26
        Target : Method24


    ## Relationship ##
        Name: disables2
        Type: Disables
        Source : Method16
        Target : Method3


    ## Relationship ##
        Name: facilitates1
        Type: Facilitates
        Source : Method7
        Target : Method8


    ## Relationship ##
        Name: enables3
        Type: Enables
        Source : Method27
        Target : Method11


    ## Relationship ##
        Name: hinders3
        Type: Hinders
        Source : Method28
        Target : Method12


    ## Relationship ##
        Name: facilitates2
        Type: Facilitates
        Source : Method18
        Target : Method10


    ## Relationship ##
        Name: disables3
        Type: Disables
        Source : Method29
        Target : Method14


    ## Relationship ##
        Name: enables1
        Type: Enables
        Source : Method1
        Target : Method4


    ## Relationship ##
        Name: enables4
        Type: Enables
        Source : Method22
        Target : Method19


    ## Relationship ##
        Name: enables2
        Type: Enables
        Source : Method9
        Target : Method25


    ## Relationship ##
        Name: enables2
        Type: Enables
        Source : Method9
        Target : Method25

##### Agent Results #####


    ## Agent ##
        Name Agent1
        Sent: 60
        Received: 902
        Completed: Method30, Method15, Method6, Method20, Method17, Method5, Method2, Method26, Method16, Method8, Method27, Method28, Method12, Method10, Method24, Method18, Method29, Method1, Method22, Method21, Method7, Method13, Method9, Method23