####### Ordered Logger #######


Final Duration: 800.0
Final Quality: 0.0
Seed: 1923158682

##### Method Results #####


    ## Method ##
        Name: Method10
        Completed By : Agent1
        With Quality : 23.0
        With Duration: 11
        End Time: 18


    ## Method ##
        Name: Method17
        Completed By : Agent1
        With Quality : 4.0
        With Duration: 1
        End Time: 21


    ## Method ##
        Name: Method23
        Completed By : Agent1
        With Quality : 2.0
        With Duration: 5
        End Time: 28


    ## Method ##
        Name: Method14
        Completed By : Agent1
        With Quality : 7.0
        With Duration: 6
        End Time: 36


    ## Method ##
        Name: Method8
        Completed By : Agent1
        With Quality : 31.0
        With Duration: 14
        End Time: 52


    ## Method ##
        Name: Method7
        Completed By : Agent1
        With Quality : 14.0
        With Duration: 6
        End Time: 62


    ## Method ##
        Name: Method1
        Completed By : Agent1
        With Quality : 20.0
        With Duration: 1
        End Time: 66


    ## Method ##
        Name: Method22
        Completed By : Agent1
        With Quality : 32.0
        With Duration: 4
        End Time: 72


    ## Method ##
        Name: Method2
        Completed By : Agent1
        With Quality : 10.0
        With Duration: 12
        End Time: 86


    ## Method ##
        Name: Method24
        Completed By : Agent1
        With Quality : 13.0
        With Duration: 9
        End Time: 97


    ## Method ##
        Name: Method28
        Completed By : Agent1
        With Quality : 26.0
        With Duration: 4
        End Time: 103


    ## Method ##
        Name: Method9
        Completed By : Agent1
        With Quality : 1.0
        With Duration: 5
        End Time: 110


    ## Method ##
        Name: Method16
        Completed By : Agent1
        With Quality : 7.0
        With Duration: 6
        End Time: 118


    ## Method ##
        Name: Method27
        Completed By : Agent1
        With Quality : 16.0
        With Duration: 15
        End Time: 135


    ## Method ##
        Name: Method4
        Completed By : Agent1
        With Quality : 1.0
        With Duration: 5
        End Time: 163


    ## Method ##
        Name: Method29
        Completed By : Agent1
        With Quality : 6.0
        With Duration: 5
        End Time: 173


    ## Method ##
        Name: Method19
        Completed By : Agent1
        With Quality : 1.0
        With Duration: 1
        End Time: 176


    ## Method ##
        Name: Method18
        Completed By : Agent1
        With Quality : 21.0
        With Duration: 9
        End Time: 187


    ## Method ##
        Name: Method15
        Completed By : Agent1
        With Quality : 1.4117647058823528
        With Duration: 2
        End Time: 191


    ## Method ##
        Name: Method25
        Completed By : Agent1
        With Quality : 5.0
        With Duration: 7
        End Time: 200


    ## Method ##
        Name: Method12
        Completed By : Agent1
        With Quality : 5.185185185185186
        With Duration: 10
        End Time: 212


    ## Method ##
        Name: Method5
        Completed By : Agent1
        With Quality : 22.0
        With Duration: 6
        End Time: 220


    ## Method ##
        Name: Method26
        Completed By : Agent1
        With Quality : 3.0
        With Duration: 1
        End Time: 224


    ## Method ##
        Name: Method30
        Completed By : Agent1
        With Quality : 5.0
        With Duration: 2
        End Time: 231


    ## Method ##
        Name: Method20
        Completed By : Agent1
        With Quality : 8.0
        With Duration: 5
        End Time: 242


    ## Method ##
        Name: Method13
        Completed By : Agent1
        With Quality : 33.0
        With Duration: 12
        End Time: 256


    ## Method ##
        Name: Method21
        Completed By : Agent1
        With Quality : 16.0
        With Duration: 18
        End Time: 276

##### Relationship Results #####


    ## Relationship ##
        Name: facilitates2
        Type: Facilitates
        Source : Method18
        Target : Method10


    ## Relationship ##
        Name: hinders2
        Type: Hinders
        Source : Method5
        Target : Method23


    ## Relationship ##
        Name: disables3
        Type: Disables
        Source : Method29
        Target : Method14


    ## Relationship ##
        Name: facilitates1
        Type: Facilitates
        Source : Method7
        Target : Method8


    ## Relationship ##
        Name: enables1
        Type: Enables
        Source : Method1
        Target : Method4


    ## Relationship ##
        Name: enables4
        Type: Enables
        Source : Method22
        Target : Method19


    ## Relationship ##
        Name: hinders1
        Type: Hinders
        Source : Method2
        Target : Method15


    ## Relationship ##
        Name: facilitates4
        Type: Facilitates
        Source : Method26
        Target : Method24


    ## Relationship ##
        Name: hinders3
        Type: Hinders
        Source : Method28
        Target : Method12


    ## Relationship ##
        Name: enables2
        Type: Enables
        Source : Method9
        Target : Method25


    ## Relationship ##
        Name: enables2
        Type: Enables
        Source : Method9
        Target : Method25


    ## Relationship ##
        Name: disables2
        Type: Disables
        Source : Method16
        Target : Method3


    ## Relationship ##
        Name: enables3
        Type: Enables
        Source : Method27
        Target : Method11


    ## Relationship ##
        Name: disables1
        Type: Disables
        Source : Method4
        Target : Method6


    ## Relationship ##
        Name: facilitates3
        Type: Facilitates
        Source : Method13
        Target : Method30


    ## Relationship ##
        Name: hinders4
        Type: Hinders
        Source : Method21
        Target : Method20

##### Agent Results #####


    ## Agent ##
        Name Agent1
        Sent: 60
        Received: 906
        Completed: Method10, Method17, Method23, Method14, Method8, Method7, Method1, Method22, Method2, Method24, Method28, Method9, Method16, Method27, Method4, Method29, Method19, Method18, Method15, Method25, Method12, Method5, Method26, Method30, Method20, Method13, Method21