####### Ordered Logger #######


Final Duration: 400.0
Final Quality: 0.0
Seed: 9485713883

##### Method Results #####


    ## Method ##
        Name: Method23
        Completed By : Agent1
        With Quality : 2.0
        With Duration: 5


    ## Method ##
        Name: Method12
        Completed By : Agent1
        With Quality : 10.0
        With Duration: 6


    ## Method ##
        Name: Method27
        Completed By : Agent1
        With Quality : 18.0
        With Duration: 15


    ## Method ##
        Name: Method17
        Completed By : Agent1
        With Quality : 5.0
        With Duration: 1


    ## Method ##
        Name: Method3
        Completed By : Agent1
        With Quality : 5.0
        With Duration: 7


    ## Method ##
        Name: Method7
        Completed By : Agent1
        With Quality : 14.0
        With Duration: 9


    ## Method ##
        Name: Method26
        Completed By : Agent1
        With Quality : 2.0
        With Duration: 1


    ## Method ##
        Name: Method20
        Completed By : Agent1
        With Quality : 8.0
        With Duration: 7


    ## Method ##
        Name: Method16
        Completed By : Agent1
        With Quality : 6.0
        With Duration: 4


    ## Method ##
        Name: Method6
        Completed By : Agent1
        With Quality : 12.0
        With Duration: 9


    ## Method ##
        Name: Method14
        Completed By : Agent1
        With Quality : 7.0
        With Duration: 5


    ## Method ##
        Name: Method5
        Completed By : Agent1
        With Quality : 22.0
        With Duration: 5


    ## Method ##
        Name: Method9
        Completed By : Agent1
        With Quality : 1.0
        With Duration: 6


    ## Method ##
        Name: Method28
        Completed By : Agent1
        With Quality : 27.0
        With Duration: 2


    ## Method ##
        Name: Method29
        Completed By : Agent1
        With Quality : 2.0
        With Duration: 7


    ## Method ##
        Name: Method18
        Completed By : Agent1
        With Quality : 24.0
        With Duration: 11


    ## Method ##
        Name: Method10
        Completed By : Agent1
        With Quality : 42.0
        With Duration: 8


    ## Method ##
        Name: Method8
        Completed By : Agent1
        With Quality : 65.0
        With Duration: 16


    ## Method ##
        Name: Method21
        Completed By : Agent1
        With Quality : 16.0
        With Duration: 18


    ## Method ##
        Name: Method25
        Completed By : Agent1
        With Quality : 10.0
        With Duration: 7


    ## Method ##
        Name: Method30
        Completed By : Agent1
        With Quality : 3.0
        With Duration: 3


    ## Method ##
        Name: Method22
        Completed By : Agent1
        With Quality : 31.0
        With Duration: 4


    ## Method ##
        Name: Method19
        Completed By : Agent1
        With Quality : 2.0
        With Duration: 1


    ## Method ##
        Name: Method13
        Completed By : Agent1
        With Quality : 30.0
        With Duration: 19


    ## Method ##
        Name: Method1
        Completed By : Agent1
        With Quality : 27.0
        With Duration: 2


    ## Method ##
        Name: Method15
        Completed By : Agent1
        With Quality : 1.0
        With Duration: 1


    ## Method ##
        Name: Method2
        Completed By : Agent1
        With Quality : 13.0
        With Duration: 4


    ## Method ##
        Name: Method24
        Completed By : Agent1
        With Quality : 13.5
        With Duration: 7

##### Relationship Results #####


    ## Relationship ##
        Name: hinders2
        Type: Hinders
        Source : Method5
        Target : Method23


    ## Relationship ##
        Name: hinders3
        Type: Hinders
        Source : Method28
        Target : Method12


    ## Relationship ##
        Name: enables3
        Type: Enables
        Source : Method27
        Target : Method11


    ## Relationship ##
        Name: disables2
        Type: Disables
        Source : Method16
        Target : Method3


    ## Relationship ##
        Name: facilitates1
        Type: Facilitates
        Source : Method7
        Target : Method8


    ## Relationship ##
        Name: facilitates4
        Type: Facilitates
        Source : Method26
        Target : Method24


    ## Relationship ##
        Name: hinders4
        Type: Hinders
        Source : Method21
        Target : Method20


    ## Relationship ##
        Name: disables1
        Type: Disables
        Source : Method4
        Target : Method6


    ## Relationship ##
        Name: disables3
        Type: Disables
        Source : Method29
        Target : Method14


    ## Relationship ##
        Name: enables2
        Type: Enables
        Source : Method9
        Target : Method25


    ## Relationship ##
        Name: enables2
        Type: Enables
        Source : Method9
        Target : Method25


    ## Relationship ##
        Name: facilitates2
        Type: Facilitates
        Source : Method18
        Target : Method10


    ## Relationship ##
        Name: facilitates3
        Type: Facilitates
        Source : Method13
        Target : Method30


    ## Relationship ##
        Name: enables4
        Type: Enables
        Source : Method22
        Target : Method19


    ## Relationship ##
        Name: enables1
        Type: Enables
        Source : Method1
        Target : Method4


    ## Relationship ##
        Name: hinders1
        Type: Hinders
        Source : Method2
        Target : Method15

##### Agent Results #####


    ## Agent ##
        Name Agent1
        Sent: 3462
        Received: 19537
        Completed: Method14, Method3, Method8, Method20, Method6, Method15, Method30, Method7, Method1, Method18, Method9, Method13, Method12, Method28, Method21, Method22, Method10, Method23, Method2, Method25, Method24, Method17, Method5, Method26, Method16, Method27, Method29, Method28, Method6, Method16, Method21, Method2, Method27, Method8, Method22, Method7, Method10, Method13, Method24, Method11, Method18, Method29, Method23, Method17, Method15, Method26, Method9, Method5, Method30, Method20, Method12, Method1, Method27, Method26, Method22, Method30, Method28, Method11, Method21, Method23, Method2, Method13, Method12, Method14, Method1, Method29, Method18, Method16, Method24, Method7, Method6, Method8, Method9, Method10, Method20, Method15, Method5, Method19, Method17, Method18, Method23, Method26, Method10, Method24, Method29, Method22, Method9, Method7, Method28, Method3, Method19, Method8, Method5, Method6, Method16, Method30, Method25, Method20, Method15, Method2, Method27, Method17, Method12, Method1, Method21, Method13, Method26, Method20, Method22, Method30, Method23, Method9, Method29, Method16, Method28, Method15, Method21, Method7, Method8, Method1, Method24, Method17, Method18, Method2, Method27, Method10, Method19, Method13, Method6, Method25, Method5, Method12, Method2, Method21, Method15, Method14, Method10, Method17, Method6, Method5, Method20, Method18, Method28, Method30, Method3, Method8, Method26, Method27, Method29, Method13, Method1, Method12, Method11, Method24, Method7, Method9, Method23, Method16, Method22, Method13, Method20, Method7, Method22, Method6, Method2, Method12, Method9, Method15, Method14, Method8, Method24, Method23, Method19, Method28, Method25, Method5, Method27, Method3, Method16, Method10, Method30, Method21, Method26, Method1, Method29, Method17, Method18, Method5, Method10, Method3, Method16, Method20, Method26, Method9, Method12, Method8, Method29, Method2, Method18, Method6, Method1, Method22, Method24, Method7, Method25, Method21, Method17, Method19, Method15, Method23, Method13, Method30, Method28, Method4, Method27, Method11, Method6, Method21, Method3, Method2, Method1, Method20, Method13, Method26, Method4, Method28, Method12, Method27, Method10, Method5, Method29, Method30, Method18, Method8, Method16, Method9, Method23, Method15, Method22, Method17, Method24, Method7, Method29, Method26, Method2, Method23, Method7, Method22, Method13, Method12, Method30, Method27, Method17, Method8, Method11, Method28, Method10, Method6, Method9, Method20, Method21, Method3, Method18, Method15, Method24, Method5, Method16, Method19, Method1, Method9, Method20, Method13, Method12, Method25, Method2, Method27, Method11, Method22, Method21, Method16, Method23, Method30, Method8, Method19, Method10, Method18, Method29, Method5, Method17, Method6, Method7, Method1, Method26, Method28, Method24, Method15, Method18, Method3, Method2, Method17, Method7, Method14, Method12, Method23, Method27, Method21, Method28, Method22, Method26, Method1, Method13, Method30, Method15, Method20, Method6, Method24, Method29, Method16, Method5, Method8, Method9, Method4, Method10, Method30, Method7, Method13, Method18, Method24, Method21, Method29, Method28, Method16, Method17, Method20, Method6, Method22, Method26, Method9, Method12, Method27, Method23, Method5, Method8, Method10, Method25, Method11, Method2, Method19, Method15, Method9, Method22, Method3, Method1, Method17, Method30, Method28, Method27, Method18, Method6, Method8, Method21, Method12, Method5, Method25, Method16, Method10, Method2, Method14, Method13, Method7, Method26, Method15, Method24, Method20, Method23, Method19, Method29, Method4, Method11, Method26, Method14, Method3, Method12, Method5, Method1, Method2, Method10, Method8, Method22, Method9, Method27, Method30, Method6, Method17, Method18, Method4, Method15, Method28, Method25, Method24, Method21, Method23, Method29, Method20, Method16, Method7, Method13, Method11, Method23, Method16, Method20, Method10, Method15, Method12, Method17, Method5, Method6, Method2, Method30, Method13, Method18, Method24, Method22, Method9, Method7, Method8, Method1, Method14, Method28, Method29, Method21, Method27, Method26, Method24, Method28, Method22, Method9, Method8, Method15, Method13, Method17, Method16, Method18, Method27, Method23, Method19, Method25, Method12, Method20, Method29, Method6, Method5, Method10, Method21, Method1, Method30, Method26, Method7, Method2, Method26, Method12, Method29, Method24, Method16, Method13, Method22, Method1, Method5, Method27, Method2, Method20, Method15, Method10, Method9, Method6, Method17, Method19, Method28, Method8, Method23, Method21, Method30, Method18, Method7, Method25, Method8, Method27, Method14, Method20, Method29, Method5, Method1, Method30, Method17, Method9, Method23, Method2, Method11, Method28, Method10, Method21, Method26, Method15, Method12, Method4, Method24, Method7, Method18, Method3, Method16, Method13, Method25, Method22, Method1, Method12, Method18, Method2, Method22, Method29, Method20, Method30, Method27, Method17, Method16, Method11, Method7, Method4, Method26, Method10, Method21, Method9, Method15, Method19, Method24, Method5, Method28, Method8, Method13, Method23, Method30, Method21, Method18, Method29, Method10, Method8, Method1, Method4, Method27, Method9, Method3, Method22, Method13, Method12, Method5, Method11, Method23, Method2, Method26, Method28, Method16, Method15, Method24, Method17, Method20, Method7, Method23, Method13, Method14, Method6, Method10, Method17, Method24, Method20, Method5, Method30, Method29, Method28, Method7, Method26, Method21, Method27, Method15, Method8, Method1, Method9, Method12, Method3, Method22, Method18, Method2, Method16, Method23, Method26, Method30, Method14, Method27, Method3, Method15, Method16, Method18, Method7, Method2, Method12, Method22, Method24, Method19, Method20, Method17, Method6, Method13, Method21, Method8, Method28, Method10, Method1, Method5, Method9, Method29, Method6, Method22, Method24, Method15, Method5, Method9, Method12, Method20, Method16, Method14, Method17, Method7, Method19, Method26, Method30, Method8, Method29, Method10, Method21, Method23, Method27, Method28, Method13, Method11, Method2, Method18, Method25, Method10, Method15, Method30, Method6, Method29, Method13, Method16, Method26, Method23, Method1, Method8, Method4, Method18, Method28, Method17, Method2, Method12, Method20, Method21, Method9, Method22, Method5, Method19, Method7, Method27, Method24, Method7, Method24, Method26, Method9, Method10, Method17, Method22, Method3, Method23, Method1, Method13, Method15, Method16, Method20, Method2, Method28, Method21, Method25, Method12, Method18, Method30, Method29, Method8, Method27, Method6, Method5, Method4, Method27, Method7, Method16, Method15, Method10, Method8, Method17, Method22, Method13, Method23, Method21, Method26, Method24, Method9, Method30, Method12, Method19, Method1, Method28, Method11, Method6, Method18, Method14, Method2, Method29, Method5, Method20, Method23, Method29, Method30, Method6, Method17, Method5, Method9, Method2, Method16, Method22, Method1, Method12, Method21, Method15, Method28, Method10, Method13, Method27, Method18, Method26, Method20, Method8, Method24, Method7, Method30, Method8, Method2, Method14, Method27, Method7, Method6, Method11, Method28, Method26, Method13, Method3, Method17, Method16, Method24, Method12, Method5, Method18, Method10, Method20, Method15, Method1, Method9, Method21, Method29, Method4, Method25, Method22, Method23, Method19, Method15, Method14, Method18, Method3, Method13, Method6, Method30, Method29, Method21, Method16, Method27, Method28, Method23, Method26, Method2, Method9, Method12, Method24, Method17, Method10, Method5, Method22, Method20, Method1, Method8, Method7, Method1, Method6, Method17, Method2, Method24, Method28, Method29, Method23, Method5, Method16, Method4, Method22, Method21, Method7, Method9, Method12, Method19, Method27, Method30, Method8, Method20, Method15, Method10, Method13, Method18, Method26, Method18, Method24, Method12, Method27, Method1, Method15, Method2, Method10, Method8, Method26, Method21, Method11, Method5, Method13, Method16, Method28, Method7, Method30, Method6, Method29, Method20, Method17, Method23, Method22, Method9, Method10, Method23, Method27, Method7, Method1, Method21, Method22, Method6, Method15, Method2, Method28, Method11, Method5, Method16, Method30, Method24, Method8, Method29, Method12, Method13, Method17, Method4, Method19, Method18, Method26, Method20, Method9, Method29, Method28, Method5, Method9, Method24, Method27, Method13, Method26, Method15, Method2, Method20, Method6, Method30, Method3, Method12, Method17, Method22, Method8, Method10, Method23, Method21, Method7, Method19, Method25, Method1, Method18, Method16, Method11, Method4, Method10, Method30, Method18, Method13, Method5, Method15, Method3, Method22, Method8, Method27, Method23, Method2, Method20, Method19, Method6, Method28, Method24, Method21, Method9, Method12, Method11, Method17, Method14, Method25, Method7, Method1, Method26, Method16, Method29, Method8, Method6, Method30, Method9, Method15, Method21, Method7, Method2, Method18, Method13, Method5, Method25, Method12, Method10, Method24, Method23, Method20, Method26, Method14, Method1, Method17, Method3, Method28, Method22, Method27, Method16, Method29, Method23, Method12, Method27, Method17, Method3, Method7, Method26, Method20, Method16, Method6, Method14, Method5, Method9, Method28, Method29, Method18, Method10, Method8, Method21, Method25, Method30, Method22, Method19, Method13, Method1, Method15, Method2, Method24