digraph G {
	"RTS116-AND-80000-SUM" -> "T1-AND-7562-SUM"
	"T1-AND-7562-SUM" -> "T3-OR-1249-MAX"
	"T1-AND-7562-SUM" -> "T4-OR-2016-MAX"
	"T1-AND-7562-SUM" -> "T5-AND-4297-SUM"
	"RTS116-AND-80000-SUM" -> "T2-AND-72438-SUM"
	"T2-AND-72438-SUM" -> "T6-OR-72438-MAX"
	"T3-OR-1249-MAX" -> M1
	"T3-OR-1249-MAX" -> M2
	"T4-OR-2016-MAX" -> M3
	"T4-OR-2016-MAX" -> M4
	"T4-OR-2016-MAX" -> M5
	"T4-OR-2016-MAX" -> M6
	"T4-OR-2016-MAX" -> M7
	"T4-OR-2016-MAX" -> M8
	"T4-OR-2016-MAX" -> M9
	"T5-AND-4297-SUM" -> M10
	"T6-OR-72438-MAX" -> M11
	"T6-OR-72438-MAX" -> M12
}
