digraph G {
	"RTS109-AND-80000-SUM" -> "T1-OR-80000-MAX"
	"T1-OR-80000-MAX" -> "T2-AND-80000-SUM"
	"T2-AND-80000-SUM" -> "T5-OR-10363-MAX"
	"T2-AND-80000-SUM" -> "T6-OR-17388-MAX"
	"T2-AND-80000-SUM" -> "T7-OR-52249-MAX"
	"T1-OR-80000-MAX" -> "T3-AND-80000-SUM"
	"T3-AND-80000-SUM" -> "T8-OR-80000-MAX"
	"T1-OR-80000-MAX" -> "T4-AND-80000-SUM"
	"T4-AND-80000-SUM" -> "T9-AND-80000-SUM"
	"T5-OR-10363-MAX" -> M1
	"T5-OR-10363-MAX" -> M2
	"T5-OR-10363-MAX" -> M3
	"T5-OR-10363-MAX" -> M4
	"T6-OR-17388-MAX" -> M5
	"T6-OR-17388-MAX" -> M6
	"T6-OR-17388-MAX" -> M7
	"T7-OR-52249-MAX" -> M8
	"T7-OR-52249-MAX" -> M9
	"T8-OR-80000-MAX" -> M10
	"T8-OR-80000-MAX" -> M11
	"T9-AND-80000-SUM" -> M12
}
