digraph G {
	"RTS186-AND-80000-SUM" -> "T1-AND-80000-SUM"
	"T1-AND-80000-SUM" -> "T2-OR-29673-MAX"
	"T2-OR-29673-MAX" -> "T4-AND-29673-SUM"
	"T2-OR-29673-MAX" -> "T5-AND-29673-SUM"
	"T1-AND-80000-SUM" -> "T3-AND-50327-SUM"
	"T3-AND-50327-SUM" -> "T6-AND-50327-SUM"
	"T4-AND-29673-SUM" -> M1
	"T5-AND-29673-SUM" -> M2
	"T5-AND-29673-SUM" -> M3
	"T5-AND-29673-SUM" -> M4
	"T5-AND-29673-SUM" -> M5
	"T5-AND-29673-SUM" -> M6
	"T5-AND-29673-SUM" -> M7
	"T5-AND-29673-SUM" -> M8
	"T5-AND-29673-SUM" -> M9
	"T5-AND-29673-SUM" -> M10
	"T5-AND-29673-SUM" -> M11
	"T6-AND-50327-SUM" -> M12
	"T6-AND-50327-SUM" -> M13
}
