digraph G {
	"RTS197-AND-80000-SUM" -> "T1-OR-80000-MAX"
	"T1-OR-80000-MAX" -> "T2-OR-80000-MAX"
	"T2-OR-80000-MAX" -> "T5-OR-80000-MAX"
	"T2-OR-80000-MAX" -> "T6-AND-80000-SUM"
	"T2-OR-80000-MAX" -> "T7-OR-80000-MAX"
	"T1-OR-80000-MAX" -> "T3-AND-80000-SUM"
	"T3-AND-80000-SUM" -> "T8-OR-80000-MAX"
	"T1-OR-80000-MAX" -> "T4-AND-80000-SUM"
	"T4-AND-80000-SUM" -> "T9-AND-80000-SUM"
	"T5-OR-80000-MAX" -> M1
	"T5-OR-80000-MAX" -> M2
	"T5-OR-80000-MAX" -> M3
	"T6-AND-80000-SUM" -> M4
	"T6-AND-80000-SUM" -> M5
	"T7-OR-80000-MAX" -> M6
	"T7-OR-80000-MAX" -> M7
	"T8-OR-80000-MAX" -> M8
	"T8-OR-80000-MAX" -> M9
	"T9-AND-80000-SUM" -> M10
	"T9-AND-80000-SUM" -> M11
	"T9-AND-80000-SUM" -> M12
	"T9-AND-80000-SUM" -> M13
	"T9-AND-80000-SUM" -> M14
	"T9-AND-80000-SUM" -> M15
}
