digraph G {
	"RTS171-OR-80000-MAX" -> "T1-OR-80000-MAX"
	"T1-OR-80000-MAX" -> "T3-AND-80000-SUM"
	"T3-AND-80000-SUM" -> "T6-OR-12822-MAX"
	"T3-AND-80000-SUM" -> "T7-AND-67178-SUM"
	"T1-OR-80000-MAX" -> "T4-AND-80000-SUM"
	"T4-AND-80000-SUM" -> "T8-AND-80000-SUM"
	"RTS171-OR-80000-MAX" -> "T2-AND-80000-SUM"
	"T2-AND-80000-SUM" -> "T5-AND-80000-SUM"
	"T5-AND-80000-SUM" -> "T9-OR-80000-MAX"
	"T6-OR-12822-MAX" -> M1
	"T6-OR-12822-MAX" -> M2
	"T6-OR-12822-MAX" -> M3
	"T6-OR-12822-MAX" -> M4
	"T6-OR-12822-MAX" -> M5
	"T7-AND-67178-SUM" -> M6
	"T8-AND-80000-SUM" -> M7
	"T9-OR-80000-MAX" -> M8
	"T9-OR-80000-MAX" -> M9
	"T9-OR-80000-MAX" -> M10
	"T9-OR-80000-MAX" -> M11
	"T9-OR-80000-MAX" -> M12
	"T9-OR-80000-MAX" -> M13
	"T9-OR-80000-MAX" -> M14
}
