digraph G {
	"RTS140-AND-80000-SUM" -> "T1-AND-80000-SUM"
	"T1-AND-80000-SUM" -> "T2-OR-3817-MAX"
	"T1-AND-80000-SUM" -> "T3-OR-14972-MAX"
	"T1-AND-80000-SUM" -> "T4-AND-61211-SUM"
	"T2-OR-3817-MAX" -> M1
	"T2-OR-3817-MAX" -> M2
	"T2-OR-3817-MAX" -> M3
	"T3-OR-14972-MAX" -> M4
	"T3-OR-14972-MAX" -> M5
	"T3-OR-14972-MAX" -> M6
	"T4-AND-61211-SUM" -> M7
	"T4-AND-61211-SUM" -> M8
	"T4-AND-61211-SUM" -> M9
	"T4-AND-61211-SUM" -> M10
	"T4-AND-61211-SUM" -> M11
}
