digraph G {
	"RTS118-AND-80000-SUM" -> "T1-AND-2787-SUM"
	"T1-AND-2787-SUM" -> "T4-AND-2787-SUM"
	"RTS118-AND-80000-SUM" -> "T2-AND-10460-SUM"
	"T2-AND-10460-SUM" -> "T5-OR-10460-MAX"
	"RTS118-AND-80000-SUM" -> "T3-AND-66753-SUM"
	"T3-AND-66753-SUM" -> "T6-OR-66753-MAX"
	"T4-AND-2787-SUM" -> M1
	"T4-AND-2787-SUM" -> M2
	"T5-OR-10460-MAX" -> M3
	"T5-OR-10460-MAX" -> M4
	"T5-OR-10460-MAX" -> M5
	"T5-OR-10460-MAX" -> M6
	"T5-OR-10460-MAX" -> M7
	"T5-OR-10460-MAX" -> M8
	"T5-OR-10460-MAX" -> M9
	"T5-OR-10460-MAX" -> M10
	"T6-OR-66753-MAX" -> M11
	"T6-OR-66753-MAX" -> M12
	"T6-OR-66753-MAX" -> M13
}
