digraph G {
	"RTS165-AND-80000-SUM" -> "T1-AND-80000-SUM"
	"T1-AND-80000-SUM" -> "T2-AND-9361-SUM"
	"T2-AND-9361-SUM" -> "T5-OR-2827-MAX"
	"T2-AND-9361-SUM" -> "T6-OR-6534-MAX"
	"T1-AND-80000-SUM" -> "T3-AND-24161-SUM"
	"T3-AND-24161-SUM" -> "T7-OR-24161-MAX"
	"T1-AND-80000-SUM" -> "T4-OR-46478-MAX"
	"T4-OR-46478-MAX" -> "T8-AND-46478-SUM"
	"T4-OR-46478-MAX" -> "T9-OR-46478-MAX"
	"T5-OR-2827-MAX" -> M1
	"T5-OR-2827-MAX" -> M2
	"T5-OR-2827-MAX" -> M3
	"T6-OR-6534-MAX" -> M4
	"T6-OR-6534-MAX" -> M5
	"T6-OR-6534-MAX" -> M6
	"T6-OR-6534-MAX" -> M7
	"T7-OR-24161-MAX" -> M8
	"T7-OR-24161-MAX" -> M9
	"T7-OR-24161-MAX" -> M10
	"T8-AND-46478-SUM" -> M11
	"T9-OR-46478-MAX" -> M12
	"T9-OR-46478-MAX" -> M13
	"T9-OR-46478-MAX" -> M14
}
