digraph G {
	"RTS183-AND-80000-SUM" -> "T1-AND-80000-SUM"
	"T1-AND-80000-SUM" -> "T2-OR-7808-MAX"
	"T1-AND-80000-SUM" -> "T3-OR-29113-MAX"
	"T1-AND-80000-SUM" -> "T4-AND-43079-SUM"
	"T2-OR-7808-MAX" -> M1
	"T2-OR-7808-MAX" -> M2
	"T2-OR-7808-MAX" -> M3
	"T2-OR-7808-MAX" -> M4
	"T2-OR-7808-MAX" -> M5
	"T2-OR-7808-MAX" -> M6
	"T2-OR-7808-MAX" -> M7
	"T2-OR-7808-MAX" -> M8
	"T3-OR-29113-MAX" -> M9
	"T3-OR-29113-MAX" -> M10
	"T3-OR-29113-MAX" -> M11
	"T4-AND-43079-SUM" -> M12
	"T4-AND-43079-SUM" -> M13
	"T4-AND-43079-SUM" -> M14
}
