digraph G {
	"RTS160-AND-80000-SUM" -> "T1-OR-80000-MAX"
	"T1-OR-80000-MAX" -> "T2-AND-80000-SUM"
	"T2-AND-80000-SUM" -> "T5-AND-7125-SUM"
	"T2-AND-80000-SUM" -> "T6-AND-22849-SUM"
	"T2-AND-80000-SUM" -> "T7-OR-50026-MAX"
	"T1-OR-80000-MAX" -> "T3-AND-80000-SUM"
	"T3-AND-80000-SUM" -> "T8-OR-80000-MAX"
	"T1-OR-80000-MAX" -> "T4-AND-80000-SUM"
	"T4-AND-80000-SUM" -> "T9-AND-80000-SUM"
	"T5-AND-7125-SUM" -> M1
	"T6-AND-22849-SUM" -> M2
	"T7-OR-50026-MAX" -> M3
	"T7-OR-50026-MAX" -> M4
	"T7-OR-50026-MAX" -> M5
	"T7-OR-50026-MAX" -> M6
	"T7-OR-50026-MAX" -> M7
	"T7-OR-50026-MAX" -> M8
	"T7-OR-50026-MAX" -> M9
	"T7-OR-50026-MAX" -> M10
	"T7-OR-50026-MAX" -> M11
	"T7-OR-50026-MAX" -> M12
	"T8-OR-80000-MAX" -> M13
	"T8-OR-80000-MAX" -> M14
	"T9-AND-80000-SUM" -> M15
}
