digraph G {
	"RTS29-AND-80000-SUM" -> "T1-AND-8072-SUM"
	"T1-AND-8072-SUM" -> "T3-OR-8072-MAX"
	"RTS29-AND-80000-SUM" -> "T2-AND-71928-SUM"
	"T2-AND-71928-SUM" -> "T4-OR-6479-MAX"
	"T2-AND-71928-SUM" -> "T5-OR-23463-MAX"
	"T2-AND-71928-SUM" -> "T6-AND-41986-SUM"
	"T3-OR-8072-MAX" -> M1
	"T3-OR-8072-MAX" -> M2
	"T3-OR-8072-MAX" -> M3
	"T4-OR-6479-MAX" -> M4
	"T4-OR-6479-MAX" -> M5
	"T4-OR-6479-MAX" -> M6
	"T5-OR-23463-MAX" -> M7
	"T5-OR-23463-MAX" -> M8
	"T5-OR-23463-MAX" -> M9
	"T5-OR-23463-MAX" -> M10
	"T5-OR-23463-MAX" -> M11
	"T5-OR-23463-MAX" -> M12
	"T5-OR-23463-MAX" -> M13
	"T6-AND-41986-SUM" -> M14
}
