digraph G {
	"RTS22-AND-80000-SUM" -> "T1-AND-80000-SUM"
	"T1-AND-80000-SUM" -> "T2-AND-8999-SUM"
	"T2-AND-8999-SUM" -> "T4-OR-8999-MAX"
	"T1-AND-80000-SUM" -> "T3-OR-71001-MAX"
	"T3-OR-71001-MAX" -> "T5-OR-71001-MAX"
	"T3-OR-71001-MAX" -> "T6-AND-71001-SUM"
	"T4-OR-8999-MAX" -> M1
	"T4-OR-8999-MAX" -> M2
	"T4-OR-8999-MAX" -> M3
	"T4-OR-8999-MAX" -> M4
	"T5-OR-71001-MAX" -> M5
	"T5-OR-71001-MAX" -> M6
	"T5-OR-71001-MAX" -> M7
	"T5-OR-71001-MAX" -> M8
	"T6-AND-71001-SUM" -> M9
	"T6-AND-71001-SUM" -> M10
	"T6-AND-71001-SUM" -> M11
	"T6-AND-71001-SUM" -> M12
	"T6-AND-71001-SUM" -> M13
	"T6-AND-71001-SUM" -> M14
	"T6-AND-71001-SUM" -> M15
}
