digraph G {
	"RTS227-AND-80000-SUM" -> "T1-AND-1387-SUM"
	"T1-AND-1387-SUM" -> "T3-OR-1387-MAX"
	"RTS227-AND-80000-SUM" -> "T2-AND-78613-SUM"
	"T2-AND-78613-SUM" -> "T4-OR-78613-MAX"
	"T3-OR-1387-MAX" -> M1
	"T3-OR-1387-MAX" -> M2
	"T3-OR-1387-MAX" -> M3
	"T3-OR-1387-MAX" -> M4
	"T3-OR-1387-MAX" -> M5
	"T3-OR-1387-MAX" -> M6
	"T3-OR-1387-MAX" -> M7
	"T3-OR-1387-MAX" -> M8
	"T4-OR-78613-MAX" -> M9
	"T4-OR-78613-MAX" -> M10
	"T4-OR-78613-MAX" -> M11
	"T4-OR-78613-MAX" -> M12
	"T4-OR-78613-MAX" -> M13
	"T4-OR-78613-MAX" -> M14
	"T4-OR-78613-MAX" -> M15
}
