digraph G {
	"RTS208-AND-80000-SUM" -> "T1-AND-18591-SUM"
	"T1-AND-18591-SUM" -> "T4-AND-18591-SUM"
	"T4-AND-18591-SUM" -> "T7-OR-18591-MAX"
	"RTS208-AND-80000-SUM" -> "T2-AND-30277-SUM"
	"T2-AND-30277-SUM" -> "T5-AND-30277-SUM"
	"T5-AND-30277-SUM" -> "T8-AND-30277-SUM"
	"RTS208-AND-80000-SUM" -> "T3-AND-31132-SUM"
	"T3-AND-31132-SUM" -> "T6-AND-31132-SUM"
	"T6-AND-31132-SUM" -> "T9-AND-31132-SUM"
	"T7-OR-18591-MAX" -> M1
	"T7-OR-18591-MAX" -> M2
	"T8-AND-30277-SUM" -> M3
	"T8-AND-30277-SUM" -> M4
	"T8-AND-30277-SUM" -> M5
	"T8-AND-30277-SUM" -> M6
	"T8-AND-30277-SUM" -> M7
	"T8-AND-30277-SUM" -> M8
	"T8-AND-30277-SUM" -> M9
	"T9-AND-31132-SUM" -> M10
	"T9-AND-31132-SUM" -> M11
}
