digraph G {
	"RTS202-OR-80000-MAX" -> "T1-OR-80000-MAX"
	"T1-OR-80000-MAX" -> "T3-AND-80000-SUM"
	"T3-AND-80000-SUM" -> "T6-OR-80000-MAX"
	"T1-OR-80000-MAX" -> "T4-AND-80000-SUM"
	"T4-AND-80000-SUM" -> "T7-AND-80000-SUM"
	"RTS202-OR-80000-MAX" -> "T2-AND-80000-SUM"
	"T2-AND-80000-SUM" -> "T5-AND-80000-SUM"
	"T5-AND-80000-SUM" -> "T8-OR-4088-MAX"
	"T5-AND-80000-SUM" -> "T9-AND-75912-SUM"
	"T6-OR-80000-MAX" -> M1
	"T6-OR-80000-MAX" -> M2
	"T6-OR-80000-MAX" -> M3
	"T7-AND-80000-SUM" -> M4
	"T8-OR-4088-MAX" -> M5
	"T8-OR-4088-MAX" -> M6
	"T8-OR-4088-MAX" -> M7
	"T8-OR-4088-MAX" -> M8
	"T8-OR-4088-MAX" -> M9
	"T8-OR-4088-MAX" -> M10
	"T8-OR-4088-MAX" -> M11
	"T8-OR-4088-MAX" -> M12
	"T8-OR-4088-MAX" -> M13
	"T8-OR-4088-MAX" -> M14
	"T9-AND-75912-SUM" -> M15
}
