digraph G {
	"RTS248-OR-80000-MAX" -> "T1-AND-80000-SUM"
	"T1-AND-80000-SUM" -> "T3-AND-6634-SUM"
	"T1-AND-80000-SUM" -> "T4-OR-73366-MAX"
	"RTS248-OR-80000-MAX" -> "T2-OR-80000-MAX"
	"T2-OR-80000-MAX" -> "T5-AND-80000-SUM"
	"T2-OR-80000-MAX" -> "T6-AND-80000-SUM"
	"T3-AND-6634-SUM" -> M1
	"T3-AND-6634-SUM" -> M2
	"T3-AND-6634-SUM" -> M3
	"T3-AND-6634-SUM" -> M4
	"T3-AND-6634-SUM" -> M5
	"T3-AND-6634-SUM" -> M6
	"T3-AND-6634-SUM" -> M7
	"T4-OR-73366-MAX" -> M8
	"T4-OR-73366-MAX" -> M9
	"T5-AND-80000-SUM" -> M10
	"T5-AND-80000-SUM" -> M11
	"T5-AND-80000-SUM" -> M12
	"T6-AND-80000-SUM" -> M13
}
