digraph G {
	"RTS245-AND-80000-SUM" -> "T1-AND-38554-SUM"
	"T1-AND-38554-SUM" -> "T3-OR-8987-MAX"
	"T1-AND-38554-SUM" -> "T4-AND-13148-SUM"
	"T1-AND-38554-SUM" -> "T5-AND-16419-SUM"
	"RTS245-AND-80000-SUM" -> "T2-AND-41446-SUM"
	"T2-AND-41446-SUM" -> "T6-AND-41446-SUM"
	"T3-OR-8987-MAX" -> M1
	"T3-OR-8987-MAX" -> M2
	"T3-OR-8987-MAX" -> M3
	"T4-AND-13148-SUM" -> M4
	"T5-AND-16419-SUM" -> M5
	"T5-AND-16419-SUM" -> M6
	"T5-AND-16419-SUM" -> M7
	"T5-AND-16419-SUM" -> M8
	"T5-AND-16419-SUM" -> M9
	"T5-AND-16419-SUM" -> M10
	"T5-AND-16419-SUM" -> M11
	"T5-AND-16419-SUM" -> M12
	"T5-AND-16419-SUM" -> M13
	"T5-AND-16419-SUM" -> M14
	"T6-AND-41446-SUM" -> M15
}
