digraph G {
	"RTS39-AND-80000-SUM" -> "T1-OR-16039-MAX"
	"T1-OR-16039-MAX" -> "T3-AND-16039-SUM"
	"T3-AND-16039-SUM" -> "T6-AND-7267-SUM"
	"T3-AND-16039-SUM" -> "T7-AND-8772-SUM"
	"T1-OR-16039-MAX" -> "T4-AND-16039-SUM"
	"T4-AND-16039-SUM" -> "T8-AND-16039-SUM"
	"RTS39-AND-80000-SUM" -> "T2-AND-63961-SUM"
	"T2-AND-63961-SUM" -> "T5-AND-63961-SUM"
	"T5-AND-63961-SUM" -> "T9-OR-63961-MAX"
	"T6-AND-7267-SUM" -> M1
	"T6-AND-7267-SUM" -> M2
	"T6-AND-7267-SUM" -> M3
	"T7-AND-8772-SUM" -> M4
	"T8-AND-16039-SUM" -> M5
	"T8-AND-16039-SUM" -> M6
	"T9-OR-63961-MAX" -> M7
	"T9-OR-63961-MAX" -> M8
	"T9-OR-63961-MAX" -> M9
	"T9-OR-63961-MAX" -> M10
	"T9-OR-63961-MAX" -> M11
}
