digraph G {
	"RTS36-AND-80000-SUM" -> "T1-OR-31464-MAX"
	"T1-OR-31464-MAX" -> "T3-OR-31464-MAX"
	"T1-OR-31464-MAX" -> "T4-OR-31464-MAX"
	"T1-OR-31464-MAX" -> "T5-AND-31464-SUM"
	"RTS36-AND-80000-SUM" -> "T2-AND-48536-SUM"
	"T2-AND-48536-SUM" -> "T6-AND-48536-SUM"
	"T3-OR-31464-MAX" -> M1
	"T3-OR-31464-MAX" -> M2
	"T3-OR-31464-MAX" -> M3
	"T4-OR-31464-MAX" -> M4
	"T4-OR-31464-MAX" -> M5
	"T4-OR-31464-MAX" -> M6
	"T4-OR-31464-MAX" -> M7
	"T5-AND-31464-SUM" -> M8
	"T6-AND-48536-SUM" -> M9
	"T6-AND-48536-SUM" -> M10
}
