digraph G {
	"RTS46-AND-80000-SUM" -> "T1-AND-80000-SUM"
	"T1-AND-80000-SUM" -> "T2-OR-10368-MAX"
	"T1-AND-80000-SUM" -> "T3-OR-10440-MAX"
	"T1-AND-80000-SUM" -> "T4-AND-59192-SUM"
	"T2-OR-10368-MAX" -> M1
	"T2-OR-10368-MAX" -> M2
	"T3-OR-10440-MAX" -> M3
	"T3-OR-10440-MAX" -> M4
	"T3-OR-10440-MAX" -> M5
	"T3-OR-10440-MAX" -> M6
	"T3-OR-10440-MAX" -> M7
	"T3-OR-10440-MAX" -> M8
	"T3-OR-10440-MAX" -> M9
	"T3-OR-10440-MAX" -> M10
	"T4-AND-59192-SUM" -> M11
	"T4-AND-59192-SUM" -> M12
	"T4-AND-59192-SUM" -> M13
	"T4-AND-59192-SUM" -> M14
	"T4-AND-59192-SUM" -> M15
}
