digraph G {
	"RTS90-AND-80000-SUM" -> "T1-OR-80000-MAX"
	"T1-OR-80000-MAX" -> "T2-AND-80000-SUM"
	"T2-AND-80000-SUM" -> "T5-AND-5207-SUM"
	"T2-AND-80000-SUM" -> "T6-AND-29164-SUM"
	"T2-AND-80000-SUM" -> "T7-AND-45629-SUM"
	"T1-OR-80000-MAX" -> "T3-AND-80000-SUM"
	"T3-AND-80000-SUM" -> "T8-OR-80000-MAX"
	"T1-OR-80000-MAX" -> "T4-AND-80000-SUM"
	"T4-AND-80000-SUM" -> "T9-OR-80000-MAX"
	"T5-AND-5207-SUM" -> M1
	"T6-AND-29164-SUM" -> M2
	"T6-AND-29164-SUM" -> M3
	"T6-AND-29164-SUM" -> M4
	"T7-AND-45629-SUM" -> M5
	"T8-OR-80000-MAX" -> M6
	"T8-OR-80000-MAX" -> M7
	"T8-OR-80000-MAX" -> M8
	"T8-OR-80000-MAX" -> M9
	"T8-OR-80000-MAX" -> M10
	"T8-OR-80000-MAX" -> M11
	"T9-OR-80000-MAX" -> M12
	"T9-OR-80000-MAX" -> M13
}
