digraph G {
	"RTS99-AND-80000-SUM" -> "T1-AND-18671-SUM"
	"T1-AND-18671-SUM" -> "T4-AND-18671-SUM"
	"RTS99-AND-80000-SUM" -> "T2-AND-29130-SUM"
	"T2-AND-29130-SUM" -> "T5-OR-29130-MAX"
	"RTS99-AND-80000-SUM" -> "T3-AND-32199-SUM"
	"T3-AND-32199-SUM" -> "T6-OR-32199-MAX"
	"T4-AND-18671-SUM" -> M1
	"T4-AND-18671-SUM" -> M2
	"T5-OR-29130-MAX" -> M3
	"T5-OR-29130-MAX" -> M4
	"T6-OR-32199-MAX" -> M5
	"T6-OR-32199-MAX" -> M6
	"T6-OR-32199-MAX" -> M7
	"T6-OR-32199-MAX" -> M8
	"T6-OR-32199-MAX" -> M9
	"T6-OR-32199-MAX" -> M10
}
