digraph G {
	"RTS156-AND-80000-SUM" -> "T1-OR-80000-MAX"
	"T1-OR-80000-MAX" -> "T2-AND-80000-SUM"
	"T2-AND-80000-SUM" -> "T4-AND-500-SUM"
	"T2-AND-80000-SUM" -> "T5-AND-10900-SUM"
	"T2-AND-80000-SUM" -> "T6-AND-22831-SUM"
	"T2-AND-80000-SUM" -> "T7-AND-45769-SUM"
	"T1-OR-80000-MAX" -> "T3-AND-80000-SUM"
	"T3-AND-80000-SUM" -> "T8-AND-35328-SUM"
	"T3-AND-80000-SUM" -> "T9-OR-44672-MAX"
	"T4-AND-500-SUM" -> M1
	"T4-AND-500-SUM" -> M2
	"T4-AND-500-SUM" -> M3
	"T4-AND-500-SUM" -> M4
	"T4-AND-500-SUM" -> M5
	"T5-AND-10900-SUM" -> M6
	"T6-AND-22831-SUM" -> M7
	"T7-AND-45769-SUM" -> M8
	"T7-AND-45769-SUM" -> M9
	"T7-AND-45769-SUM" -> M10
	"T7-AND-45769-SUM" -> M11
	"T7-AND-45769-SUM" -> M12
	"T8-AND-35328-SUM" -> M13
	"T9-OR-44672-MAX" -> M14
	"T9-OR-44672-MAX" -> M15
}
