digraph G {
	"RTS182-AND-80000-SUM" -> "T1-AND-32714-SUM"
	"T1-AND-32714-SUM" -> "T3-OR-32714-MAX"
	"RTS182-AND-80000-SUM" -> "T2-OR-47286-MAX"
	"T2-OR-47286-MAX" -> "T4-AND-47286-SUM"
	"T2-OR-47286-MAX" -> "T5-OR-47286-MAX"
	"T2-OR-47286-MAX" -> "T6-AND-47286-SUM"
	"T3-OR-32714-MAX" -> M1
	"T3-OR-32714-MAX" -> M2
	"T3-OR-32714-MAX" -> M3
	"T4-AND-47286-SUM" -> M4
	"T5-OR-47286-MAX" -> M5
	"T5-OR-47286-MAX" -> M6
	"T6-AND-47286-SUM" -> M7
	"T6-AND-47286-SUM" -> M8
	"T6-AND-47286-SUM" -> M9
	"T6-AND-47286-SUM" -> M10
	"T6-AND-47286-SUM" -> M11
	"T6-AND-47286-SUM" -> M12
}
