digraph G {
	"RTS10-AND-80000-SUM" -> "T1-AND-80000-SUM"
	"T1-AND-80000-SUM" -> "T2-AND-80000-SUM"
	"T2-AND-80000-SUM" -> "T3-OR-4589-MAX"
	"T2-AND-80000-SUM" -> "T4-OR-10613-MAX"
	"T2-AND-80000-SUM" -> "T5-OR-26582-MAX"
	"T2-AND-80000-SUM" -> "T6-AND-38216-SUM"
	"T3-OR-4589-MAX" -> M1
	"T3-OR-4589-MAX" -> M2
	"T4-OR-10613-MAX" -> M3
	"T4-OR-10613-MAX" -> M4
	"T4-OR-10613-MAX" -> M5
	"T5-OR-26582-MAX" -> M6
	"T5-OR-26582-MAX" -> M7
	"T6-AND-38216-SUM" -> M8
	"T6-AND-38216-SUM" -> M9
	"T6-AND-38216-SUM" -> M10
}
