digraph G {
	"RTS199-AND-80000-SUM" -> "T1-OR-80000-MAX"
	"T1-OR-80000-MAX" -> "T2-AND-80000-SUM"
	"T1-OR-80000-MAX" -> "T3-AND-80000-SUM"
	"T1-OR-80000-MAX" -> "T4-OR-80000-MAX"
	"T1-OR-80000-MAX" -> "T5-OR-80000-MAX"
	"T1-OR-80000-MAX" -> "T6-AND-80000-SUM"
	"T2-AND-80000-SUM" -> M1
	"T3-AND-80000-SUM" -> M2
	"T4-OR-80000-MAX" -> M3
	"T4-OR-80000-MAX" -> M4
	"T4-OR-80000-MAX" -> M5
	"T4-OR-80000-MAX" -> M6
	"T4-OR-80000-MAX" -> M7
	"T4-OR-80000-MAX" -> M8
	"T5-OR-80000-MAX" -> M9
	"T5-OR-80000-MAX" -> M10
	"T6-AND-80000-SUM" -> M11
	"T6-AND-80000-SUM" -> M12
	"T6-AND-80000-SUM" -> M13
}
