digraph G {
	"RTS140-AND-80000-SUM" -> "T1-AND-80000-SUM"
	"T1-AND-80000-SUM" -> "T2-AND-2121-SUM"
	"T2-AND-2121-SUM" -> "T5-OR-2121-MAX"
	"T1-AND-80000-SUM" -> "T3-OR-26372-MAX"
	"T3-OR-26372-MAX" -> "T6-AND-26372-SUM"
	"T3-OR-26372-MAX" -> "T7-AND-26372-SUM"
	"T1-AND-80000-SUM" -> "T4-OR-51507-MAX"
	"T4-OR-51507-MAX" -> "T8-AND-51507-SUM"
	"T4-OR-51507-MAX" -> "T9-AND-51507-SUM"
	"T5-OR-2121-MAX" -> M1
	"T5-OR-2121-MAX" -> M2
	"T5-OR-2121-MAX" -> M3
	"T6-AND-26372-SUM" -> M4
	"T7-AND-26372-SUM" -> M5
	"T8-AND-51507-SUM" -> M6
	"T8-AND-51507-SUM" -> M7
	"T8-AND-51507-SUM" -> M8
	"T8-AND-51507-SUM" -> M9
	"T8-AND-51507-SUM" -> M10
	"T9-AND-51507-SUM" -> M11
}
