digraph G {
	"RTS150-AND-80000-SUM" -> "T1-AND-80000-SUM"
	"T1-AND-80000-SUM" -> "T2-AND-80000-SUM"
	"T2-AND-80000-SUM" -> "T3-OR-3935-MAX"
	"T2-AND-80000-SUM" -> "T4-OR-18110-MAX"
	"T2-AND-80000-SUM" -> "T5-AND-26016-SUM"
	"T2-AND-80000-SUM" -> "T6-OR-31939-MAX"
	"T3-OR-3935-MAX" -> M1
	"T3-OR-3935-MAX" -> M2
	"T3-OR-3935-MAX" -> M3
	"T4-OR-18110-MAX" -> M4
	"T4-OR-18110-MAX" -> M5
	"T4-OR-18110-MAX" -> M6
	"T4-OR-18110-MAX" -> M7
	"T5-AND-26016-SUM" -> M8
	"T6-OR-31939-MAX" -> M9
	"T6-OR-31939-MAX" -> M10
	"T6-OR-31939-MAX" -> M11
	"T6-OR-31939-MAX" -> M12
	"T6-OR-31939-MAX" -> M13
	"T6-OR-31939-MAX" -> M14
}
