digraph G {
	"RTS127-AND-80000-SUM" -> "T1-AND-80000-SUM"
	"T1-AND-80000-SUM" -> "T2-OR-3561-MAX"
	"T1-AND-80000-SUM" -> "T3-OR-18430-MAX"
	"T1-AND-80000-SUM" -> "T4-AND-58009-SUM"
	"T2-OR-3561-MAX" -> M1
	"T2-OR-3561-MAX" -> M2
	"T2-OR-3561-MAX" -> M3
	"T2-OR-3561-MAX" -> M4
	"T2-OR-3561-MAX" -> M5
	"T3-OR-18430-MAX" -> M6
	"T3-OR-18430-MAX" -> M7
	"T3-OR-18430-MAX" -> M8
	"T3-OR-18430-MAX" -> M9
	"T4-AND-58009-SUM" -> M10
}
