digraph G {
	"RTS191-AND-80000-SUM" -> "T1-OR-80000-MAX"
	"T1-OR-80000-MAX" -> "T2-AND-80000-SUM"
	"T2-AND-80000-SUM" -> "T4-AND-80000-SUM"
	"T1-OR-80000-MAX" -> "T3-AND-80000-SUM"
	"T3-AND-80000-SUM" -> "T5-OR-11011-MAX"
	"T3-AND-80000-SUM" -> "T6-AND-68989-SUM"
	"T4-AND-80000-SUM" -> M1
	"T5-OR-11011-MAX" -> M2
	"T5-OR-11011-MAX" -> M3
	"T5-OR-11011-MAX" -> M4
	"T6-AND-68989-SUM" -> M5
	"T6-AND-68989-SUM" -> M6
	"T6-AND-68989-SUM" -> M7
	"T6-AND-68989-SUM" -> M8
	"T6-AND-68989-SUM" -> M9
	"T6-AND-68989-SUM" -> M10
	"T6-AND-68989-SUM" -> M11
}
