digraph G {
	"RTS160-AND-80000-SUM" -> "T1-OR-80000-MAX"
	"T1-OR-80000-MAX" -> "T2-AND-80000-SUM"
	"T2-AND-80000-SUM" -> "T4-AND-492-SUM"
	"T2-AND-80000-SUM" -> "T5-AND-3059-SUM"
	"T2-AND-80000-SUM" -> "T6-OR-7587-MAX"
	"T2-AND-80000-SUM" -> "T7-AND-16663-SUM"
	"T2-AND-80000-SUM" -> "T8-AND-52199-SUM"
	"T1-OR-80000-MAX" -> "T3-AND-80000-SUM"
	"T3-AND-80000-SUM" -> "T9-AND-80000-SUM"
	"T4-AND-492-SUM" -> M1
	"T5-AND-3059-SUM" -> M2
	"T6-OR-7587-MAX" -> M3
	"T6-OR-7587-MAX" -> M4
	"T6-OR-7587-MAX" -> M5
	"T6-OR-7587-MAX" -> M6
	"T7-AND-16663-SUM" -> M7
	"T8-AND-52199-SUM" -> M8
	"T8-AND-52199-SUM" -> M9
	"T9-AND-80000-SUM" -> M10
	"T9-AND-80000-SUM" -> M11
	"T9-AND-80000-SUM" -> M12
	"T9-AND-80000-SUM" -> M13
	"T9-AND-80000-SUM" -> M14
}
