digraph G {
	"RTS17-AND-80000-SUM" -> "T1-AND-80000-SUM"
	"T1-AND-80000-SUM" -> "T2-AND-80000-SUM"
	"T2-AND-80000-SUM" -> "T3-AND-2556-SUM"
	"T2-AND-80000-SUM" -> "T4-OR-9516-MAX"
	"T2-AND-80000-SUM" -> "T5-AND-10434-SUM"
	"T2-AND-80000-SUM" -> "T6-AND-11296-SUM"
	"T2-AND-80000-SUM" -> "T7-AND-13261-SUM"
	"T2-AND-80000-SUM" -> "T8-AND-16449-SUM"
	"T2-AND-80000-SUM" -> "T9-AND-16488-SUM"
	"T3-AND-2556-SUM" -> M1
	"T3-AND-2556-SUM" -> M2
	"T4-OR-9516-MAX" -> M3
	"T4-OR-9516-MAX" -> M4
	"T5-AND-10434-SUM" -> M5
	"T6-AND-11296-SUM" -> M6
	"T6-AND-11296-SUM" -> M7
	"T6-AND-11296-SUM" -> M8
	"T6-AND-11296-SUM" -> M9
	"T7-AND-13261-SUM" -> M10
	"T8-AND-16449-SUM" -> M11
	"T8-AND-16449-SUM" -> M12
	"T9-AND-16488-SUM" -> M13
}
