digraph G {
	"RTS132-AND-80000-SUM" -> "T1-AND-80000-SUM"
	"T1-AND-80000-SUM" -> "T2-AND-80000-SUM"
	"T2-AND-80000-SUM" -> "T3-AND-2660-SUM"
	"T2-AND-80000-SUM" -> "T4-AND-5702-SUM"
	"T2-AND-80000-SUM" -> "T5-AND-9900-SUM"
	"T2-AND-80000-SUM" -> "T6-AND-11876-SUM"
	"T2-AND-80000-SUM" -> "T7-OR-13118-MAX"
	"T2-AND-80000-SUM" -> "T8-AND-13343-SUM"
	"T2-AND-80000-SUM" -> "T9-OR-23401-MAX"
	"T3-AND-2660-SUM" -> M1
	"T3-AND-2660-SUM" -> M2
	"T4-AND-5702-SUM" -> M3
	"T5-AND-9900-SUM" -> M4
	"T6-AND-11876-SUM" -> M5
	"T7-OR-13118-MAX" -> M6
	"T7-OR-13118-MAX" -> M7
	"T8-AND-13343-SUM" -> M8
	"T9-OR-23401-MAX" -> M9
	"T9-OR-23401-MAX" -> M10
}
