digraph G {
	"RTS239-AND-80000-SUM" -> "T1-AND-18712-SUM"
	"T1-AND-18712-SUM" -> "T4-OR-18712-MAX"
	"RTS239-AND-80000-SUM" -> "T2-AND-28130-SUM"
	"T2-AND-28130-SUM" -> "T5-AND-28130-SUM"
	"RTS239-AND-80000-SUM" -> "T3-AND-33158-SUM"
	"T3-AND-33158-SUM" -> "T6-OR-33158-MAX"
	"T4-OR-18712-MAX" -> M1
	"T4-OR-18712-MAX" -> M2
	"T4-OR-18712-MAX" -> M3
	"T4-OR-18712-MAX" -> M4
	"T4-OR-18712-MAX" -> M5
	"T4-OR-18712-MAX" -> M6
	"T4-OR-18712-MAX" -> M7
	"T5-AND-28130-SUM" -> M8
	"T6-OR-33158-MAX" -> M9
	"T6-OR-33158-MAX" -> M10
	"T6-OR-33158-MAX" -> M11
	"T6-OR-33158-MAX" -> M12
	"T6-OR-33158-MAX" -> M13
}
