digraph G {
	"RTS20-OR-80000-MAX" -> "T1-AND-80000-SUM"
	"T1-AND-80000-SUM" -> "T3-OR-80000-MAX"
	"T3-OR-80000-MAX" -> "T5-OR-80000-MAX"
	"T3-OR-80000-MAX" -> "T6-AND-80000-SUM"
	"T3-OR-80000-MAX" -> "T7-OR-80000-MAX"
	"T3-OR-80000-MAX" -> "T8-AND-80000-SUM"
	"RTS20-OR-80000-MAX" -> "T2-AND-80000-SUM"
	"T2-AND-80000-SUM" -> "T4-AND-80000-SUM"
	"T4-AND-80000-SUM" -> "T9-AND-80000-SUM"
	"T5-OR-80000-MAX" -> M1
	"T5-OR-80000-MAX" -> M2
	"T6-AND-80000-SUM" -> M3
	"T6-AND-80000-SUM" -> M4
	"T6-AND-80000-SUM" -> M5
	"T7-OR-80000-MAX" -> M6
	"T7-OR-80000-MAX" -> M7
	"T7-OR-80000-MAX" -> M8
	"T8-AND-80000-SUM" -> M9
	"T9-AND-80000-SUM" -> M10
}
