digraph G {
	"RTS237-AND-80000-SUM" -> "T1-AND-34900-SUM"
	"T1-AND-34900-SUM" -> "T3-AND-34900-SUM"
	"T3-AND-34900-SUM" -> "T6-AND-34900-SUM"
	"RTS237-AND-80000-SUM" -> "T2-OR-45100-MAX"
	"T2-OR-45100-MAX" -> "T4-AND-45100-SUM"
	"T4-AND-45100-SUM" -> "T7-OR-9281-MAX"
	"T4-AND-45100-SUM" -> "T8-OR-35819-MAX"
	"T2-OR-45100-MAX" -> "T5-AND-45100-SUM"
	"T5-AND-45100-SUM" -> "T9-AND-45100-SUM"
	"T6-AND-34900-SUM" -> M1
	"T6-AND-34900-SUM" -> M2
	"T7-OR-9281-MAX" -> M3
	"T7-OR-9281-MAX" -> M4
	"T8-OR-35819-MAX" -> M5
	"T8-OR-35819-MAX" -> M6
	"T8-OR-35819-MAX" -> M7
	"T8-OR-35819-MAX" -> M8
	"T8-OR-35819-MAX" -> M9
	"T8-OR-35819-MAX" -> M10
	"T8-OR-35819-MAX" -> M11
	"T9-AND-45100-SUM" -> M12
	"T9-AND-45100-SUM" -> M13
	"T9-AND-45100-SUM" -> M14
	"T9-AND-45100-SUM" -> M15
}
