digraph G {
	"RTS220-AND-80000-SUM" -> "T1-AND-20468-SUM"
	"T1-AND-20468-SUM" -> "T4-AND-20468-SUM"
	"RTS220-AND-80000-SUM" -> "T2-AND-27308-SUM"
	"T2-AND-27308-SUM" -> "T5-OR-27308-MAX"
	"RTS220-AND-80000-SUM" -> "T3-AND-32224-SUM"
	"T3-AND-32224-SUM" -> "T6-AND-32224-SUM"
	"T4-AND-20468-SUM" -> M1
	"T4-AND-20468-SUM" -> M2
	"T4-AND-20468-SUM" -> M3
	"T4-AND-20468-SUM" -> M4
	"T5-OR-27308-MAX" -> M5
	"T5-OR-27308-MAX" -> M6
	"T5-OR-27308-MAX" -> M7
	"T5-OR-27308-MAX" -> M8
	"T5-OR-27308-MAX" -> M9
	"T6-AND-32224-SUM" -> M10
}
