digraph G {
	"RTS234-AND-80000-SUM" -> "T1-AND-8576-SUM"
	"T1-AND-8576-SUM" -> "T4-AND-8576-SUM"
	"T4-AND-8576-SUM" -> "T7-OR-8576-MAX"
	"RTS234-AND-80000-SUM" -> "T2-AND-18057-SUM"
	"T2-AND-18057-SUM" -> "T5-AND-18057-SUM"
	"T5-AND-18057-SUM" -> "T8-AND-18057-SUM"
	"RTS234-AND-80000-SUM" -> "T3-AND-53367-SUM"
	"T3-AND-53367-SUM" -> "T6-AND-53367-SUM"
	"T6-AND-53367-SUM" -> "T9-OR-53367-MAX"
	"T7-OR-8576-MAX" -> M1
	"T7-OR-8576-MAX" -> M2
	"T7-OR-8576-MAX" -> M3
	"T7-OR-8576-MAX" -> M4
	"T7-OR-8576-MAX" -> M5
	"T7-OR-8576-MAX" -> M6
	"T7-OR-8576-MAX" -> M7
	"T7-OR-8576-MAX" -> M8
	"T7-OR-8576-MAX" -> M9
	"T7-OR-8576-MAX" -> M10
	"T8-AND-18057-SUM" -> M11
	"T9-OR-53367-MAX" -> M12
	"T9-OR-53367-MAX" -> M13
	"T9-OR-53367-MAX" -> M14
	"T9-OR-53367-MAX" -> M15
}
