digraph G {
	"RTS22-AND-80000-SUM" -> "T1-AND-80000-SUM"
	"T1-AND-80000-SUM" -> "T2-OR-10733-MAX"
	"T2-OR-10733-MAX" -> "T4-AND-10733-SUM"
	"T2-OR-10733-MAX" -> "T5-OR-10733-MAX"
	"T2-OR-10733-MAX" -> "T6-OR-10733-MAX"
	"T2-OR-10733-MAX" -> "T7-AND-10733-SUM"
	"T2-OR-10733-MAX" -> "T8-AND-10733-SUM"
	"T1-AND-80000-SUM" -> "T3-AND-69267-SUM"
	"T3-AND-69267-SUM" -> "T9-AND-69267-SUM"
	"T4-AND-10733-SUM" -> M1
	"T5-OR-10733-MAX" -> M2
	"T5-OR-10733-MAX" -> M3
	"T6-OR-10733-MAX" -> M4
	"T6-OR-10733-MAX" -> M5
	"T6-OR-10733-MAX" -> M6
	"T6-OR-10733-MAX" -> M7
	"T6-OR-10733-MAX" -> M8
	"T7-AND-10733-SUM" -> M9
	"T8-AND-10733-SUM" -> M10
	"T8-AND-10733-SUM" -> M11
	"T9-AND-69267-SUM" -> M12
}
