digraph G {
	"RTS44-AND-80000-SUM" -> "T1-AND-80000-SUM"
	"T1-AND-80000-SUM" -> "T2-AND-13745-SUM"
	"T1-AND-80000-SUM" -> "T3-AND-18218-SUM"
	"T1-AND-80000-SUM" -> "T4-AND-48037-SUM"
	"T2-AND-13745-SUM" -> M1
	"T3-AND-18218-SUM" -> M2
	"T3-AND-18218-SUM" -> M3
	"T3-AND-18218-SUM" -> M4
	"T3-AND-18218-SUM" -> M5
	"T3-AND-18218-SUM" -> M6
	"T3-AND-18218-SUM" -> M7
	"T3-AND-18218-SUM" -> M8
	"T4-AND-48037-SUM" -> M9
	"T4-AND-48037-SUM" -> M10
	"T4-AND-48037-SUM" -> M11
	"T4-AND-48037-SUM" -> M12
	"T4-AND-48037-SUM" -> M13
	"T4-AND-48037-SUM" -> M14
	"T4-AND-48037-SUM" -> M15
}
