digraph G {
	"RTS52-OR-80000-MAX" -> "T1-AND-80000-SUM"
	"T1-AND-80000-SUM" -> "T3-OR-3541-MAX"
	"T1-AND-80000-SUM" -> "T4-AND-76459-SUM"
	"RTS52-OR-80000-MAX" -> "T2-AND-80000-SUM"
	"T2-AND-80000-SUM" -> "T5-OR-12914-MAX"
	"T2-AND-80000-SUM" -> "T6-AND-67086-SUM"
	"T3-OR-3541-MAX" -> M1
	"T3-OR-3541-MAX" -> M2
	"T4-AND-76459-SUM" -> M3
	"T4-AND-76459-SUM" -> M4
	"T4-AND-76459-SUM" -> M5
	"T4-AND-76459-SUM" -> M6
	"T4-AND-76459-SUM" -> M7
	"T4-AND-76459-SUM" -> M8
	"T5-OR-12914-MAX" -> M9
	"T5-OR-12914-MAX" -> M10
	"T6-AND-67086-SUM" -> M11
}
