digraph G {
	"RTS63-AND-80000-SUM" -> "T1-AND-80000-SUM"
	"T1-AND-80000-SUM" -> "T2-AND-341-SUM"
	"T1-AND-80000-SUM" -> "T3-AND-395-SUM"
	"T1-AND-80000-SUM" -> "T4-AND-4232-SUM"
	"T1-AND-80000-SUM" -> "T5-OR-11627-MAX"
	"T1-AND-80000-SUM" -> "T6-OR-63405-MAX"
	"T2-AND-341-SUM" -> M1
	"T3-AND-395-SUM" -> M2
	"T4-AND-4232-SUM" -> M3
	"T5-OR-11627-MAX" -> M4
	"T5-OR-11627-MAX" -> M5
	"T5-OR-11627-MAX" -> M6
	"T5-OR-11627-MAX" -> M7
	"T6-OR-63405-MAX" -> M8
	"T6-OR-63405-MAX" -> M9
	"T6-OR-63405-MAX" -> M10
}
