digraph G {
	"RTS71-AND-80000-SUM" -> "T1-AND-80000-SUM"
	"T1-AND-80000-SUM" -> "T2-AND-9315-SUM"
	"T2-AND-9315-SUM" -> "T4-OR-9315-MAX"
	"T1-AND-80000-SUM" -> "T3-OR-70685-MAX"
	"T3-OR-70685-MAX" -> "T5-OR-70685-MAX"
	"T3-OR-70685-MAX" -> "T6-AND-70685-SUM"
	"T4-OR-9315-MAX" -> M1
	"T4-OR-9315-MAX" -> M2
	"T4-OR-9315-MAX" -> M3
	"T5-OR-70685-MAX" -> M4
	"T5-OR-70685-MAX" -> M5
	"T5-OR-70685-MAX" -> M6
	"T5-OR-70685-MAX" -> M7
	"T5-OR-70685-MAX" -> M8
	"T6-AND-70685-SUM" -> M9
	"T6-AND-70685-SUM" -> M10
	"T6-AND-70685-SUM" -> M11
	"T6-AND-70685-SUM" -> M12
}
