digraph G {
	"RTS83-AND-80000-SUM" -> "T1-AND-9712-SUM"
	"T1-AND-9712-SUM" -> "T4-AND-9712-SUM"
	"RTS83-AND-80000-SUM" -> "T2-AND-20026-SUM"
	"T2-AND-20026-SUM" -> "T5-OR-20026-MAX"
	"RTS83-AND-80000-SUM" -> "T3-AND-50262-SUM"
	"T3-AND-50262-SUM" -> "T6-OR-50262-MAX"
	"T4-AND-9712-SUM" -> M1
	"T5-OR-20026-MAX" -> M2
	"T5-OR-20026-MAX" -> M3
	"T5-OR-20026-MAX" -> M4
	"T5-OR-20026-MAX" -> M5
	"T5-OR-20026-MAX" -> M6
	"T5-OR-20026-MAX" -> M7
	"T5-OR-20026-MAX" -> M8
	"T5-OR-20026-MAX" -> M9
	"T5-OR-20026-MAX" -> M10
	"T5-OR-20026-MAX" -> M11
	"T5-OR-20026-MAX" -> M12
	"T6-OR-50262-MAX" -> M13
	"T6-OR-50262-MAX" -> M14
	"T6-OR-50262-MAX" -> M15
}
