####### Sequential Logger #######



    ## Message ##
        Sending a SetRandomSeedMessage to Agent1
        The random seed is 2859229020


    ## Message ##
        Sending a InitialTreeMessage to Agent1
        Tree Head: Problem1


    ## Message ##
        Sending a StartSimulationMessage to Agent1
        The Simulation has Started


    ## Message ##
        Sending a NextTickMessage to Agent1
        Tick 1 has occurred


    ## Message ##
        Sending a NextTickMessage to Agent1
        Tick 2 has occurred


    ## Message ##
        Sending a NextTickMessage to Agent1
        Tick 3 has occurred


    ## Message ##
        Sending a NextTickMessage to Agent1
        Tick 4 has occurred


    ## Message ##
        Sending a NextTickMessage to Agent1
        Tick 5 has occurred


    ## Message ##
        Received a AskMethodStatusMessage From Agent1
        Asked Status of Method1


    ## Message ##
        Received a AskMethodStatusMessage From Agent1
        Asked Status of Method4


    ## Message ##
        Received a AskMethodStatusMessage From Agent1
        Asked Status of Method6


    ## Message ##
        Received a AskMethodStatusMessage From Agent1
        Asked Status of Method2


    ## Message ##
        Received a AskMethodStatusMessage From Agent1
        Asked Status of Method15


    ## Message ##
        Received a AskMethodStatusMessage From Agent1
        Asked Status of Method3


    ## Message ##
        Received a AskMethodStatusMessage From Agent1
        Asked Status of Method16


    ## Message ##
        Received a AskMethodStatusMessage From Agent1
        Asked Status of Method5


    ## Message ##
        Received a AskMethodStatusMessage From Agent1
        Asked Status of Method23


    ## Message ##
        Received a AskMethodStatusMessage From Agent1
        Asked Status of Method7


    ## Message ##
        Received a AskMethodStatusMessage From Agent1
        Asked Status of Method8


    ## Message ##
        Received a AskMethodStatusMessage From Agent1
        Asked Status of Method9


    ## Message ##
        Received a AskMethodStatusMessage From Agent1
        Asked Status of Method25


    ## Message ##
        Received a AskMethodStatusMessage From Agent1
        Asked Status of Method10


    ## Message ##
        Received a AskMethodStatusMessage From Agent1
        Asked Status of Method18


    ## Message ##
        Received a AskMethodStatusMessage From Agent1
        Asked Status of Method11


    ## Message ##
        Received a AskMethodStatusMessage From Agent1
        Asked Status of Method27


    ## Message ##
        Received a AskMethodStatusMessage From Agent1
        Asked Status of Method12


    ## Message ##
        Received a AskMethodStatusMessage From Agent1
        Asked Status of Method28


    ## Message ##
        Received a AskMethodStatusMessage From Agent1
        Asked Status of Method13


    ## Message ##
        Received a AskMethodStatusMessage From Agent1
        Asked Status of Method30


    ## Message ##
        Received a AskMethodStatusMessage From Agent1
        Asked Status of Method14


    ## Message ##
        Received a AskMethodStatusMessage From Agent1
        Asked Status of Method29


    ## Message ##
        Received a AskMethodStatusMessage From Agent1
        Asked Status of Method17


    ## Message ##
        Received a AskMethodStatusMessage From Agent1
        Asked Status of Method19


    ## Message ##
        Received a AskMethodStatusMessage From Agent1
        Asked Status of Method22


    ## Message ##
        Received a AskMethodStatusMessage From Agent1
        Asked Status of Method20


    ## Message ##
        Received a AskMethodStatusMessage From Agent1
        Asked Status of Method21


    ## Message ##
        Received a AskMethodStatusMessage From Agent1
        Asked Status of Method24


    ## Message ##
        Received a AskMethodStatusMessage From Agent1
        Asked Status of Method26


    ## Message ##
        Sending a NextTickMessage to Agent1
        Tick 6 has occurred


    ## Message ##
        Sending a NotifyMethodStatusMessage to Agent1
        Method1 is Enabled: true Completed: false In Progress: false


    ## Message ##
        Sending a NotifyMethodStatusMessage to Agent1
        Method4 is Enabled: false Completed: false In Progress: false


    ## Message ##
        Sending a NotifyMethodStatusMessage to Agent1
        Method6 is Enabled: true Completed: false In Progress: false


    ## Message ##
        Sending a NotifyMethodStatusMessage to Agent1
        Method2 is Enabled: true Completed: false In Progress: false


    ## Message ##
        Sending a NotifyMethodStatusMessage to Agent1
        Method15 is Enabled: true Completed: false In Progress: false


    ## Message ##
        Sending a NotifyMethodStatusMessage to Agent1
        Method3 is Enabled: true Completed: false In Progress: false


    ## Message ##
        Sending a NotifyMethodStatusMessage to Agent1
        Method16 is Enabled: true Completed: false In Progress: false


    ## Message ##
        Sending a NotifyMethodStatusMessage to Agent1
        Method5 is Enabled: true Completed: false In Progress: false


    ## Message ##
        Sending a NotifyMethodStatusMessage to Agent1
        Method23 is Enabled: true Completed: false In Progress: false


    ## Message ##
        Sending a NotifyMethodStatusMessage to Agent1
        Method7 is Enabled: true Completed: false In Progress: false


    ## Message ##
        Sending a NotifyMethodStatusMessage to Agent1
        Method8 is Enabled: true Completed: false In Progress: false


    ## Message ##
        Sending a NotifyMethodStatusMessage to Agent1
        Method9 is Enabled: true Completed: false In Progress: false


    ## Message ##
        Sending a NotifyMethodStatusMessage to Agent1
        Method25 is Enabled: false Completed: false In Progress: false


    ## Message ##
        Sending a NotifyMethodStatusMessage to Agent1
        Method10 is Enabled: true Completed: false In Progress: false


    ## Message ##
        Sending a NotifyMethodStatusMessage to Agent1
        Method18 is Enabled: true Completed: false In Progress: false


    ## Message ##
        Sending a NotifyMethodStatusMessage to Agent1
        Method11 is Enabled: false Completed: false In Progress: false


    ## Message ##
        Sending a NotifyMethodStatusMessage to Agent1
        Method27 is Enabled: true Completed: false In Progress: false


    ## Message ##
        Sending a NotifyMethodStatusMessage to Agent1
        Method12 is Enabled: true Completed: false In Progress: false


    ## Message ##
        Sending a NotifyMethodStatusMessage to Agent1
        Method28 is Enabled: true Completed: false In Progress: false


    ## Message ##
        Sending a NotifyMethodStatusMessage to Agent1
        Method13 is Enabled: true Completed: false In Progress: false


    ## Message ##
        Sending a NotifyMethodStatusMessage to Agent1
        Method30 is Enabled: true Completed: false In Progress: false


    ## Message ##
        Sending a NotifyMethodStatusMessage to Agent1
        Method14 is Enabled: true Completed: false In Progress: false


    ## Message ##
        Sending a NotifyMethodStatusMessage to Agent1
        Method29 is Enabled: true Completed: false In Progress: false


    ## Message ##
        Sending a NotifyMethodStatusMessage to Agent1
        Method17 is Enabled: true Completed: false In Progress: false


    ## Message ##
        Sending a NotifyMethodStatusMessage to Agent1
        Method19 is Enabled: false Completed: false In Progress: false


    ## Message ##
        Sending a NotifyMethodStatusMessage to Agent1
        Method22 is Enabled: true Completed: false In Progress: false


    ## Message ##
        Sending a NotifyMethodStatusMessage to Agent1
        Method20 is Enabled: true Completed: false In Progress: false


    ## Message ##
        Sending a NotifyMethodStatusMessage to Agent1
        Method21 is Enabled: true Completed: false In Progress: false


    ## Message ##
        Sending a NotifyMethodStatusMessage to Agent1
        Method24 is Enabled: true Completed: false In Progress: false


    ## Message ##
        Sending a NotifyMethodStatusMessage to Agent1
        Method26 is Enabled: true Completed: false In Progress: false


    ## Message ##
        Sending a NextTickMessage to Agent1
        Tick 7 has occurred


    ## Message ##
        Sending a NextTickMessage to Agent1
        Tick 8 has occurred


    ## Message ##
        Received a StartMethodMessage From Agent1
        Agent1 has asked to start Method28


    ## Message ##
        Sending a NextTickMessage to Agent1
        Tick 9 has occurred


    ## Message ##
        Sending a ConfirmMethodStartMessage to Agent1
        Method28 has started: true


    ## Message ##
        Sending a NextTickMessage to Agent1
        Tick 10 has occurred


    ## Message ##
        Sending a NextTickMessage to Agent1
        Tick 11 has occurred


    ## Message ##
        Sending a NextTickMessage to Agent1
        Tick 12 has occurred


    ## Message ##
        Sending a NextTickMessage to Agent1
        Tick 13 has occurred


    ## Relationship ##
        Name: hinders3
        Type: Hinders
        Source : Method28
        Target : Method12


    ## Message ##
        Sending a NotifyRelationshipActivationMessage to Agent1
         Relationship hinders3 has been activated


    ## Method ##
        Name: Method28
        Completed By : Agent1
        With Quality : 27.0
        With Duration: 4
        End Time: 13


    ## Message ##
        Sending a NotifyMethodCompletedMessage to Agent1
        Agent1 has completed Method28


    ## Message ##
        Sending a NextTickMessage to Agent1
        Tick 14 has occurred


    ## Message ##
        Sending a NextTickMessage to Agent1
        Tick 15 has occurred


    ## Message ##
        Received a StartMethodMessage From Agent1
        Agent1 has asked to start Method14


    ## Message ##
        Sending a NextTickMessage to Agent1
        Tick 16 has occurred


    ## Message ##
        Sending a ConfirmMethodStartMessage to Agent1
        Method14 has started: true


    ## Message ##
        Sending a NextTickMessage to Agent1
        Tick 17 has occurred


    ## Message ##
        Sending a NextTickMessage to Agent1
        Tick 18 has occurred


    ## Message ##
        Sending a NextTickMessage to Agent1
        Tick 19 has occurred


    ## Message ##
        Sending a NextTickMessage to Agent1
        Tick 20 has occurred


    ## Relationship ##
        Name: disables3
        Type: Disables
        Source : Method29
        Target : Method14


    ## Method ##
        Name: Method14
        Completed By : Agent1
        With Quality : 8.0
        With Duration: 4
        End Time: 20


    ## Message ##
        Sending a NotifyMethodCompletedMessage to Agent1
        Agent1 has completed Method14


    ## Message ##
        Sending a NextTickMessage to Agent1
        Tick 21 has occurred


    ## Message ##
        Sending a NextTickMessage to Agent1
        Tick 22 has occurred


    ## Message ##
        Received a StartMethodMessage From Agent1
        Agent1 has asked to start Method16


    ## Message ##
        Sending a NextTickMessage to Agent1
        Tick 23 has occurred


    ## Message ##
        Sending a ConfirmMethodStartMessage to Agent1
        Method16 has started: true


    ## Message ##
        Sending a NextTickMessage to Agent1
        Tick 24 has occurred


    ## Message ##
        Sending a NextTickMessage to Agent1
        Tick 25 has occurred


    ## Message ##
        Sending a NextTickMessage to Agent1
        Tick 26 has occurred


    ## Message ##
        Sending a NextTickMessage to Agent1
        Tick 27 has occurred


    ## Message ##
        Sending a NextTickMessage to Agent1
        Tick 28 has occurred


    ## Message ##
        Sending a NextTickMessage to Agent1
        Tick 29 has occurred


    ## Relationship ##
        Name: disables2
        Type: Disables
        Source : Method16
        Target : Method3


    ## Message ##
        Sending a NotifyRelationshipActivationMessage to Agent1
         Relationship disables2 has been activated


    ## Method ##
        Name: Method16
        Completed By : Agent1
        With Quality : 7.0
        With Duration: 6
        End Time: 29


    ## Message ##
        Sending a NotifyMethodCompletedMessage to Agent1
        Agent1 has completed Method16


    ## Message ##
        Sending a NextTickMessage to Agent1
        Tick 30 has occurred


    ## Message ##
        Received a StartMethodMessage From Agent1
        Agent1 has asked to start Method12


    ## Message ##
        Sending a NextTickMessage to Agent1
        Tick 31 has occurred


    ## Message ##
        Sending a ConfirmMethodStartMessage to Agent1
        Method12 has started: true


    ## Message ##
        Sending a NextTickMessage to Agent1
        Tick 32 has occurred


    ## Message ##
        Sending a NextTickMessage to Agent1
        Tick 33 has occurred


    ## Message ##
        Sending a NextTickMessage to Agent1
        Tick 34 has occurred


    ## Message ##
        Sending a NextTickMessage to Agent1
        Tick 35 has occurred


    ## Message ##
        Sending a NextTickMessage to Agent1
        Tick 36 has occurred


    ## Message ##
        Sending a NextTickMessage to Agent1
        Tick 37 has occurred


    ## Message ##
        Sending a NextTickMessage to Agent1
        Tick 38 has occurred


    ## Message ##
        Sending a NextTickMessage to Agent1
        Tick 39 has occurred


    ## Message ##
        Sending a NextTickMessage to Agent1
        Tick 40 has occurred


    ## Message ##
        Sending a NextTickMessage to Agent1
        Tick 41 has occurred


    ## Message ##
        Sending a NextTickMessage to Agent1
        Tick 42 has occurred


    ## Message ##
        Sending a NextTickMessage to Agent1
        Tick 43 has occurred


    ## Method ##
        Name: Method12
        Completed By : Agent1
        With Quality : 5.0
        With Duration: 12
        End Time: 43


    ## Message ##
        Sending a NotifyMethodCompletedMessage to Agent1
        Agent1 has completed Method12


    ## Message ##
        Sending a NextTickMessage to Agent1
        Tick 44 has occurred


    ## Message ##
        Sending a NextTickMessage to Agent1
        Tick 45 has occurred


    ## Message ##
        Received a StartMethodMessage From Agent1
        Agent1 has asked to start Method1


    ## Message ##
        Sending a NextTickMessage to Agent1
        Tick 46 has occurred


    ## Message ##
        Sending a ConfirmMethodStartMessage to Agent1
        Method1 has started: true


    ## Message ##
        Sending a NextTickMessage to Agent1
        Tick 47 has occurred


    ## Message ##
        Sending a NextTickMessage to Agent1
        Tick 48 has occurred


    ## Relationship ##
        Name: enables1
        Type: Enables
        Source : Method1
        Target : Method4


    ## Message ##
        Sending a NotifyRelationshipActivationMessage to Agent1
         Relationship enables1 has been activated


    ## Method ##
        Name: Method1
        Completed By : Agent1
        With Quality : 27.0
        With Duration: 2
        End Time: 48


    ## Message ##
        Sending a NotifyMethodCompletedMessage to Agent1
        Agent1 has completed Method1


    ## Message ##
        Sending a NextTickMessage to Agent1
        Tick 49 has occurred


    ## Message ##
        Received a StartMethodMessage From Agent1
        Agent1 has asked to start Method29


    ## Message ##
        Sending a NextTickMessage to Agent1
        Tick 50 has occurred


    ## Message ##
        Sending a ConfirmMethodStartMessage to Agent1
        Method29 has started: true


    ## Message ##
        Sending a NextTickMessage to Agent1
        Tick 51 has occurred


    ## Message ##
        Sending a NextTickMessage to Agent1
        Tick 52 has occurred


    ## Message ##
        Sending a NextTickMessage to Agent1
        Tick 53 has occurred


    ## Message ##
        Sending a NextTickMessage to Agent1
        Tick 54 has occurred


    ## Message ##
        Sending a NotifyRelationshipActivationMessage to Agent1
         Relationship disables3 has been activated


    ## Method ##
        Name: Method29
        Completed By : Agent1
        With Quality : 5.0
        With Duration: 4
        End Time: 54


    ## Message ##
        Sending a NotifyMethodCompletedMessage to Agent1
        Agent1 has completed Method29


    ## Message ##
        Sending a NextTickMessage to Agent1
        Tick 55 has occurred


    ## Message ##
        Sending a NextTickMessage to Agent1
        Tick 56 has occurred


    ## Message ##
        Received a StartMethodMessage From Agent1
        Agent1 has asked to start Method30


    ## Message ##
        Sending a NextTickMessage to Agent1
        Tick 57 has occurred


    ## Message ##
        Sending a ConfirmMethodStartMessage to Agent1
        Method30 has started: true


    ## Message ##
        Sending a NextTickMessage to Agent1
        Tick 58 has occurred


    ## Message ##
        Sending a NextTickMessage to Agent1
        Tick 59 has occurred


    ## Message ##
        Sending a NextTickMessage to Agent1
        Tick 60 has occurred


    ## Relationship ##
        Name: facilitates3
        Type: Facilitates
        Source : Method13
        Target : Method30


    ## Method ##
        Name: Method30
        Completed By : Agent1
        With Quality : 3.0
        With Duration: 3
        End Time: 60


    ## Message ##
        Sending a NotifyMethodCompletedMessage to Agent1
        Agent1 has completed Method30


    ## Message ##
        Sending a NextTickMessage to Agent1
        Tick 61 has occurred


    ## Message ##
        Sending a NextTickMessage to Agent1
        Tick 62 has occurred


    ## Message ##
        Received a StartMethodMessage From Agent1
        Agent1 has asked to start Method22


    ## Message ##
        Sending a NextTickMessage to Agent1
        Tick 63 has occurred


    ## Message ##
        Sending a ConfirmMethodStartMessage to Agent1
        Method22 has started: true


    ## Message ##
        Sending a NextTickMessage to Agent1
        Tick 64 has occurred


    ## Message ##
        Sending a NextTickMessage to Agent1
        Tick 65 has occurred


    ## Message ##
        Sending a NextTickMessage to Agent1
        Tick 66 has occurred


    ## Message ##
        Sending a NextTickMessage to Agent1
        Tick 67 has occurred


    ## Message ##
        Sending a NextTickMessage to Agent1
        Tick 68 has occurred


    ## Relationship ##
        Name: enables4
        Type: Enables
        Source : Method22
        Target : Method19


    ## Message ##
        Sending a NotifyRelationshipActivationMessage to Agent1
         Relationship enables4 has been activated


    ## Method ##
        Name: Method22
        Completed By : Agent1
        With Quality : 32.0
        With Duration: 5
        End Time: 68


    ## Message ##
        Sending a NotifyMethodCompletedMessage to Agent1
        Agent1 has completed Method22


    ## Message ##
        Sending a NextTickMessage to Agent1
        Tick 69 has occurred


    ## Message ##
        Received a StartMethodMessage From Agent1
        Agent1 has asked to start Method9


    ## Message ##
        Sending a NextTickMessage to Agent1
        Tick 70 has occurred


    ## Message ##
        Sending a ConfirmMethodStartMessage to Agent1
        Method9 has started: true


    ## Message ##
        Sending a NextTickMessage to Agent1
        Tick 71 has occurred


    ## Message ##
        Sending a NextTickMessage to Agent1
        Tick 72 has occurred


    ## Message ##
        Sending a NextTickMessage to Agent1
        Tick 73 has occurred


    ## Message ##
        Sending a NextTickMessage to Agent1
        Tick 74 has occurred


    ## Message ##
        Sending a NextTickMessage to Agent1
        Tick 75 has occurred


    ## Relationship ##
        Name: enables2
        Type: Enables
        Source : Method9
        Target : Method25


    ## Relationship ##
        Name: enables2
        Type: Enables
        Source : Method9
        Target : Method25


    ## Message ##
        Sending a NotifyRelationshipActivationMessage to Agent1
         Relationship enables2 has been activated


    ## Method ##
        Name: Method9
        Completed By : Agent1
        With Quality : 1.0
        With Duration: 5
        End Time: 75


    ## Message ##
        Sending a NotifyMethodCompletedMessage to Agent1
        Agent1 has completed Method9


    ## Message ##
        Sending a NextTickMessage to Agent1
        Tick 76 has occurred


    ## Message ##
        Received a StartMethodMessage From Agent1
        Agent1 has asked to start Method19


    ## Message ##
        Sending a NextTickMessage to Agent1
        Tick 77 has occurred


    ## Message ##
        Sending a ConfirmMethodStartMessage to Agent1
        Method19 has started: true


    ## Message ##
        Sending a NextTickMessage to Agent1
        Tick 78 has occurred


    ## Method ##
        Name: Method19
        Completed By : Agent1
        With Quality : 1.0
        With Duration: 1
        End Time: 78


    ## Message ##
        Sending a NotifyMethodCompletedMessage to Agent1
        Agent1 has completed Method19


    ## Message ##
        Sending a NextTickMessage to Agent1
        Tick 79 has occurred


    ## Message ##
        Received a StartMethodMessage From Agent1
        Agent1 has asked to start Method3


    ## Message ##
        Sending a NextTickMessage to Agent1
        Tick 80 has occurred


    ## Message ##
        Sending a ConfirmMethodStartMessage to Agent1
        Method3 has started: false


    ## Message ##
        Sending a NextTickMessage to Agent1
        Tick 81 has occurred


    ## Message ##
        Received a StartMethodMessage From Agent1
        Agent1 has asked to start Method6


    ## Message ##
        Sending a NextTickMessage to Agent1
        Tick 82 has occurred


    ## Message ##
        Sending a ConfirmMethodStartMessage to Agent1
        Method6 has started: true


    ## Message ##
        Sending a NextTickMessage to Agent1
        Tick 83 has occurred


    ## Message ##
        Sending a NextTickMessage to Agent1
        Tick 84 has occurred


    ## Message ##
        Sending a NextTickMessage to Agent1
        Tick 85 has occurred


    ## Message ##
        Sending a NextTickMessage to Agent1
        Tick 86 has occurred


    ## Message ##
        Sending a NextTickMessage to Agent1
        Tick 87 has occurred


    ## Message ##
        Sending a NextTickMessage to Agent1
        Tick 88 has occurred


    ## Message ##
        Sending a NextTickMessage to Agent1
        Tick 89 has occurred


    ## Message ##
        Sending a NextTickMessage to Agent1
        Tick 90 has occurred


    ## Message ##
        Sending a NextTickMessage to Agent1
        Tick 91 has occurred


    ## Message ##
        Sending a NextTickMessage to Agent1
        Tick 92 has occurred


    ## Message ##
        Sending a NextTickMessage to Agent1
        Tick 93 has occurred


    ## Message ##
        Sending a NextTickMessage to Agent1
        Tick 94 has occurred


    ## Relationship ##
        Name: disables1
        Type: Disables
        Source : Method4
        Target : Method6


    ## Method ##
        Name: Method6
        Completed By : Agent1
        With Quality : 11.0
        With Duration: 12
        End Time: 94


    ## Message ##
        Sending a NotifyMethodCompletedMessage to Agent1
        Agent1 has completed Method6


    ## Message ##
        Sending a NextTickMessage to Agent1
        Tick 95 has occurred


    ## Message ##
        Received a StartMethodMessage From Agent1
        Agent1 has asked to start Method2


    ## Message ##
        Sending a NextTickMessage to Agent1
        Tick 96 has occurred


    ## Message ##
        Sending a ConfirmMethodStartMessage to Agent1
        Method2 has started: true


    ## Message ##
        Sending a NextTickMessage to Agent1
        Tick 97 has occurred


    ## Message ##
        Sending a NextTickMessage to Agent1
        Tick 98 has occurred


    ## Message ##
        Sending a NextTickMessage to Agent1
        Tick 99 has occurred


    ## Message ##
        Sending a NextTickMessage to Agent1
        Tick 100 has occurred


    ## Message ##
        Sending a NextTickMessage to Agent1
        Tick 101 has occurred


    ## Message ##
        Sending a NextTickMessage to Agent1
        Tick 102 has occurred


    ## Message ##
        Sending a NextTickMessage to Agent1
        Tick 103 has occurred


    ## Relationship ##
        Name: hinders1
        Type: Hinders
        Source : Method2
        Target : Method15


    ## Message ##
        Sending a NotifyRelationshipActivationMessage to Agent1
         Relationship hinders1 has been activated


    ## Method ##
        Name: Method2
        Completed By : Agent1
        With Quality : 17.0
        With Duration: 7
        End Time: 103


    ## Message ##
        Sending a NotifyMethodCompletedMessage to Agent1
        Agent1 has completed Method2


    ## Message ##
        Sending a NextTickMessage to Agent1
        Tick 104 has occurred


    ## Message ##
        Received a StartMethodMessage From Agent1
        Agent1 has asked to start Method27


    ## Message ##
        Sending a NextTickMessage to Agent1
        Tick 105 has occurred


    ## Message ##
        Sending a ConfirmMethodStartMessage to Agent1
        Method27 has started: true


    ## Message ##
        Sending a NextTickMessage to Agent1
        Tick 106 has occurred


    ## Message ##
        Sending a NextTickMessage to Agent1
        Tick 107 has occurred


    ## Message ##
        Sending a NextTickMessage to Agent1
        Tick 108 has occurred


    ## Message ##
        Sending a NextTickMessage to Agent1
        Tick 109 has occurred


    ## Message ##
        Sending a NextTickMessage to Agent1
        Tick 110 has occurred


    ## Message ##
        Sending a NextTickMessage to Agent1
        Tick 111 has occurred


    ## Message ##
        Sending a NextTickMessage to Agent1
        Tick 112 has occurred


    ## Message ##
        Sending a NextTickMessage to Agent1
        Tick 113 has occurred


    ## Message ##
        Sending a NextTickMessage to Agent1
        Tick 114 has occurred


    ## Message ##
        Sending a NextTickMessage to Agent1
        Tick 115 has occurred


    ## Message ##
        Sending a NextTickMessage to Agent1
        Tick 116 has occurred


    ## Message ##
        Sending a NextTickMessage to Agent1
        Tick 117 has occurred


    ## Message ##
        Sending a NextTickMessage to Agent1
        Tick 118 has occurred


    ## Message ##
        Sending a NextTickMessage to Agent1
        Tick 119 has occurred


    ## Message ##
        Sending a NextTickMessage to Agent1
        Tick 120 has occurred


    ## Message ##
        Sending a NextTickMessage to Agent1
        Tick 121 has occurred


    ## Message ##
        Sending a NextTickMessage to Agent1
        Tick 122 has occurred


    ## Relationship ##
        Name: enables3
        Type: Enables
        Source : Method27
        Target : Method11


    ## Message ##
        Sending a NotifyRelationshipActivationMessage to Agent1
         Relationship enables3 has been activated


    ## Method ##
        Name: Method27
        Completed By : Agent1
        With Quality : 18.0
        With Duration: 17
        End Time: 122


    ## Message ##
        Sending a NotifyMethodCompletedMessage to Agent1
        Agent1 has completed Method27


    ## Message ##
        Sending a NextTickMessage to Agent1
        Tick 123 has occurred


    ## Message ##
        Received a StartMethodMessage From Agent1
        Agent1 has asked to start Method23


    ## Message ##
        Sending a NextTickMessage to Agent1
        Tick 124 has occurred


    ## Message ##
        Sending a ConfirmMethodStartMessage to Agent1
        Method23 has started: true


    ## Message ##
        Sending a NextTickMessage to Agent1
        Tick 125 has occurred


    ## Message ##
        Sending a NextTickMessage to Agent1
        Tick 126 has occurred


    ## Message ##
        Sending a NextTickMessage to Agent1
        Tick 127 has occurred


    ## Message ##
        Sending a NextTickMessage to Agent1
        Tick 128 has occurred


    ## Relationship ##
        Name: hinders2
        Type: Hinders
        Source : Method5
        Target : Method23


    ## Method ##
        Name: Method23
        Completed By : Agent1
        With Quality : 2.0
        With Duration: 4
        End Time: 128


    ## Message ##
        Sending a NotifyMethodCompletedMessage to Agent1
        Agent1 has completed Method23


    ## Message ##
        Sending a NextTickMessage to Agent1
        Tick 129 has occurred


    ## Message ##
        Received a StartMethodMessage From Agent1
        Agent1 has asked to start Method8


    ## Message ##
        Sending a NextTickMessage to Agent1
        Tick 130 has occurred


    ## Message ##
        Sending a ConfirmMethodStartMessage to Agent1
        Method8 has started: true


    ## Message ##
        Sending a NextTickMessage to Agent1
        Tick 131 has occurred


    ## Message ##
        Sending a NextTickMessage to Agent1
        Tick 132 has occurred


    ## Message ##
        Sending a NextTickMessage to Agent1
        Tick 133 has occurred


    ## Message ##
        Sending a NextTickMessage to Agent1
        Tick 134 has occurred


    ## Message ##
        Sending a NextTickMessage to Agent1
        Tick 135 has occurred


    ## Message ##
        Sending a NextTickMessage to Agent1
        Tick 136 has occurred


    ## Message ##
        Sending a NextTickMessage to Agent1
        Tick 137 has occurred


    ## Message ##
        Sending a NextTickMessage to Agent1
        Tick 138 has occurred


    ## Message ##
        Sending a NextTickMessage to Agent1
        Tick 139 has occurred


    ## Message ##
        Sending a NextTickMessage to Agent1
        Tick 140 has occurred


    ## Message ##
        Sending a NextTickMessage to Agent1
        Tick 141 has occurred


    ## Message ##
        Sending a NextTickMessage to Agent1
        Tick 142 has occurred


    ## Message ##
        Sending a NextTickMessage to Agent1
        Tick 143 has occurred


    ## Message ##
        Sending a NextTickMessage to Agent1
        Tick 144 has occurred


    ## Message ##
        Sending a NextTickMessage to Agent1
        Tick 145 has occurred


    ## Message ##
        Sending a NextTickMessage to Agent1
        Tick 146 has occurred


    ## Message ##
        Sending a NextTickMessage to Agent1
        Tick 147 has occurred


    ## Relationship ##
        Name: facilitates1
        Type: Facilitates
        Source : Method7
        Target : Method8


    ## Method ##
        Name: Method8
        Completed By : Agent1
        With Quality : 30.0
        With Duration: 17
        End Time: 147


    ## Message ##
        Sending a NotifyMethodCompletedMessage to Agent1
        Agent1 has completed Method8


    ## Message ##
        Sending a NextTickMessage to Agent1
        Tick 148 has occurred


    ## Message ##
        Received a StartMethodMessage From Agent1
        Agent1 has asked to start Method25


    ## Message ##
        Sending a NextTickMessage to Agent1
        Tick 149 has occurred


    ## Message ##
        Sending a ConfirmMethodStartMessage to Agent1
        Method25 has started: true


    ## Message ##
        Sending a NextTickMessage to Agent1
        Tick 150 has occurred


    ## Message ##
        Sending a NextTickMessage to Agent1
        Tick 151 has occurred


    ## Message ##
        Sending a NextTickMessage to Agent1
        Tick 152 has occurred


    ## Message ##
        Sending a NextTickMessage to Agent1
        Tick 153 has occurred


    ## Method ##
        Name: Method25
        Completed By : Agent1
        With Quality : 5.0
        With Duration: 4
        End Time: 153


    ## Message ##
        Sending a NotifyMethodCompletedMessage to Agent1
        Agent1 has completed Method25


    ## Message ##
        Sending a NextTickMessage to Agent1
        Tick 154 has occurred


    ## Message ##
        Sending a NextTickMessage to Agent1
        Tick 155 has occurred


    ## Message ##
        Received a StartMethodMessage From Agent1
        Agent1 has asked to start Method20


    ## Message ##
        Sending a NextTickMessage to Agent1
        Tick 156 has occurred


    ## Message ##
        Sending a ConfirmMethodStartMessage to Agent1
        Method20 has started: true


    ## Message ##
        Sending a NextTickMessage to Agent1
        Tick 157 has occurred


    ## Message ##
        Sending a NextTickMessage to Agent1
        Tick 158 has occurred


    ## Message ##
        Sending a NextTickMessage to Agent1
        Tick 159 has occurred


    ## Message ##
        Sending a NextTickMessage to Agent1
        Tick 160 has occurred


    ## Message ##
        Sending a NextTickMessage to Agent1
        Tick 161 has occurred


    ## Relationship ##
        Name: hinders4
        Type: Hinders
        Source : Method21
        Target : Method20


    ## Method ##
        Name: Method20
        Completed By : Agent1
        With Quality : 8.0
        With Duration: 5
        End Time: 161


    ## Message ##
        Sending a NotifyMethodCompletedMessage to Agent1
        Agent1 has completed Method20


    ## Message ##
        Sending a NextTickMessage to Agent1
        Tick 162 has occurred


    ## Message ##
        Sending a NextTickMessage to Agent1
        Tick 163 has occurred


    ## Message ##
        Sending a NextTickMessage to Agent1
        Tick 164 has occurred


    ## Message ##
        Sending a NextTickMessage to Agent1
        Tick 165 has occurred


    ## Message ##
        Sending a NextTickMessage to Agent1
        Tick 166 has occurred


    ## Message ##
        Received a StartMethodMessage From Agent1
        Agent1 has asked to start Method24


    ## Message ##
        Sending a NextTickMessage to Agent1
        Tick 167 has occurred


    ## Message ##
        Sending a ConfirmMethodStartMessage to Agent1
        Method24 has started: true


    ## Message ##
        Sending a NextTickMessage to Agent1
        Tick 168 has occurred


    ## Message ##
        Sending a NextTickMessage to Agent1
        Tick 169 has occurred


    ## Message ##
        Sending a NextTickMessage to Agent1
        Tick 170 has occurred


    ## Message ##
        Sending a NextTickMessage to Agent1
        Tick 171 has occurred


    ## Message ##
        Sending a NextTickMessage to Agent1
        Tick 172 has occurred


    ## Message ##
        Sending a NextTickMessage to Agent1
        Tick 173 has occurred


    ## Relationship ##
        Name: facilitates4
        Type: Facilitates
        Source : Method26
        Target : Method24


    ## Method ##
        Name: Method24
        Completed By : Agent1
        With Quality : 10.0
        With Duration: 6
        End Time: 173


    ## Message ##
        Sending a NotifyMethodCompletedMessage to Agent1
        Agent1 has completed Method24


    ## Message ##
        Sending a NextTickMessage to Agent1
        Tick 174 has occurred


    ## Message ##
        Received a StartMethodMessage From Agent1
        Agent1 has asked to start Method18


    ## Message ##
        Sending a NextTickMessage to Agent1
        Tick 175 has occurred


    ## Message ##
        Sending a ConfirmMethodStartMessage to Agent1
        Method18 has started: true


    ## Message ##
        Sending a NextTickMessage to Agent1
        Tick 176 has occurred


    ## Message ##
        Sending a NextTickMessage to Agent1
        Tick 177 has occurred


    ## Message ##
        Sending a NextTickMessage to Agent1
        Tick 178 has occurred


    ## Message ##
        Sending a NextTickMessage to Agent1
        Tick 179 has occurred


    ## Message ##
        Sending a NextTickMessage to Agent1
        Tick 180 has occurred


    ## Message ##
        Sending a NextTickMessage to Agent1
        Tick 181 has occurred


    ## Message ##
        Sending a NextTickMessage to Agent1
        Tick 182 has occurred


    ## Message ##
        Sending a NextTickMessage to Agent1
        Tick 183 has occurred


    ## Message ##
        Sending a NextTickMessage to Agent1
        Tick 184 has occurred


    ## Relationship ##
        Name: facilitates2
        Type: Facilitates
        Source : Method18
        Target : Method10


    ## Message ##
        Sending a NotifyRelationshipActivationMessage to Agent1
         Relationship facilitates2 has been activated


    ## Method ##
        Name: Method18
        Completed By : Agent1
        With Quality : 26.0
        With Duration: 9
        End Time: 184


    ## Message ##
        Sending a NotifyMethodCompletedMessage to Agent1
        Agent1 has completed Method18


    ## Message ##
        Sending a NextTickMessage to Agent1
        Tick 185 has occurred


    ## Message ##
        Sending a NextTickMessage to Agent1
        Tick 186 has occurred


    ## Message ##
        Sending a NextTickMessage to Agent1
        Tick 187 has occurred


    ## Message ##
        Received a StartMethodMessage From Agent1
        Agent1 has asked to start Method26


    ## Message ##
        Sending a NextTickMessage to Agent1
        Tick 188 has occurred


    ## Message ##
        Sending a ConfirmMethodStartMessage to Agent1
        Method26 has started: true


    ## Message ##
        Sending a NextTickMessage to Agent1
        Tick 189 has occurred


    ## Message ##
        Sending a NotifyRelationshipActivationMessage to Agent1
         Relationship facilitates4 has been activated


    ## Method ##
        Name: Method26
        Completed By : Agent1
        With Quality : 4.0
        With Duration: 1
        End Time: 189


    ## Message ##
        Sending a NotifyMethodCompletedMessage to Agent1
        Agent1 has completed Method26


    ## Message ##
        Sending a NextTickMessage to Agent1
        Tick 190 has occurred


    ## Message ##
        Sending a NextTickMessage to Agent1
        Tick 191 has occurred


    ## Message ##
        Sending a NextTickMessage to Agent1
        Tick 192 has occurred


    ## Message ##
        Sending a NextTickMessage to Agent1
        Tick 193 has occurred


    ## Message ##
        Received a StartMethodMessage From Agent1
        Agent1 has asked to start Method10


    ## Message ##
        Sending a NextTickMessage to Agent1
        Tick 194 has occurred


    ## Message ##
        Sending a ConfirmMethodStartMessage to Agent1
        Method10 has started: true


    ## Message ##
        Sending a NextTickMessage to Agent1
        Tick 195 has occurred


    ## Method ##
        Name: Method10
        Completed By : Agent1
        With Quality : 36.0
        With Duration: 1
        End Time: 195


    ## Message ##
        Sending a NotifyMethodCompletedMessage to Agent1
        Agent1 has completed Method10


    ## Message ##
        Sending a NextTickMessage to Agent1
        Tick 196 has occurred


    ## Message ##
        Sending a NextTickMessage to Agent1
        Tick 197 has occurred


    ## Message ##
        Sending a NextTickMessage to Agent1
        Tick 198 has occurred


    ## Message ##
        Sending a NextTickMessage to Agent1
        Tick 199 has occurred


    ## Message ##
        Sending a NextTickMessage to Agent1
        Tick 200 has occurred


    ## Message ##
        Sending a NextTickMessage to Agent1
        Tick 201 has occurred


    ## Message ##
        Sending a NextTickMessage to Agent1
        Tick 202 has occurred


    ## Message ##
        Sending a NextTickMessage to Agent1
        Tick 203 has occurred


    ## Message ##
        Received a StartMethodMessage From Agent1
        Agent1 has asked to start Method21


    ## Message ##
        Sending a NextTickMessage to Agent1
        Tick 204 has occurred


    ## Message ##
        Sending a ConfirmMethodStartMessage to Agent1
        Method21 has started: true


    ## Message ##
        Sending a NextTickMessage to Agent1
        Tick 205 has occurred


    ## Message ##
        Sending a NextTickMessage to Agent1
        Tick 206 has occurred


    ## Message ##
        Sending a NextTickMessage to Agent1
        Tick 207 has occurred


    ## Message ##
        Sending a NextTickMessage to Agent1
        Tick 208 has occurred


    ## Message ##
        Sending a NextTickMessage to Agent1
        Tick 209 has occurred


    ## Message ##
        Sending a NextTickMessage to Agent1
        Tick 210 has occurred


    ## Message ##
        Sending a NextTickMessage to Agent1
        Tick 211 has occurred


    ## Message ##
        Sending a NextTickMessage to Agent1
        Tick 212 has occurred


    ## Message ##
        Sending a NextTickMessage to Agent1
        Tick 213 has occurred


    ## Message ##
        Sending a NextTickMessage to Agent1
        Tick 214 has occurred


    ## Message ##
        Sending a NextTickMessage to Agent1
        Tick 215 has occurred


    ## Message ##
        Sending a NextTickMessage to Agent1
        Tick 216 has occurred


    ## Message ##
        Sending a NextTickMessage to Agent1
        Tick 217 has occurred


    ## Message ##
        Sending a NextTickMessage to Agent1
        Tick 218 has occurred


    ## Message ##
        Sending a NextTickMessage to Agent1
        Tick 219 has occurred


    ## Message ##
        Sending a NextTickMessage to Agent1
        Tick 220 has occurred


    ## Message ##
        Sending a NextTickMessage to Agent1
        Tick 221 has occurred


    ## Message ##
        Sending a NextTickMessage to Agent1
        Tick 222 has occurred


    ## Message ##
        Sending a NotifyRelationshipActivationMessage to Agent1
         Relationship hinders4 has been activated


    ## Method ##
        Name: Method21
        Completed By : Agent1
        With Quality : 17.0
        With Duration: 18
        End Time: 222


    ## Message ##
        Sending a NotifyMethodCompletedMessage to Agent1
        Agent1 has completed Method21


    ## Message ##
        Sending a NextTickMessage to Agent1
        Tick 223 has occurred


    ## Message ##
        Received a StartMethodMessage From Agent1
        Agent1 has asked to start Method5


    ## Message ##
        Sending a NextTickMessage to Agent1
        Tick 224 has occurred


    ## Message ##
        Sending a ConfirmMethodStartMessage to Agent1
        Method5 has started: true


    ## Message ##
        Sending a NextTickMessage to Agent1
        Tick 225 has occurred


    ## Message ##
        Sending a NextTickMessage to Agent1
        Tick 226 has occurred


    ## Message ##
        Sending a NextTickMessage to Agent1
        Tick 227 has occurred


    ## Message ##
        Sending a NextTickMessage to Agent1
        Tick 228 has occurred


    ## Message ##
        Sending a NextTickMessage to Agent1
        Tick 229 has occurred


    ## Message ##
        Sending a NotifyRelationshipActivationMessage to Agent1
         Relationship hinders2 has been activated


    ## Method ##
        Name: Method5
        Completed By : Agent1
        With Quality : 22.0
        With Duration: 5
        End Time: 229


    ## Message ##
        Sending a NotifyMethodCompletedMessage to Agent1
        Agent1 has completed Method5


    ## Message ##
        Sending a NextTickMessage to Agent1
        Tick 230 has occurred


    ## Message ##
        Sending a NextTickMessage to Agent1
        Tick 231 has occurred


    ## Message ##
        Sending a NextTickMessage to Agent1
        Tick 232 has occurred


    ## Message ##
        Sending a NextTickMessage to Agent1
        Tick 233 has occurred


    ## Message ##
        Sending a NextTickMessage to Agent1
        Tick 234 has occurred


    ## Message ##
        Received a StartMethodMessage From Agent1
        Agent1 has asked to start Method4


    ## Message ##
        Sending a NextTickMessage to Agent1
        Tick 235 has occurred


    ## Message ##
        Sending a ConfirmMethodStartMessage to Agent1
        Method4 has started: true


    ## Message ##
        Sending a NextTickMessage to Agent1
        Tick 236 has occurred


    ## Message ##
        Sending a NextTickMessage to Agent1
        Tick 237 has occurred


    ## Message ##
        Sending a NotifyRelationshipActivationMessage to Agent1
         Relationship disables1 has been activated


    ## Method ##
        Name: Method4
        Completed By : Agent1
        With Quality : 1.0
        With Duration: 2
        End Time: 237


    ## Message ##
        Sending a NotifyMethodCompletedMessage to Agent1
        Agent1 has completed Method4


    ## Message ##
        Sending a NextTickMessage to Agent1
        Tick 238 has occurred


    ## Message ##
        Sending a NextTickMessage to Agent1
        Tick 239 has occurred


    ## Message ##
        Sending a NextTickMessage to Agent1
        Tick 240 has occurred


    ## Message ##
        Sending a NextTickMessage to Agent1
        Tick 241 has occurred


    ## Message ##
        Sending a NextTickMessage to Agent1
        Tick 242 has occurred


    ## Message ##
        Sending a NextTickMessage to Agent1
        Tick 243 has occurred


    ## Message ##
        Sending a NextTickMessage to Agent1
        Tick 244 has occurred


    ## Message ##
        Received a StartMethodMessage From Agent1
        Agent1 has asked to start Method7


    ## Message ##
        Sending a NextTickMessage to Agent1
        Tick 245 has occurred


    ## Message ##
        Sending a ConfirmMethodStartMessage to Agent1
        Method7 has started: true


    ## Message ##
        Sending a NextTickMessage to Agent1
        Tick 246 has occurred


    ## Message ##
        Sending a NextTickMessage to Agent1
        Tick 247 has occurred


    ## Message ##
        Sending a NextTickMessage to Agent1
        Tick 248 has occurred


    ## Message ##
        Sending a NextTickMessage to Agent1
        Tick 249 has occurred


    ## Message ##
        Sending a NextTickMessage to Agent1
        Tick 250 has occurred


    ## Message ##
        Sending a NextTickMessage to Agent1
        Tick 251 has occurred


    ## Message ##
        Sending a NotifyRelationshipActivationMessage to Agent1
         Relationship facilitates1 has been activated


    ## Method ##
        Name: Method7
        Completed By : Agent1
        With Quality : 16.0
        With Duration: 6
        End Time: 251


    ## Message ##
        Sending a NotifyMethodCompletedMessage to Agent1
        Agent1 has completed Method7


    ## Message ##
        Sending a NextTickMessage to Agent1
        Tick 252 has occurred


    ## Message ##
        Sending a NextTickMessage to Agent1
        Tick 253 has occurred


    ## Message ##
        Received a StartMethodMessage From Agent1
        Agent1 has asked to start Method13


    ## Message ##
        Sending a NextTickMessage to Agent1
        Tick 254 has occurred


    ## Message ##
        Sending a ConfirmMethodStartMessage to Agent1
        Method13 has started: true


    ## Message ##
        Sending a NextTickMessage to Agent1
        Tick 255 has occurred


    ## Message ##
        Sending a NextTickMessage to Agent1
        Tick 256 has occurred


    ## Message ##
        Sending a NextTickMessage to Agent1
        Tick 257 has occurred


    ## Message ##
        Sending a NextTickMessage to Agent1
        Tick 258 has occurred


    ## Message ##
        Sending a NextTickMessage to Agent1
        Tick 259 has occurred


    ## Message ##
        Sending a NextTickMessage to Agent1
        Tick 260 has occurred


    ## Message ##
        Sending a NextTickMessage to Agent1
        Tick 261 has occurred


    ## Message ##
        Sending a NextTickMessage to Agent1
        Tick 262 has occurred


    ## Message ##
        Sending a NextTickMessage to Agent1
        Tick 263 has occurred


    ## Message ##
        Sending a NextTickMessage to Agent1
        Tick 264 has occurred


    ## Message ##
        Sending a NextTickMessage to Agent1
        Tick 265 has occurred


    ## Message ##
        Sending a NextTickMessage to Agent1
        Tick 266 has occurred


    ## Message ##
        Sending a NextTickMessage to Agent1
        Tick 267 has occurred


    ## Message ##
        Sending a NextTickMessage to Agent1
        Tick 268 has occurred


    ## Message ##
        Sending a NextTickMessage to Agent1
        Tick 269 has occurred


    ## Message ##
        Sending a NextTickMessage to Agent1
        Tick 270 has occurred


    ## Message ##
        Sending a NextTickMessage to Agent1
        Tick 271 has occurred


    ## Message ##
        Sending a NextTickMessage to Agent1
        Tick 272 has occurred


    ## Message ##
        Sending a NotifyRelationshipActivationMessage to Agent1
         Relationship facilitates3 has been activated


    ## Method ##
        Name: Method13
        Completed By : Agent1
        With Quality : 30.0
        With Duration: 18
        End Time: 272


    ## Message ##
        Sending a NotifyMethodCompletedMessage to Agent1
        Agent1 has completed Method13


    ## Message ##
        Sending a NextTickMessage to Agent1
        Tick 273 has occurred


    ## Message ##
        Sending a NextTickMessage to Agent1
        Tick 274 has occurred


    ## Message ##
        Received a StartMethodMessage From Agent1
        Agent1 has asked to start Method17


    ## Message ##
        Sending a NextTickMessage to Agent1
        Tick 275 has occurred


    ## Message ##
        Sending a ConfirmMethodStartMessage to Agent1
        Method17 has started: true


    ## Message ##
        Sending a NextTickMessage to Agent1
        Tick 276 has occurred


    ## Message ##
        Sending a NextTickMessage to Agent1
        Tick 277 has occurred


    ## Message ##
        Sending a NextTickMessage to Agent1
        Tick 278 has occurred


    ## Method ##
        Name: Method17
        Completed By : Agent1
        With Quality : 3.0
        With Duration: 3
        End Time: 278


    ## Message ##
        Sending a NotifyMethodCompletedMessage to Agent1
        Agent1 has completed Method17


    ## Message ##
        Sending a NextTickMessage to Agent1
        Tick 279 has occurred


    ## Message ##
        Received a StartMethodMessage From Agent1
        Agent1 has asked to start Method11


    ## Message ##
        Sending a NextTickMessage to Agent1
        Tick 280 has occurred


    ## Message ##
        Sending a ConfirmMethodStartMessage to Agent1
        Method11 has started: true


    ## Message ##
        Sending a NextTickMessage to Agent1
        Tick 281 has occurred


    ## Message ##
        Sending a NextTickMessage to Agent1
        Tick 282 has occurred


    ## Message ##
        Sending a NextTickMessage to Agent1
        Tick 283 has occurred


    ## Method ##
        Name: Method11
        Completed By : Agent1
        With Quality : 2.0
        With Duration: 3
        End Time: 283


    ## Message ##
        Sending a NotifyMethodCompletedMessage to Agent1
        Agent1 has completed Method11


    ## Message ##
        Sending a NextTickMessage to Agent1
        Tick 284 has occurred


    ## Message ##
        Received a StartMethodMessage From Agent1
        Agent1 has asked to start Method15


    ## Message ##
        Sending a NextTickMessage to Agent1
        Tick 285 has occurred


    ## Message ##
        Sending a ConfirmMethodStartMessage to Agent1
        Method15 has started: true


    ## Message ##
        Sending a NextTickMessage to Agent1
        Tick 286 has occurred


    ## Message ##
        Sending a NextTickMessage to Agent1
        Tick 287 has occurred


    ## Message ##
        Sending a NextTickMessage to Agent1
        Tick 288 has occurred


    ## Method ##
        Name: Method15
        Completed By : Agent1
        With Quality : 0.5
        With Duration: 3
        End Time: 288


    ## Message ##
        Sending a NotifyMethodCompletedMessage to Agent1
        Agent1 has completed Method15


    ## Message ##
        Sending a EndSimulationMessage to Agent1
        The Simulation is Over


    ## Agent ##
        Name Agent1
        Sent: 60
        Received: 396
        Completed: Method28, Method14, Method16, Method12, Method1, Method29, Method30, Method22, Method9, Method19, Method6, Method2, Method27, Method23, Method8, Method25, Method20, Method24, Method18, Method26, Method10, Method21, Method5, Method4, Method7, Method13, Method17, Method11, Method15