####### Sequential Logger #######



    ## Message ##
        Sending a SetRandomSeedMessage to Agent1
        The random seed is 4846524941593072987


    ## Message ##
        Sending a SetRandomSeedMessage to Agent2
        The random seed is 4846524941593072987
