####### Sequential Logger #######



    ## Message ##
        Sending a SetRandomSeedMessage to Agent1
        The random seed is 2336647609539919012


    ## Message ##
        Sending a InitialTreeMessage to Agent1
        Tree Head: Problem1


    ## Message ##
        Sending a StartSimulationMessage to Agent1
        The Simulation has Started


    ## Message ##
        Sending a NextTickMessage to Agent1
        Tick 1 has occurred


    ## Message ##
        Sending a NextTickMessage to Agent1
        Tick 2 has occurred


    ## Message ##
        Sending a NextTickMessage to Agent1
        Tick 3 has occurred


    ## Message ##
        Sending a NextTickMessage to Agent1
        Tick 4 has occurred


    ## Message ##
        Sending a NextTickMessage to Agent1
        Tick 5 has occurred


    ## Message ##
        Sending a NextTickMessage to Agent1
        Tick 6 has occurred


    ## Message ##
        Sending a NextTickMessage to Agent1
        Tick 7 has occurred


    ## Message ##
        Sending a NextTickMessage to Agent1
        Tick 8 has occurred


    ## Message ##
        Sending a NextTickMessage to Agent1
        Tick 9 has occurred


    ## Message ##
        Sending a NextTickMessage to Agent1
        Tick 10 has occurred


    ## Message ##
        Sending a NextTickMessage to Agent1
        Tick 11 has occurred


    ## Message ##
        Sending a NextTickMessage to Agent1
        Tick 12 has occurred


    ## Message ##
        Sending a NextTickMessage to Agent1
        Tick 13 has occurred


    ## Message ##
        Sending a NextTickMessage to Agent1
        Tick 14 has occurred


    ## Message ##
        Sending a NextTickMessage to Agent1
        Tick 15 has occurred


    ## Message ##
        Sending a NextTickMessage to Agent1
        Tick 16 has occurred


    ## Message ##
        Sending a NextTickMessage to Agent1
        Tick 17 has occurred


    ## Message ##
        Sending a NextTickMessage to Agent1
        Tick 18 has occurred


    ## Message ##
        Sending a NextTickMessage to Agent1
        Tick 19 has occurred


    ## Message ##
        Sending a NextTickMessage to Agent1
        Tick 20 has occurred


    ## Message ##
        Sending a NextTickMessage to Agent1
        Tick 21 has occurred


    ## Message ##
        Sending a NextTickMessage to Agent1
        Tick 22 has occurred


    ## Message ##
        Sending a NextTickMessage to Agent1
        Tick 23 has occurred


    ## Message ##
        Sending a NextTickMessage to Agent1
        Tick 24 has occurred


    ## Message ##
        Sending a NextTickMessage to Agent1
        Tick 25 has occurred


    ## Message ##
        Sending a NextTickMessage to Agent1
        Tick 26 has occurred


    ## Message ##
        Sending a NextTickMessage to Agent1
        Tick 27 has occurred


    ## Message ##
        Sending a NextTickMessage to Agent1
        Tick 28 has occurred


    ## Message ##
        Sending a NextTickMessage to Agent1
        Tick 29 has occurred


    ## Message ##
        Sending a NextTickMessage to Agent1
        Tick 30 has occurred


    ## Message ##
        Sending a NextTickMessage to Agent1
        Tick 31 has occurred


    ## Message ##
        Sending a NextTickMessage to Agent1
        Tick 32 has occurred


    ## Message ##
        Sending a NextTickMessage to Agent1
        Tick 33 has occurred


    ## Message ##
        Sending a NextTickMessage to Agent1
        Tick 34 has occurred


    ## Message ##
        Sending a NextTickMessage to Agent1
        Tick 35 has occurred


    ## Message ##
        Sending a NextTickMessage to Agent1
        Tick 36 has occurred


    ## Message ##
        Sending a NextTickMessage to Agent1
        Tick 37 has occurred


    ## Message ##
        Sending a NextTickMessage to Agent1
        Tick 38 has occurred


    ## Message ##
        Sending a NextTickMessage to Agent1
        Tick 39 has occurred


    ## Message ##
        Sending a NextTickMessage to Agent1
        Tick 40 has occurred


    ## Message ##
        Sending a NextTickMessage to Agent1
        Tick 41 has occurred


    ## Message ##
        Sending a NextTickMessage to Agent1
        Tick 42 has occurred


    ## Message ##
        Sending a NextTickMessage to Agent1
        Tick 43 has occurred


    ## Message ##
        Sending a NextTickMessage to Agent1
        Tick 44 has occurred


    ## Message ##
        Sending a NextTickMessage to Agent1
        Tick 45 has occurred


    ## Message ##
        Sending a NextTickMessage to Agent1
        Tick 46 has occurred


    ## Message ##
        Sending a NextTickMessage to Agent1
        Tick 47 has occurred


    ## Message ##
        Sending a NextTickMessage to Agent1
        Tick 48 has occurred


    ## Message ##
        Sending a NextTickMessage to Agent1
        Tick 49 has occurred
