####### Sequential Logger #######



    ## Message ##
        Sending a SetRandomSeedMessage to Agent1
        The random seed is -2956958421725316392


    ## Message ##
        Sending a SetRandomSeedMessage to Agent2
        The random seed is -2956958421725316392


    ## Message ##
        Sending a InitialTreeMessage to Agent1
        Tree Head: Problem1


    ## Message ##
        Sending a InitialTreeMessage to Agent2
        Tree Head: Problem1


    ## Message ##
        Sending a StartSimulationMessage to Agent1
        The Simulation has Started


    ## Message ##
        Sending a StartSimulationMessage to Agent2
        The Simulation has Started


    ## Message ##
        Sending a NextTickMessage to Agent1
        Tick 1 has occurred


    ## Message ##
        Sending a NextTickMessage to Agent2
        Tick 1 has occurred


    ## Message ##
        Sending a NextTickMessage to Agent1
        Tick 2 has occurred


    ## Message ##
        Sending a NextTickMessage to Agent2
        Tick 2 has occurred


    ## Message ##
        Sending a NextTickMessage to Agent1
        Tick 3 has occurred


    ## Message ##
        Sending a NextTickMessage to Agent2
        Tick 3 has occurred


    ## Message ##
        Sending a NextTickMessage to Agent1
        Tick 4 has occurred


    ## Message ##
        Sending a NextTickMessage to Agent2
        Tick 4 has occurred


    ## Message ##
        Sending a NextTickMessage to Agent1
        Tick 5 has occurred


    ## Message ##
        Sending a NextTickMessage to Agent2
        Tick 5 has occurred


    ## Message ##
        Sending a NextTickMessage to Agent1
        Tick 6 has occurred


    ## Message ##
        Sending a NextTickMessage to Agent2
        Tick 6 has occurred


    ## Message ##
        Sending a NextTickMessage to Agent1
        Tick 7 has occurred


    ## Message ##
        Sending a NextTickMessage to Agent2
        Tick 7 has occurred


    ## Message ##
        Sending a NextTickMessage to Agent1
        Tick 8 has occurred


    ## Message ##
        Sending a NextTickMessage to Agent2
        Tick 8 has occurred


    ## Message ##
        Sending a NextTickMessage to Agent1
        Tick 9 has occurred


    ## Message ##
        Sending a NextTickMessage to Agent2
        Tick 9 has occurred


    ## Message ##
        Sending a NextTickMessage to Agent1
        Tick 10 has occurred


    ## Message ##
        Sending a NextTickMessage to Agent2
        Tick 10 has occurred


    ## Message ##
        Sending a NextTickMessage to Agent1
        Tick 11 has occurred


    ## Message ##
        Sending a NextTickMessage to Agent2
        Tick 11 has occurred


    ## Message ##
        Sending a NextTickMessage to Agent1
        Tick 12 has occurred


    ## Message ##
        Sending a NextTickMessage to Agent2
        Tick 12 has occurred


    ## Message ##
        Sending a NextTickMessage to Agent1
        Tick 13 has occurred


    ## Message ##
        Sending a NextTickMessage to Agent2
        Tick 13 has occurred


    ## Message ##
        Sending a NextTickMessage to Agent1
        Tick 14 has occurred


    ## Message ##
        Sending a NextTickMessage to Agent2
        Tick 14 has occurred


    ## Message ##
        Sending a NextTickMessage to Agent1
        Tick 15 has occurred


    ## Message ##
        Sending a NextTickMessage to Agent2
        Tick 15 has occurred


    ## Message ##
        Sending a NextTickMessage to Agent1
        Tick 16 has occurred


    ## Message ##
        Sending a NextTickMessage to Agent2
        Tick 16 has occurred


    ## Message ##
        Sending a NextTickMessage to Agent1
        Tick 17 has occurred


    ## Message ##
        Sending a NextTickMessage to Agent2
        Tick 17 has occurred


    ## Message ##
        Sending a NextTickMessage to Agent1
        Tick 18 has occurred


    ## Message ##
        Sending a NextTickMessage to Agent2
        Tick 18 has occurred


    ## Message ##
        Sending a NextTickMessage to Agent1
        Tick 19 has occurred


    ## Message ##
        Sending a NextTickMessage to Agent2
        Tick 19 has occurred


    ## Message ##
        Sending a NextTickMessage to Agent1
        Tick 20 has occurred


    ## Message ##
        Sending a NextTickMessage to Agent2
        Tick 20 has occurred


    ## Message ##
        Sending a NextTickMessage to Agent1
        Tick 21 has occurred


    ## Message ##
        Sending a NextTickMessage to Agent2
        Tick 21 has occurred


    ## Message ##
        Sending a NextTickMessage to Agent1
        Tick 22 has occurred


    ## Message ##
        Sending a NextTickMessage to Agent2
        Tick 22 has occurred


    ## Message ##
        Sending a NextTickMessage to Agent1
        Tick 23 has occurred


    ## Message ##
        Sending a NextTickMessage to Agent2
        Tick 23 has occurred


    ## Message ##
        Sending a NextTickMessage to Agent1
        Tick 24 has occurred


    ## Message ##
        Sending a NextTickMessage to Agent2
        Tick 24 has occurred


    ## Message ##
        Sending a NextTickMessage to Agent1
        Tick 25 has occurred


    ## Message ##
        Sending a NextTickMessage to Agent2
        Tick 25 has occurred


    ## Message ##
        Sending a NextTickMessage to Agent1
        Tick 26 has occurred


    ## Message ##
        Sending a NextTickMessage to Agent2
        Tick 26 has occurred


    ## Message ##
        Sending a NextTickMessage to Agent1
        Tick 27 has occurred


    ## Message ##
        Sending a NextTickMessage to Agent2
        Tick 27 has occurred


    ## Message ##
        Sending a NextTickMessage to Agent1
        Tick 28 has occurred


    ## Message ##
        Sending a NextTickMessage to Agent2
        Tick 28 has occurred


    ## Message ##
        Sending a NextTickMessage to Agent1
        Tick 29 has occurred


    ## Message ##
        Sending a NextTickMessage to Agent2
        Tick 29 has occurred


    ## Message ##
        Sending a NextTickMessage to Agent1
        Tick 30 has occurred


    ## Message ##
        Sending a NextTickMessage to Agent2
        Tick 30 has occurred


    ## Message ##
        Sending a NextTickMessage to Agent1
        Tick 31 has occurred


    ## Message ##
        Sending a NextTickMessage to Agent2
        Tick 31 has occurred


    ## Message ##
        Sending a NextTickMessage to Agent1
        Tick 32 has occurred


    ## Message ##
        Sending a NextTickMessage to Agent2
        Tick 32 has occurred


    ## Message ##
        Sending a NextTickMessage to Agent1
        Tick 33 has occurred


    ## Message ##
        Sending a NextTickMessage to Agent2
        Tick 33 has occurred


    ## Message ##
        Sending a NextTickMessage to Agent1
        Tick 34 has occurred


    ## Message ##
        Sending a NextTickMessage to Agent2
        Tick 34 has occurred


    ## Message ##
        Sending a NextTickMessage to Agent1
        Tick 35 has occurred


    ## Message ##
        Sending a NextTickMessage to Agent2
        Tick 35 has occurred


    ## Message ##
        Sending a NextTickMessage to Agent1
        Tick 36 has occurred


    ## Message ##
        Sending a NextTickMessage to Agent2
        Tick 36 has occurred


    ## Message ##
        Sending a NextTickMessage to Agent1
        Tick 37 has occurred


    ## Message ##
        Sending a NextTickMessage to Agent2
        Tick 37 has occurred


    ## Message ##
        Sending a NextTickMessage to Agent1
        Tick 38 has occurred


    ## Message ##
        Sending a NextTickMessage to Agent2
        Tick 38 has occurred


    ## Message ##
        Sending a NextTickMessage to Agent1
        Tick 39 has occurred


    ## Message ##
        Sending a NextTickMessage to Agent2
        Tick 39 has occurred


    ## Message ##
        Sending a NextTickMessage to Agent1
        Tick 40 has occurred


    ## Message ##
        Sending a NextTickMessage to Agent2
        Tick 40 has occurred


    ## Message ##
        Sending a NextTickMessage to Agent1
        Tick 41 has occurred


    ## Message ##
        Sending a NextTickMessage to Agent2
        Tick 41 has occurred


    ## Message ##
        Sending a NextTickMessage to Agent1
        Tick 42 has occurred


    ## Message ##
        Sending a NextTickMessage to Agent2
        Tick 42 has occurred


    ## Message ##
        Sending a NextTickMessage to Agent1
        Tick 43 has occurred


    ## Message ##
        Sending a NextTickMessage to Agent2
        Tick 43 has occurred


    ## Message ##
        Sending a NextTickMessage to Agent1
        Tick 44 has occurred


    ## Message ##
        Sending a NextTickMessage to Agent2
        Tick 44 has occurred


    ## Message ##
        Sending a NextTickMessage to Agent1
        Tick 45 has occurred


    ## Message ##
        Sending a NextTickMessage to Agent2
        Tick 45 has occurred


    ## Message ##
        Sending a NextTickMessage to Agent1
        Tick 46 has occurred


    ## Message ##
        Sending a NextTickMessage to Agent2
        Tick 46 has occurred


    ## Message ##
        Sending a NextTickMessage to Agent1
        Tick 47 has occurred


    ## Message ##
        Sending a NextTickMessage to Agent2
        Tick 47 has occurred


    ## Message ##
        Sending a NextTickMessage to Agent1
        Tick 48 has occurred


    ## Message ##
        Sending a NextTickMessage to Agent2
        Tick 48 has occurred


    ## Message ##
        Sending a NextTickMessage to Agent1
        Tick 49 has occurred


    ## Message ##
        Sending a NextTickMessage to Agent2
        Tick 49 has occurred


    ## Message ##
        Sending a NextTickMessage to Agent1
        Tick 50 has occurred


    ## Message ##
        Sending a NextTickMessage to Agent2
        Tick 50 has occurred


    ## Message ##
        Sending a NextTickMessage to Agent1
        Tick 51 has occurred


    ## Message ##
        Sending a NextTickMessage to Agent2
        Tick 51 has occurred


    ## Message ##
        Sending a NextTickMessage to Agent1
        Tick 52 has occurred


    ## Message ##
        Sending a NextTickMessage to Agent2
        Tick 52 has occurred


    ## Message ##
        Sending a NextTickMessage to Agent1
        Tick 53 has occurred


    ## Message ##
        Sending a NextTickMessage to Agent2
        Tick 53 has occurred


    ## Message ##
        Sending a NextTickMessage to Agent1
        Tick 54 has occurred


    ## Message ##
        Sending a NextTickMessage to Agent2
        Tick 54 has occurred


    ## Message ##
        Sending a NextTickMessage to Agent1
        Tick 55 has occurred


    ## Message ##
        Sending a NextTickMessage to Agent2
        Tick 55 has occurred


    ## Message ##
        Sending a NextTickMessage to Agent1
        Tick 56 has occurred


    ## Message ##
        Sending a NextTickMessage to Agent2
        Tick 56 has occurred


    ## Message ##
        Sending a NextTickMessage to Agent1
        Tick 57 has occurred


    ## Message ##
        Sending a NextTickMessage to Agent2
        Tick 57 has occurred


    ## Message ##
        Sending a NextTickMessage to Agent1
        Tick 58 has occurred


    ## Message ##
        Sending a NextTickMessage to Agent2
        Tick 58 has occurred


    ## Message ##
        Sending a NextTickMessage to Agent1
        Tick 59 has occurred


    ## Message ##
        Sending a NextTickMessage to Agent2
        Tick 59 has occurred


    ## Message ##
        Sending a NextTickMessage to Agent1
        Tick 60 has occurred


    ## Message ##
        Sending a NextTickMessage to Agent2
        Tick 60 has occurred


    ## Message ##
        Sending a NextTickMessage to Agent1
        Tick 61 has occurred


    ## Message ##
        Sending a NextTickMessage to Agent2
        Tick 61 has occurred


    ## Message ##
        Sending a NextTickMessage to Agent1
        Tick 62 has occurred


    ## Message ##
        Sending a NextTickMessage to Agent2
        Tick 62 has occurred


    ## Message ##
        Sending a NextTickMessage to Agent1
        Tick 63 has occurred


    ## Message ##
        Sending a NextTickMessage to Agent2
        Tick 63 has occurred


    ## Message ##
        Sending a NextTickMessage to Agent1
        Tick 64 has occurred


    ## Message ##
        Sending a NextTickMessage to Agent2
        Tick 64 has occurred


    ## Message ##
        Sending a NextTickMessage to Agent1
        Tick 65 has occurred


    ## Message ##
        Sending a NextTickMessage to Agent2
        Tick 65 has occurred


    ## Message ##
        Sending a NextTickMessage to Agent1
        Tick 66 has occurred


    ## Message ##
        Sending a NextTickMessage to Agent2
        Tick 66 has occurred


    ## Message ##
        Sending a NextTickMessage to Agent1
        Tick 67 has occurred


    ## Message ##
        Sending a NextTickMessage to Agent2
        Tick 67 has occurred


    ## Message ##
        Sending a NextTickMessage to Agent1
        Tick 68 has occurred


    ## Message ##
        Sending a NextTickMessage to Agent2
        Tick 68 has occurred


    ## Message ##
        Sending a NextTickMessage to Agent1
        Tick 69 has occurred


    ## Message ##
        Sending a NextTickMessage to Agent2
        Tick 69 has occurred


    ## Message ##
        Sending a NextTickMessage to Agent1
        Tick 70 has occurred


    ## Message ##
        Sending a NextTickMessage to Agent2
        Tick 70 has occurred


    ## Message ##
        Sending a NextTickMessage to Agent1
        Tick 71 has occurred


    ## Message ##
        Sending a NextTickMessage to Agent2
        Tick 71 has occurred


    ## Message ##
        Sending a NextTickMessage to Agent1
        Tick 72 has occurred


    ## Message ##
        Sending a NextTickMessage to Agent2
        Tick 72 has occurred


    ## Message ##
        Sending a NextTickMessage to Agent1
        Tick 73 has occurred


    ## Message ##
        Sending a NextTickMessage to Agent2
        Tick 73 has occurred


    ## Message ##
        Sending a NextTickMessage to Agent1
        Tick 74 has occurred


    ## Message ##
        Sending a NextTickMessage to Agent2
        Tick 74 has occurred


    ## Message ##
        Sending a NextTickMessage to Agent1
        Tick 75 has occurred


    ## Message ##
        Sending a NextTickMessage to Agent2
        Tick 75 has occurred


    ## Message ##
        Sending a NextTickMessage to Agent1
        Tick 76 has occurred


    ## Message ##
        Sending a NextTickMessage to Agent2
        Tick 76 has occurred


    ## Message ##
        Sending a NextTickMessage to Agent1
        Tick 77 has occurred


    ## Message ##
        Sending a NextTickMessage to Agent2
        Tick 77 has occurred


    ## Message ##
        Sending a NextTickMessage to Agent1
        Tick 78 has occurred


    ## Message ##
        Sending a NextTickMessage to Agent2
        Tick 78 has occurred


    ## Message ##
        Sending a NextTickMessage to Agent1
        Tick 79 has occurred


    ## Message ##
        Sending a NextTickMessage to Agent2
        Tick 79 has occurred


    ## Message ##
        Sending a NextTickMessage to Agent1
        Tick 80 has occurred


    ## Message ##
        Sending a NextTickMessage to Agent2
        Tick 80 has occurred


    ## Message ##
        Sending a NextTickMessage to Agent1
        Tick 81 has occurred


    ## Message ##
        Sending a NextTickMessage to Agent2
        Tick 81 has occurred


    ## Message ##
        Sending a NextTickMessage to Agent1
        Tick 82 has occurred


    ## Message ##
        Sending a NextTickMessage to Agent2
        Tick 82 has occurred


    ## Message ##
        Sending a NextTickMessage to Agent1
        Tick 83 has occurred


    ## Message ##
        Sending a NextTickMessage to Agent2
        Tick 83 has occurred


    ## Message ##
        Sending a NextTickMessage to Agent1
        Tick 84 has occurred


    ## Message ##
        Sending a NextTickMessage to Agent2
        Tick 84 has occurred


    ## Message ##
        Sending a NextTickMessage to Agent1
        Tick 85 has occurred


    ## Message ##
        Sending a NextTickMessage to Agent2
        Tick 85 has occurred


    ## Message ##
        Sending a NextTickMessage to Agent1
        Tick 86 has occurred


    ## Message ##
        Sending a NextTickMessage to Agent2
        Tick 86 has occurred


    ## Message ##
        Sending a NextTickMessage to Agent1
        Tick 87 has occurred


    ## Message ##
        Sending a NextTickMessage to Agent2
        Tick 87 has occurred


    ## Message ##
        Sending a NextTickMessage to Agent1
        Tick 88 has occurred


    ## Message ##
        Sending a NextTickMessage to Agent2
        Tick 88 has occurred


    ## Message ##
        Sending a NextTickMessage to Agent1
        Tick 89 has occurred


    ## Message ##
        Sending a NextTickMessage to Agent2
        Tick 89 has occurred


    ## Message ##
        Sending a NextTickMessage to Agent1
        Tick 90 has occurred


    ## Message ##
        Sending a NextTickMessage to Agent2
        Tick 90 has occurred


    ## Message ##
        Sending a NextTickMessage to Agent1
        Tick 91 has occurred


    ## Message ##
        Sending a NextTickMessage to Agent2
        Tick 91 has occurred


    ## Message ##
        Sending a NextTickMessage to Agent1
        Tick 92 has occurred


    ## Message ##
        Sending a NextTickMessage to Agent2
        Tick 92 has occurred


    ## Message ##
        Sending a NextTickMessage to Agent1
        Tick 93 has occurred


    ## Message ##
        Sending a NextTickMessage to Agent2
        Tick 93 has occurred


    ## Message ##
        Sending a NextTickMessage to Agent1
        Tick 94 has occurred


    ## Message ##
        Sending a NextTickMessage to Agent2
        Tick 94 has occurred


    ## Message ##
        Sending a NextTickMessage to Agent1
        Tick 95 has occurred


    ## Message ##
        Sending a NextTickMessage to Agent2
        Tick 95 has occurred


    ## Message ##
        Sending a NextTickMessage to Agent1
        Tick 96 has occurred


    ## Message ##
        Sending a NextTickMessage to Agent2
        Tick 96 has occurred


    ## Message ##
        Sending a NextTickMessage to Agent1
        Tick 97 has occurred


    ## Message ##
        Sending a NextTickMessage to Agent2
        Tick 97 has occurred


    ## Message ##
        Sending a NextTickMessage to Agent1
        Tick 98 has occurred


    ## Message ##
        Sending a NextTickMessage to Agent2
        Tick 98 has occurred


    ## Message ##
        Sending a NextTickMessage to Agent1
        Tick 99 has occurred


    ## Message ##
        Sending a NextTickMessage to Agent2
        Tick 99 has occurred


    ## Message ##
        Sending a NextTickMessage to Agent1
        Tick 100 has occurred


    ## Message ##
        Sending a NextTickMessage to Agent2
        Tick 100 has occurred


    ## Message ##
        Sending a NextTickMessage to Agent1
        Tick 101 has occurred


    ## Message ##
        Sending a NextTickMessage to Agent2
        Tick 101 has occurred


    ## Message ##
        Sending a NextTickMessage to Agent1
        Tick 102 has occurred


    ## Message ##
        Sending a NextTickMessage to Agent2
        Tick 102 has occurred


    ## Message ##
        Sending a NextTickMessage to Agent1
        Tick 103 has occurred


    ## Message ##
        Sending a NextTickMessage to Agent2
        Tick 103 has occurred


    ## Message ##
        Sending a NextTickMessage to Agent1
        Tick 104 has occurred


    ## Message ##
        Sending a NextTickMessage to Agent2
        Tick 104 has occurred


    ## Message ##
        Sending a NextTickMessage to Agent1
        Tick 105 has occurred


    ## Message ##
        Sending a NextTickMessage to Agent2
        Tick 105 has occurred


    ## Message ##
        Sending a NextTickMessage to Agent1
        Tick 106 has occurred


    ## Message ##
        Sending a NextTickMessage to Agent2
        Tick 106 has occurred


    ## Message ##
        Sending a NextTickMessage to Agent1
        Tick 107 has occurred


    ## Message ##
        Sending a NextTickMessage to Agent2
        Tick 107 has occurred


    ## Message ##
        Sending a NextTickMessage to Agent1
        Tick 108 has occurred


    ## Message ##
        Sending a NextTickMessage to Agent2
        Tick 108 has occurred


    ## Message ##
        Sending a NextTickMessage to Agent1
        Tick 109 has occurred


    ## Message ##
        Sending a NextTickMessage to Agent2
        Tick 109 has occurred


    ## Message ##
        Sending a NextTickMessage to Agent1
        Tick 110 has occurred


    ## Message ##
        Sending a NextTickMessage to Agent2
        Tick 110 has occurred


    ## Message ##
        Sending a NextTickMessage to Agent1
        Tick 111 has occurred


    ## Message ##
        Sending a NextTickMessage to Agent2
        Tick 111 has occurred


    ## Message ##
        Sending a NextTickMessage to Agent1
        Tick 112 has occurred


    ## Message ##
        Sending a NextTickMessage to Agent2
        Tick 112 has occurred


    ## Message ##
        Sending a NextTickMessage to Agent1
        Tick 113 has occurred


    ## Message ##
        Sending a NextTickMessage to Agent2
        Tick 113 has occurred


    ## Message ##
        Sending a NextTickMessage to Agent1
        Tick 114 has occurred


    ## Message ##
        Sending a NextTickMessage to Agent2
        Tick 114 has occurred


    ## Message ##
        Sending a NextTickMessage to Agent1
        Tick 115 has occurred


    ## Message ##
        Sending a NextTickMessage to Agent2
        Tick 115 has occurred


    ## Message ##
        Sending a NextTickMessage to Agent1
        Tick 116 has occurred


    ## Message ##
        Sending a NextTickMessage to Agent2
        Tick 116 has occurred


    ## Message ##
        Sending a NextTickMessage to Agent1
        Tick 117 has occurred


    ## Message ##
        Sending a NextTickMessage to Agent2
        Tick 117 has occurred


    ## Message ##
        Sending a NextTickMessage to Agent1
        Tick 118 has occurred


    ## Message ##
        Sending a NextTickMessage to Agent2
        Tick 118 has occurred


    ## Message ##
        Sending a NextTickMessage to Agent1
        Tick 119 has occurred


    ## Message ##
        Sending a NextTickMessage to Agent2
        Tick 119 has occurred


    ## Message ##
        Sending a NextTickMessage to Agent1
        Tick 120 has occurred


    ## Message ##
        Sending a NextTickMessage to Agent2
        Tick 120 has occurred


    ## Message ##
        Sending a NextTickMessage to Agent1
        Tick 121 has occurred


    ## Message ##
        Sending a NextTickMessage to Agent2
        Tick 121 has occurred


    ## Message ##
        Sending a NextTickMessage to Agent1
        Tick 122 has occurred


    ## Message ##
        Sending a NextTickMessage to Agent2
        Tick 122 has occurred


    ## Message ##
        Sending a NextTickMessage to Agent1
        Tick 123 has occurred


    ## Message ##
        Sending a NextTickMessage to Agent2
        Tick 123 has occurred


    ## Message ##
        Sending a NextTickMessage to Agent1
        Tick 124 has occurred


    ## Message ##
        Sending a NextTickMessage to Agent2
        Tick 124 has occurred


    ## Message ##
        Sending a NextTickMessage to Agent1
        Tick 125 has occurred


    ## Message ##
        Sending a NextTickMessage to Agent2
        Tick 125 has occurred


    ## Message ##
        Sending a NextTickMessage to Agent1
        Tick 126 has occurred


    ## Message ##
        Sending a NextTickMessage to Agent2
        Tick 126 has occurred


    ## Message ##
        Sending a NextTickMessage to Agent1
        Tick 127 has occurred


    ## Message ##
        Sending a NextTickMessage to Agent2
        Tick 127 has occurred


    ## Message ##
        Sending a NextTickMessage to Agent1
        Tick 128 has occurred


    ## Message ##
        Sending a NextTickMessage to Agent2
        Tick 128 has occurred


    ## Message ##
        Sending a NextTickMessage to Agent1
        Tick 129 has occurred


    ## Message ##
        Sending a NextTickMessage to Agent2
        Tick 129 has occurred


    ## Message ##
        Sending a NextTickMessage to Agent1
        Tick 130 has occurred


    ## Message ##
        Sending a NextTickMessage to Agent2
        Tick 130 has occurred


    ## Message ##
        Sending a NextTickMessage to Agent1
        Tick 131 has occurred


    ## Message ##
        Sending a NextTickMessage to Agent2
        Tick 131 has occurred


    ## Message ##
        Sending a NextTickMessage to Agent1
        Tick 132 has occurred


    ## Message ##
        Sending a NextTickMessage to Agent2
        Tick 132 has occurred


    ## Message ##
        Sending a NextTickMessage to Agent1
        Tick 133 has occurred


    ## Message ##
        Sending a NextTickMessage to Agent2
        Tick 133 has occurred


    ## Message ##
        Sending a NextTickMessage to Agent1
        Tick 134 has occurred


    ## Message ##
        Sending a NextTickMessage to Agent2
        Tick 134 has occurred


    ## Message ##
        Sending a NextTickMessage to Agent1
        Tick 135 has occurred


    ## Message ##
        Sending a NextTickMessage to Agent2
        Tick 135 has occurred


    ## Message ##
        Sending a NextTickMessage to Agent1
        Tick 136 has occurred


    ## Message ##
        Sending a NextTickMessage to Agent2
        Tick 136 has occurred


    ## Message ##
        Sending a NextTickMessage to Agent1
        Tick 137 has occurred


    ## Message ##
        Sending a NextTickMessage to Agent2
        Tick 137 has occurred


    ## Message ##
        Sending a NextTickMessage to Agent1
        Tick 138 has occurred


    ## Message ##
        Sending a NextTickMessage to Agent2
        Tick 138 has occurred


    ## Message ##
        Sending a NextTickMessage to Agent1
        Tick 139 has occurred


    ## Message ##
        Sending a NextTickMessage to Agent2
        Tick 139 has occurred


    ## Message ##
        Sending a NextTickMessage to Agent1
        Tick 140 has occurred


    ## Message ##
        Sending a NextTickMessage to Agent2
        Tick 140 has occurred


    ## Message ##
        Sending a NextTickMessage to Agent1
        Tick 141 has occurred


    ## Message ##
        Sending a NextTickMessage to Agent2
        Tick 141 has occurred


    ## Message ##
        Sending a NextTickMessage to Agent1
        Tick 142 has occurred


    ## Message ##
        Sending a NextTickMessage to Agent2
        Tick 142 has occurred


    ## Message ##
        Sending a NextTickMessage to Agent1
        Tick 143 has occurred


    ## Message ##
        Sending a NextTickMessage to Agent2
        Tick 143 has occurred


    ## Message ##
        Sending a NextTickMessage to Agent1
        Tick 144 has occurred


    ## Message ##
        Sending a NextTickMessage to Agent2
        Tick 144 has occurred


    ## Message ##
        Sending a NextTickMessage to Agent1
        Tick 145 has occurred


    ## Message ##
        Sending a NextTickMessage to Agent2
        Tick 145 has occurred


    ## Message ##
        Sending a NextTickMessage to Agent1
        Tick 146 has occurred


    ## Message ##
        Sending a NextTickMessage to Agent2
        Tick 146 has occurred


    ## Message ##
        Sending a NextTickMessage to Agent1
        Tick 147 has occurred


    ## Message ##
        Sending a NextTickMessage to Agent2
        Tick 147 has occurred


    ## Message ##
        Sending a NextTickMessage to Agent1
        Tick 148 has occurred


    ## Message ##
        Sending a NextTickMessage to Agent2
        Tick 148 has occurred


    ## Message ##
        Sending a NextTickMessage to Agent1
        Tick 149 has occurred


    ## Message ##
        Sending a NextTickMessage to Agent2
        Tick 149 has occurred


    ## Message ##
        Sending a NextTickMessage to Agent1
        Tick 150 has occurred


    ## Message ##
        Sending a NextTickMessage to Agent2
        Tick 150 has occurred


    ## Message ##
        Sending a NextTickMessage to Agent1
        Tick 151 has occurred


    ## Message ##
        Sending a NextTickMessage to Agent2
        Tick 151 has occurred


    ## Message ##
        Sending a NextTickMessage to Agent1
        Tick 152 has occurred


    ## Message ##
        Sending a NextTickMessage to Agent2
        Tick 152 has occurred


    ## Message ##
        Sending a NextTickMessage to Agent1
        Tick 153 has occurred


    ## Message ##
        Sending a NextTickMessage to Agent2
        Tick 153 has occurred


    ## Message ##
        Sending a NextTickMessage to Agent1
        Tick 154 has occurred


    ## Message ##
        Sending a NextTickMessage to Agent2
        Tick 154 has occurred


    ## Message ##
        Sending a NextTickMessage to Agent1
        Tick 155 has occurred


    ## Message ##
        Sending a NextTickMessage to Agent2
        Tick 155 has occurred


    ## Message ##
        Sending a NextTickMessage to Agent1
        Tick 156 has occurred


    ## Message ##
        Sending a NextTickMessage to Agent2
        Tick 156 has occurred


    ## Message ##
        Sending a NextTickMessage to Agent1
        Tick 157 has occurred


    ## Message ##
        Sending a NextTickMessage to Agent2
        Tick 157 has occurred


    ## Message ##
        Sending a NextTickMessage to Agent1
        Tick 158 has occurred


    ## Message ##
        Sending a NextTickMessage to Agent2
        Tick 158 has occurred


    ## Message ##
        Sending a NextTickMessage to Agent1
        Tick 159 has occurred


    ## Message ##
        Sending a NextTickMessage to Agent2
        Tick 159 has occurred


    ## Message ##
        Sending a NextTickMessage to Agent1
        Tick 160 has occurred


    ## Message ##
        Sending a NextTickMessage to Agent2
        Tick 160 has occurred


    ## Message ##
        Sending a NextTickMessage to Agent1
        Tick 161 has occurred


    ## Message ##
        Sending a NextTickMessage to Agent2
        Tick 161 has occurred


    ## Message ##
        Sending a NextTickMessage to Agent1
        Tick 162 has occurred


    ## Message ##
        Sending a NextTickMessage to Agent2
        Tick 162 has occurred


    ## Message ##
        Sending a NextTickMessage to Agent1
        Tick 163 has occurred


    ## Message ##
        Sending a NextTickMessage to Agent2
        Tick 163 has occurred


    ## Message ##
        Sending a NextTickMessage to Agent1
        Tick 164 has occurred


    ## Message ##
        Sending a NextTickMessage to Agent2
        Tick 164 has occurred


    ## Message ##
        Sending a NextTickMessage to Agent1
        Tick 165 has occurred


    ## Message ##
        Sending a NextTickMessage to Agent2
        Tick 165 has occurred


    ## Message ##
        Sending a NextTickMessage to Agent1
        Tick 166 has occurred


    ## Message ##
        Sending a NextTickMessage to Agent2
        Tick 166 has occurred


    ## Message ##
        Sending a NextTickMessage to Agent1
        Tick 167 has occurred


    ## Message ##
        Sending a NextTickMessage to Agent2
        Tick 167 has occurred


    ## Message ##
        Sending a NextTickMessage to Agent1
        Tick 168 has occurred


    ## Message ##
        Sending a NextTickMessage to Agent2
        Tick 168 has occurred


    ## Message ##
        Sending a NextTickMessage to Agent1
        Tick 169 has occurred


    ## Message ##
        Sending a NextTickMessage to Agent2
        Tick 169 has occurred


    ## Message ##
        Sending a NextTickMessage to Agent1
        Tick 170 has occurred


    ## Message ##
        Sending a NextTickMessage to Agent2
        Tick 170 has occurred


    ## Message ##
        Sending a NextTickMessage to Agent1
        Tick 171 has occurred


    ## Message ##
        Sending a NextTickMessage to Agent2
        Tick 171 has occurred


    ## Message ##
        Sending a NextTickMessage to Agent1
        Tick 172 has occurred


    ## Message ##
        Sending a NextTickMessage to Agent2
        Tick 172 has occurred


    ## Message ##
        Sending a NextTickMessage to Agent1
        Tick 173 has occurred


    ## Message ##
        Sending a NextTickMessage to Agent2
        Tick 173 has occurred


    ## Message ##
        Sending a NextTickMessage to Agent1
        Tick 174 has occurred


    ## Message ##
        Sending a NextTickMessage to Agent2
        Tick 174 has occurred


    ## Message ##
        Sending a NextTickMessage to Agent1
        Tick 175 has occurred


    ## Message ##
        Sending a NextTickMessage to Agent2
        Tick 175 has occurred


    ## Message ##
        Sending a NextTickMessage to Agent1
        Tick 176 has occurred


    ## Message ##
        Sending a NextTickMessage to Agent2
        Tick 176 has occurred


    ## Message ##
        Sending a NextTickMessage to Agent1
        Tick 177 has occurred


    ## Message ##
        Sending a NextTickMessage to Agent2
        Tick 177 has occurred


    ## Message ##
        Sending a NextTickMessage to Agent1
        Tick 178 has occurred


    ## Message ##
        Sending a NextTickMessage to Agent2
        Tick 178 has occurred


    ## Message ##
        Sending a NextTickMessage to Agent1
        Tick 179 has occurred


    ## Message ##
        Sending a NextTickMessage to Agent2
        Tick 179 has occurred


    ## Message ##
        Sending a NextTickMessage to Agent1
        Tick 180 has occurred


    ## Message ##
        Sending a NextTickMessage to Agent2
        Tick 180 has occurred


    ## Message ##
        Sending a NextTickMessage to Agent1
        Tick 181 has occurred


    ## Message ##
        Sending a NextTickMessage to Agent2
        Tick 181 has occurred


    ## Message ##
        Sending a NextTickMessage to Agent1
        Tick 182 has occurred


    ## Message ##
        Sending a NextTickMessage to Agent2
        Tick 182 has occurred


    ## Message ##
        Sending a NextTickMessage to Agent1
        Tick 183 has occurred


    ## Message ##
        Sending a NextTickMessage to Agent2
        Tick 183 has occurred


    ## Message ##
        Sending a NextTickMessage to Agent1
        Tick 184 has occurred


    ## Message ##
        Sending a NextTickMessage to Agent2
        Tick 184 has occurred


    ## Message ##
        Sending a NextTickMessage to Agent1
        Tick 185 has occurred


    ## Message ##
        Sending a NextTickMessage to Agent2
        Tick 185 has occurred


    ## Message ##
        Sending a NextTickMessage to Agent1
        Tick 186 has occurred


    ## Message ##
        Sending a NextTickMessage to Agent2
        Tick 186 has occurred


    ## Message ##
        Sending a NextTickMessage to Agent1
        Tick 187 has occurred


    ## Message ##
        Sending a NextTickMessage to Agent2
        Tick 187 has occurred


    ## Message ##
        Sending a NextTickMessage to Agent1
        Tick 188 has occurred


    ## Message ##
        Sending a NextTickMessage to Agent2
        Tick 188 has occurred


    ## Message ##
        Sending a NextTickMessage to Agent1
        Tick 189 has occurred


    ## Message ##
        Sending a NextTickMessage to Agent2
        Tick 189 has occurred


    ## Message ##
        Sending a NextTickMessage to Agent1
        Tick 190 has occurred


    ## Message ##
        Sending a NextTickMessage to Agent2
        Tick 190 has occurred


    ## Message ##
        Sending a NextTickMessage to Agent1
        Tick 191 has occurred


    ## Message ##
        Sending a NextTickMessage to Agent2
        Tick 191 has occurred


    ## Message ##
        Sending a NextTickMessage to Agent1
        Tick 192 has occurred


    ## Message ##
        Sending a NextTickMessage to Agent2
        Tick 192 has occurred


    ## Message ##
        Sending a NextTickMessage to Agent1
        Tick 193 has occurred


    ## Message ##
        Sending a NextTickMessage to Agent2
        Tick 193 has occurred


    ## Message ##
        Sending a NextTickMessage to Agent1
        Tick 194 has occurred


    ## Message ##
        Sending a NextTickMessage to Agent2
        Tick 194 has occurred


    ## Message ##
        Sending a NextTickMessage to Agent1
        Tick 195 has occurred


    ## Message ##
        Sending a NextTickMessage to Agent2
        Tick 195 has occurred


    ## Message ##
        Sending a NextTickMessage to Agent1
        Tick 196 has occurred


    ## Message ##
        Sending a NextTickMessage to Agent2
        Tick 196 has occurred


    ## Message ##
        Sending a NextTickMessage to Agent1
        Tick 197 has occurred


    ## Message ##
        Sending a NextTickMessage to Agent2
        Tick 197 has occurred


    ## Message ##
        Sending a NextTickMessage to Agent1
        Tick 198 has occurred


    ## Message ##
        Sending a NextTickMessage to Agent2
        Tick 198 has occurred


    ## Message ##
        Sending a NextTickMessage to Agent1
        Tick 199 has occurred


    ## Message ##
        Sending a NextTickMessage to Agent2
        Tick 199 has occurred


    ## Message ##
        Sending a NextTickMessage to Agent1
        Tick 200 has occurred


    ## Message ##
        Sending a NextTickMessage to Agent2
        Tick 200 has occurred


    ## Message ##
        Sending a NextTickMessage to Agent1
        Tick 201 has occurred


    ## Message ##
        Sending a NextTickMessage to Agent2
        Tick 201 has occurred


    ## Message ##
        Sending a NextTickMessage to Agent1
        Tick 202 has occurred


    ## Message ##
        Sending a NextTickMessage to Agent2
        Tick 202 has occurred


    ## Message ##
        Sending a NextTickMessage to Agent1
        Tick 203 has occurred


    ## Message ##
        Sending a NextTickMessage to Agent2
        Tick 203 has occurred


    ## Message ##
        Sending a NextTickMessage to Agent1
        Tick 204 has occurred


    ## Message ##
        Sending a NextTickMessage to Agent2
        Tick 204 has occurred


    ## Message ##
        Sending a NextTickMessage to Agent1
        Tick 205 has occurred


    ## Message ##
        Sending a NextTickMessage to Agent2
        Tick 205 has occurred


    ## Message ##
        Sending a NextTickMessage to Agent1
        Tick 206 has occurred


    ## Message ##
        Sending a NextTickMessage to Agent2
        Tick 206 has occurred


    ## Message ##
        Sending a NextTickMessage to Agent1
        Tick 207 has occurred


    ## Message ##
        Sending a NextTickMessage to Agent2
        Tick 207 has occurred


    ## Message ##
        Sending a NextTickMessage to Agent1
        Tick 208 has occurred


    ## Message ##
        Sending a NextTickMessage to Agent2
        Tick 208 has occurred


    ## Message ##
        Sending a NextTickMessage to Agent1
        Tick 209 has occurred


    ## Message ##
        Sending a NextTickMessage to Agent2
        Tick 209 has occurred


    ## Message ##
        Sending a NextTickMessage to Agent1
        Tick 210 has occurred


    ## Message ##
        Sending a NextTickMessage to Agent2
        Tick 210 has occurred


    ## Message ##
        Sending a NextTickMessage to Agent1
        Tick 211 has occurred


    ## Message ##
        Sending a NextTickMessage to Agent2
        Tick 211 has occurred


    ## Message ##
        Sending a NextTickMessage to Agent1
        Tick 212 has occurred


    ## Message ##
        Sending a NextTickMessage to Agent2
        Tick 212 has occurred


    ## Message ##
        Sending a NextTickMessage to Agent1
        Tick 213 has occurred


    ## Message ##
        Sending a NextTickMessage to Agent2
        Tick 213 has occurred


    ## Message ##
        Sending a NextTickMessage to Agent1
        Tick 214 has occurred


    ## Message ##
        Sending a NextTickMessage to Agent2
        Tick 214 has occurred


    ## Message ##
        Sending a NextTickMessage to Agent1
        Tick 215 has occurred


    ## Message ##
        Sending a NextTickMessage to Agent2
        Tick 215 has occurred


    ## Message ##
        Sending a NextTickMessage to Agent1
        Tick 216 has occurred


    ## Message ##
        Sending a NextTickMessage to Agent2
        Tick 216 has occurred


    ## Message ##
        Sending a NextTickMessage to Agent1
        Tick 217 has occurred


    ## Message ##
        Sending a NextTickMessage to Agent2
        Tick 217 has occurred


    ## Message ##
        Sending a NextTickMessage to Agent1
        Tick 218 has occurred


    ## Message ##
        Sending a NextTickMessage to Agent2
        Tick 218 has occurred


    ## Message ##
        Sending a NextTickMessage to Agent1
        Tick 219 has occurred


    ## Message ##
        Sending a NextTickMessage to Agent2
        Tick 219 has occurred


    ## Message ##
        Sending a NextTickMessage to Agent1
        Tick 220 has occurred


    ## Message ##
        Sending a NextTickMessage to Agent2
        Tick 220 has occurred


    ## Message ##
        Sending a NextTickMessage to Agent1
        Tick 221 has occurred


    ## Message ##
        Sending a NextTickMessage to Agent2
        Tick 221 has occurred


    ## Message ##
        Sending a NextTickMessage to Agent1
        Tick 222 has occurred


    ## Message ##
        Sending a NextTickMessage to Agent2
        Tick 222 has occurred


    ## Message ##
        Sending a NextTickMessage to Agent1
        Tick 223 has occurred


    ## Message ##
        Sending a NextTickMessage to Agent2
        Tick 223 has occurred


    ## Message ##
        Sending a NextTickMessage to Agent1
        Tick 224 has occurred


    ## Message ##
        Sending a NextTickMessage to Agent2
        Tick 224 has occurred


    ## Message ##
        Sending a NextTickMessage to Agent1
        Tick 225 has occurred


    ## Message ##
        Sending a NextTickMessage to Agent2
        Tick 225 has occurred


    ## Message ##
        Sending a NextTickMessage to Agent1
        Tick 226 has occurred


    ## Message ##
        Sending a NextTickMessage to Agent2
        Tick 226 has occurred


    ## Message ##
        Sending a NextTickMessage to Agent1
        Tick 227 has occurred


    ## Message ##
        Sending a NextTickMessage to Agent2
        Tick 227 has occurred


    ## Message ##
        Sending a NextTickMessage to Agent1
        Tick 228 has occurred


    ## Message ##
        Sending a NextTickMessage to Agent2
        Tick 228 has occurred


    ## Message ##
        Sending a NextTickMessage to Agent1
        Tick 229 has occurred


    ## Message ##
        Sending a NextTickMessage to Agent2
        Tick 229 has occurred


    ## Message ##
        Sending a NextTickMessage to Agent1
        Tick 230 has occurred


    ## Message ##
        Sending a NextTickMessage to Agent2
        Tick 230 has occurred


    ## Message ##
        Sending a NextTickMessage to Agent1
        Tick 231 has occurred


    ## Message ##
        Sending a NextTickMessage to Agent2
        Tick 231 has occurred


    ## Message ##
        Sending a NextTickMessage to Agent1
        Tick 232 has occurred


    ## Message ##
        Sending a NextTickMessage to Agent2
        Tick 232 has occurred


    ## Message ##
        Sending a NextTickMessage to Agent1
        Tick 233 has occurred


    ## Message ##
        Sending a NextTickMessage to Agent2
        Tick 233 has occurred


    ## Message ##
        Sending a NextTickMessage to Agent1
        Tick 234 has occurred


    ## Message ##
        Sending a NextTickMessage to Agent2
        Tick 234 has occurred


    ## Message ##
        Sending a NextTickMessage to Agent1
        Tick 235 has occurred


    ## Message ##
        Sending a NextTickMessage to Agent2
        Tick 235 has occurred


    ## Message ##
        Sending a NextTickMessage to Agent1
        Tick 236 has occurred


    ## Message ##
        Sending a NextTickMessage to Agent2
        Tick 236 has occurred


    ## Message ##
        Sending a NextTickMessage to Agent1
        Tick 237 has occurred


    ## Message ##
        Sending a NextTickMessage to Agent2
        Tick 237 has occurred


    ## Message ##
        Sending a NextTickMessage to Agent1
        Tick 238 has occurred


    ## Message ##
        Sending a NextTickMessage to Agent2
        Tick 238 has occurred


    ## Message ##
        Sending a NextTickMessage to Agent1
        Tick 239 has occurred


    ## Message ##
        Sending a NextTickMessage to Agent2
        Tick 239 has occurred


    ## Message ##
        Sending a NextTickMessage to Agent1
        Tick 240 has occurred


    ## Message ##
        Sending a NextTickMessage to Agent2
        Tick 240 has occurred


    ## Message ##
        Sending a NextTickMessage to Agent1
        Tick 241 has occurred


    ## Message ##
        Sending a NextTickMessage to Agent2
        Tick 241 has occurred


    ## Message ##
        Sending a NextTickMessage to Agent1
        Tick 242 has occurred


    ## Message ##
        Sending a NextTickMessage to Agent2
        Tick 242 has occurred


    ## Message ##
        Sending a NextTickMessage to Agent1
        Tick 243 has occurred


    ## Message ##
        Sending a NextTickMessage to Agent2
        Tick 243 has occurred


    ## Message ##
        Sending a NextTickMessage to Agent1
        Tick 244 has occurred


    ## Message ##
        Sending a NextTickMessage to Agent2
        Tick 244 has occurred


    ## Message ##
        Sending a NextTickMessage to Agent1
        Tick 245 has occurred


    ## Message ##
        Sending a NextTickMessage to Agent2
        Tick 245 has occurred


    ## Message ##
        Sending a NextTickMessage to Agent1
        Tick 246 has occurred


    ## Message ##
        Sending a NextTickMessage to Agent2
        Tick 246 has occurred


    ## Message ##
        Sending a NextTickMessage to Agent1
        Tick 247 has occurred


    ## Message ##
        Sending a NextTickMessage to Agent2
        Tick 247 has occurred


    ## Message ##
        Sending a NextTickMessage to Agent1
        Tick 248 has occurred


    ## Message ##
        Sending a NextTickMessage to Agent2
        Tick 248 has occurred


    ## Message ##
        Sending a NextTickMessage to Agent1
        Tick 249 has occurred


    ## Message ##
        Sending a NextTickMessage to Agent2
        Tick 249 has occurred


    ## Message ##
        Sending a NextTickMessage to Agent1
        Tick 250 has occurred


    ## Message ##
        Sending a NextTickMessage to Agent2
        Tick 250 has occurred


    ## Message ##
        Sending a NextTickMessage to Agent1
        Tick 251 has occurred


    ## Message ##
        Sending a NextTickMessage to Agent2
        Tick 251 has occurred


    ## Message ##
        Sending a NextTickMessage to Agent1
        Tick 252 has occurred


    ## Message ##
        Sending a NextTickMessage to Agent2
        Tick 252 has occurred


    ## Message ##
        Sending a NextTickMessage to Agent1
        Tick 253 has occurred


    ## Message ##
        Sending a NextTickMessage to Agent2
        Tick 253 has occurred


    ## Message ##
        Sending a NextTickMessage to Agent1
        Tick 254 has occurred


    ## Message ##
        Sending a NextTickMessage to Agent2
        Tick 254 has occurred


    ## Message ##
        Sending a NextTickMessage to Agent1
        Tick 255 has occurred


    ## Message ##
        Sending a NextTickMessage to Agent2
        Tick 255 has occurred


    ## Message ##
        Sending a NextTickMessage to Agent1
        Tick 256 has occurred


    ## Message ##
        Sending a NextTickMessage to Agent2
        Tick 256 has occurred


    ## Message ##
        Sending a NextTickMessage to Agent1
        Tick 257 has occurred


    ## Message ##
        Sending a NextTickMessage to Agent2
        Tick 257 has occurred


    ## Message ##
        Sending a NextTickMessage to Agent1
        Tick 258 has occurred


    ## Message ##
        Sending a NextTickMessage to Agent2
        Tick 258 has occurred


    ## Message ##
        Sending a NextTickMessage to Agent1
        Tick 259 has occurred


    ## Message ##
        Sending a NextTickMessage to Agent2
        Tick 259 has occurred


    ## Message ##
        Sending a NextTickMessage to Agent1
        Tick 260 has occurred


    ## Message ##
        Sending a NextTickMessage to Agent2
        Tick 260 has occurred


    ## Message ##
        Sending a NextTickMessage to Agent1
        Tick 261 has occurred


    ## Message ##
        Sending a NextTickMessage to Agent2
        Tick 261 has occurred


    ## Message ##
        Sending a NextTickMessage to Agent1
        Tick 262 has occurred


    ## Message ##
        Sending a NextTickMessage to Agent2
        Tick 262 has occurred


    ## Message ##
        Sending a NextTickMessage to Agent1
        Tick 263 has occurred


    ## Message ##
        Sending a NextTickMessage to Agent2
        Tick 263 has occurred


    ## Message ##
        Sending a NextTickMessage to Agent1
        Tick 264 has occurred


    ## Message ##
        Sending a NextTickMessage to Agent2
        Tick 264 has occurred


    ## Message ##
        Sending a NextTickMessage to Agent1
        Tick 265 has occurred


    ## Message ##
        Sending a NextTickMessage to Agent2
        Tick 265 has occurred


    ## Message ##
        Sending a NextTickMessage to Agent1
        Tick 266 has occurred


    ## Message ##
        Sending a NextTickMessage to Agent2
        Tick 266 has occurred


    ## Message ##
        Sending a NextTickMessage to Agent1
        Tick 267 has occurred


    ## Message ##
        Sending a NextTickMessage to Agent2
        Tick 267 has occurred


    ## Message ##
        Sending a NextTickMessage to Agent1
        Tick 268 has occurred


    ## Message ##
        Sending a NextTickMessage to Agent2
        Tick 268 has occurred


    ## Message ##
        Sending a NextTickMessage to Agent1
        Tick 269 has occurred


    ## Message ##
        Sending a NextTickMessage to Agent2
        Tick 269 has occurred


    ## Message ##
        Sending a NextTickMessage to Agent1
        Tick 270 has occurred


    ## Message ##
        Sending a NextTickMessage to Agent2
        Tick 270 has occurred


    ## Message ##
        Sending a NextTickMessage to Agent1
        Tick 271 has occurred


    ## Message ##
        Sending a NextTickMessage to Agent2
        Tick 271 has occurred


    ## Message ##
        Sending a NextTickMessage to Agent1
        Tick 272 has occurred


    ## Message ##
        Sending a NextTickMessage to Agent2
        Tick 272 has occurred


    ## Message ##
        Sending a NextTickMessage to Agent1
        Tick 273 has occurred


    ## Message ##
        Sending a NextTickMessage to Agent2
        Tick 273 has occurred


    ## Message ##
        Sending a NextTickMessage to Agent1
        Tick 274 has occurred


    ## Message ##
        Sending a NextTickMessage to Agent2
        Tick 274 has occurred


    ## Message ##
        Sending a NextTickMessage to Agent1
        Tick 275 has occurred


    ## Message ##
        Sending a NextTickMessage to Agent2
        Tick 275 has occurred


    ## Message ##
        Sending a NextTickMessage to Agent1
        Tick 276 has occurred


    ## Message ##
        Sending a NextTickMessage to Agent2
        Tick 276 has occurred


    ## Message ##
        Sending a NextTickMessage to Agent1
        Tick 277 has occurred


    ## Message ##
        Sending a NextTickMessage to Agent2
        Tick 277 has occurred


    ## Message ##
        Sending a NextTickMessage to Agent1
        Tick 278 has occurred


    ## Message ##
        Sending a NextTickMessage to Agent2
        Tick 278 has occurred


    ## Message ##
        Sending a NextTickMessage to Agent1
        Tick 279 has occurred


    ## Message ##
        Sending a NextTickMessage to Agent2
        Tick 279 has occurred


    ## Message ##
        Sending a NextTickMessage to Agent1
        Tick 280 has occurred


    ## Message ##
        Sending a NextTickMessage to Agent2
        Tick 280 has occurred


    ## Message ##
        Sending a NextTickMessage to Agent1
        Tick 281 has occurred


    ## Message ##
        Sending a NextTickMessage to Agent2
        Tick 281 has occurred


    ## Message ##
        Sending a NextTickMessage to Agent1
        Tick 282 has occurred


    ## Message ##
        Sending a NextTickMessage to Agent2
        Tick 282 has occurred


    ## Message ##
        Sending a NextTickMessage to Agent1
        Tick 283 has occurred


    ## Message ##
        Sending a NextTickMessage to Agent2
        Tick 283 has occurred


    ## Message ##
        Sending a NextTickMessage to Agent1
        Tick 284 has occurred


    ## Message ##
        Sending a NextTickMessage to Agent2
        Tick 284 has occurred


    ## Message ##
        Sending a NextTickMessage to Agent1
        Tick 285 has occurred


    ## Message ##
        Sending a NextTickMessage to Agent2
        Tick 285 has occurred


    ## Message ##
        Sending a NextTickMessage to Agent1
        Tick 286 has occurred


    ## Message ##
        Sending a NextTickMessage to Agent2
        Tick 286 has occurred


    ## Message ##
        Sending a NextTickMessage to Agent1
        Tick 287 has occurred


    ## Message ##
        Sending a NextTickMessage to Agent2
        Tick 287 has occurred


    ## Message ##
        Sending a NextTickMessage to Agent1
        Tick 288 has occurred


    ## Message ##
        Sending a NextTickMessage to Agent2
        Tick 288 has occurred


    ## Message ##
        Sending a NextTickMessage to Agent1
        Tick 289 has occurred


    ## Message ##
        Sending a NextTickMessage to Agent2
        Tick 289 has occurred


    ## Message ##
        Sending a NextTickMessage to Agent1
        Tick 290 has occurred


    ## Message ##
        Sending a NextTickMessage to Agent2
        Tick 290 has occurred


    ## Message ##
        Sending a NextTickMessage to Agent1
        Tick 291 has occurred


    ## Message ##
        Sending a NextTickMessage to Agent2
        Tick 291 has occurred


    ## Message ##
        Sending a NextTickMessage to Agent1
        Tick 292 has occurred


    ## Message ##
        Sending a NextTickMessage to Agent2
        Tick 292 has occurred


    ## Message ##
        Sending a NextTickMessage to Agent1
        Tick 293 has occurred


    ## Message ##
        Sending a NextTickMessage to Agent2
        Tick 293 has occurred


    ## Message ##
        Sending a NextTickMessage to Agent1
        Tick 294 has occurred


    ## Message ##
        Sending a NextTickMessage to Agent2
        Tick 294 has occurred


    ## Message ##
        Sending a NextTickMessage to Agent1
        Tick 295 has occurred


    ## Message ##
        Sending a NextTickMessage to Agent2
        Tick 295 has occurred


    ## Message ##
        Sending a NextTickMessage to Agent1
        Tick 296 has occurred


    ## Message ##
        Sending a NextTickMessage to Agent2
        Tick 296 has occurred


    ## Message ##
        Sending a NextTickMessage to Agent1
        Tick 297 has occurred


    ## Message ##
        Sending a NextTickMessage to Agent2
        Tick 297 has occurred


    ## Message ##
        Sending a NextTickMessage to Agent1
        Tick 298 has occurred


    ## Message ##
        Sending a NextTickMessage to Agent2
        Tick 298 has occurred


    ## Message ##
        Sending a NextTickMessage to Agent1
        Tick 299 has occurred


    ## Message ##
        Sending a NextTickMessage to Agent2
        Tick 299 has occurred


    ## Message ##
        Sending a NextTickMessage to Agent1
        Tick 300 has occurred


    ## Message ##
        Sending a NextTickMessage to Agent2
        Tick 300 has occurred


    ## Message ##
        Sending a NextTickMessage to Agent1
        Tick 301 has occurred


    ## Message ##
        Sending a NextTickMessage to Agent2
        Tick 301 has occurred


    ## Message ##
        Sending a NextTickMessage to Agent1
        Tick 302 has occurred


    ## Message ##
        Sending a NextTickMessage to Agent2
        Tick 302 has occurred


    ## Message ##
        Sending a NextTickMessage to Agent1
        Tick 303 has occurred


    ## Message ##
        Sending a NextTickMessage to Agent2
        Tick 303 has occurred


    ## Message ##
        Sending a NextTickMessage to Agent1
        Tick 304 has occurred


    ## Message ##
        Sending a NextTickMessage to Agent2
        Tick 304 has occurred


    ## Message ##
        Sending a NextTickMessage to Agent1
        Tick 305 has occurred


    ## Message ##
        Sending a NextTickMessage to Agent2
        Tick 305 has occurred


    ## Message ##
        Sending a NextTickMessage to Agent1
        Tick 306 has occurred


    ## Message ##
        Sending a NextTickMessage to Agent2
        Tick 306 has occurred


    ## Message ##
        Sending a NextTickMessage to Agent1
        Tick 307 has occurred


    ## Message ##
        Sending a NextTickMessage to Agent2
        Tick 307 has occurred


    ## Message ##
        Sending a NextTickMessage to Agent1
        Tick 308 has occurred


    ## Message ##
        Sending a NextTickMessage to Agent2
        Tick 308 has occurred


    ## Message ##
        Sending a NextTickMessage to Agent1
        Tick 309 has occurred


    ## Message ##
        Sending a NextTickMessage to Agent2
        Tick 309 has occurred


    ## Message ##
        Sending a NextTickMessage to Agent1
        Tick 310 has occurred


    ## Message ##
        Sending a NextTickMessage to Agent2
        Tick 310 has occurred


    ## Message ##
        Sending a NextTickMessage to Agent1
        Tick 311 has occurred


    ## Message ##
        Sending a NextTickMessage to Agent2
        Tick 311 has occurred


    ## Message ##
        Sending a NextTickMessage to Agent1
        Tick 312 has occurred


    ## Message ##
        Sending a NextTickMessage to Agent2
        Tick 312 has occurred


    ## Message ##
        Sending a NextTickMessage to Agent1
        Tick 313 has occurred


    ## Message ##
        Sending a NextTickMessage to Agent2
        Tick 313 has occurred


    ## Message ##
        Sending a NextTickMessage to Agent1
        Tick 314 has occurred


    ## Message ##
        Sending a NextTickMessage to Agent2
        Tick 314 has occurred


    ## Message ##
        Sending a NextTickMessage to Agent1
        Tick 315 has occurred


    ## Message ##
        Sending a NextTickMessage to Agent2
        Tick 315 has occurred


    ## Message ##
        Sending a NextTickMessage to Agent1
        Tick 316 has occurred


    ## Message ##
        Sending a NextTickMessage to Agent2
        Tick 316 has occurred


    ## Message ##
        Sending a NextTickMessage to Agent1
        Tick 317 has occurred


    ## Message ##
        Sending a NextTickMessage to Agent2
        Tick 317 has occurred


    ## Message ##
        Sending a NextTickMessage to Agent1
        Tick 318 has occurred


    ## Message ##
        Sending a NextTickMessage to Agent2
        Tick 318 has occurred


    ## Message ##
        Sending a NextTickMessage to Agent1
        Tick 319 has occurred


    ## Message ##
        Sending a NextTickMessage to Agent2
        Tick 319 has occurred


    ## Message ##
        Sending a NextTickMessage to Agent1
        Tick 320 has occurred


    ## Message ##
        Sending a NextTickMessage to Agent2
        Tick 320 has occurred


    ## Message ##
        Sending a NextTickMessage to Agent1
        Tick 321 has occurred


    ## Message ##
        Sending a NextTickMessage to Agent2
        Tick 321 has occurred


    ## Message ##
        Sending a NextTickMessage to Agent1
        Tick 322 has occurred


    ## Message ##
        Sending a NextTickMessage to Agent2
        Tick 322 has occurred


    ## Message ##
        Sending a NextTickMessage to Agent1
        Tick 323 has occurred


    ## Message ##
        Sending a NextTickMessage to Agent2
        Tick 323 has occurred


    ## Message ##
        Sending a NextTickMessage to Agent1
        Tick 324 has occurred


    ## Message ##
        Sending a NextTickMessage to Agent2
        Tick 324 has occurred


    ## Message ##
        Sending a NextTickMessage to Agent1
        Tick 325 has occurred


    ## Message ##
        Sending a NextTickMessage to Agent2
        Tick 325 has occurred


    ## Message ##
        Sending a NextTickMessage to Agent1
        Tick 326 has occurred


    ## Message ##
        Sending a NextTickMessage to Agent2
        Tick 326 has occurred


    ## Message ##
        Sending a NextTickMessage to Agent1
        Tick 327 has occurred


    ## Message ##
        Sending a NextTickMessage to Agent2
        Tick 327 has occurred


    ## Message ##
        Sending a NextTickMessage to Agent1
        Tick 328 has occurred


    ## Message ##
        Sending a NextTickMessage to Agent2
        Tick 328 has occurred


    ## Message ##
        Sending a NextTickMessage to Agent1
        Tick 329 has occurred


    ## Message ##
        Sending a NextTickMessage to Agent2
        Tick 329 has occurred


    ## Message ##
        Sending a NextTickMessage to Agent1
        Tick 330 has occurred


    ## Message ##
        Sending a NextTickMessage to Agent2
        Tick 330 has occurred


    ## Message ##
        Sending a NextTickMessage to Agent1
        Tick 331 has occurred


    ## Message ##
        Sending a NextTickMessage to Agent2
        Tick 331 has occurred


    ## Message ##
        Sending a NextTickMessage to Agent1
        Tick 332 has occurred


    ## Message ##
        Sending a NextTickMessage to Agent2
        Tick 332 has occurred


    ## Message ##
        Sending a NextTickMessage to Agent1
        Tick 333 has occurred


    ## Message ##
        Sending a NextTickMessage to Agent2
        Tick 333 has occurred


    ## Message ##
        Sending a NextTickMessage to Agent1
        Tick 334 has occurred


    ## Message ##
        Sending a NextTickMessage to Agent2
        Tick 334 has occurred


    ## Message ##
        Sending a NextTickMessage to Agent1
        Tick 335 has occurred


    ## Message ##
        Sending a NextTickMessage to Agent2
        Tick 335 has occurred


    ## Message ##
        Sending a NextTickMessage to Agent1
        Tick 336 has occurred


    ## Message ##
        Sending a NextTickMessage to Agent2
        Tick 336 has occurred


    ## Message ##
        Sending a NextTickMessage to Agent1
        Tick 337 has occurred


    ## Message ##
        Sending a NextTickMessage to Agent2
        Tick 337 has occurred


    ## Message ##
        Sending a NextTickMessage to Agent1
        Tick 338 has occurred


    ## Message ##
        Sending a NextTickMessage to Agent2
        Tick 338 has occurred


    ## Message ##
        Sending a NextTickMessage to Agent1
        Tick 339 has occurred


    ## Message ##
        Sending a NextTickMessage to Agent2
        Tick 339 has occurred


    ## Message ##
        Sending a NextTickMessage to Agent1
        Tick 340 has occurred


    ## Message ##
        Sending a NextTickMessage to Agent2
        Tick 340 has occurred


    ## Message ##
        Sending a NextTickMessage to Agent1
        Tick 341 has occurred


    ## Message ##
        Sending a NextTickMessage to Agent2
        Tick 341 has occurred


    ## Message ##
        Sending a NextTickMessage to Agent1
        Tick 342 has occurred


    ## Message ##
        Sending a NextTickMessage to Agent2
        Tick 342 has occurred


    ## Message ##
        Sending a NextTickMessage to Agent1
        Tick 343 has occurred


    ## Message ##
        Sending a NextTickMessage to Agent2
        Tick 343 has occurred


    ## Message ##
        Sending a NextTickMessage to Agent1
        Tick 344 has occurred


    ## Message ##
        Sending a NextTickMessage to Agent2
        Tick 344 has occurred


    ## Message ##
        Sending a NextTickMessage to Agent1
        Tick 345 has occurred


    ## Message ##
        Sending a NextTickMessage to Agent2
        Tick 345 has occurred


    ## Message ##
        Sending a NextTickMessage to Agent1
        Tick 346 has occurred


    ## Message ##
        Sending a NextTickMessage to Agent2
        Tick 346 has occurred


    ## Message ##
        Sending a NextTickMessage to Agent1
        Tick 347 has occurred


    ## Message ##
        Sending a NextTickMessage to Agent2
        Tick 347 has occurred


    ## Message ##
        Sending a NextTickMessage to Agent1
        Tick 348 has occurred


    ## Message ##
        Sending a NextTickMessage to Agent2
        Tick 348 has occurred


    ## Message ##
        Sending a NextTickMessage to Agent1
        Tick 349 has occurred


    ## Message ##
        Sending a NextTickMessage to Agent2
        Tick 349 has occurred


    ## Message ##
        Sending a NextTickMessage to Agent1
        Tick 350 has occurred


    ## Message ##
        Sending a NextTickMessage to Agent2
        Tick 350 has occurred


    ## Message ##
        Sending a NextTickMessage to Agent1
        Tick 351 has occurred


    ## Message ##
        Sending a NextTickMessage to Agent2
        Tick 351 has occurred


    ## Message ##
        Sending a NextTickMessage to Agent1
        Tick 352 has occurred


    ## Message ##
        Sending a NextTickMessage to Agent2
        Tick 352 has occurred


    ## Message ##
        Sending a NextTickMessage to Agent1
        Tick 353 has occurred


    ## Message ##
        Sending a NextTickMessage to Agent2
        Tick 353 has occurred


    ## Message ##
        Sending a NextTickMessage to Agent1
        Tick 354 has occurred


    ## Message ##
        Sending a NextTickMessage to Agent2
        Tick 354 has occurred


    ## Message ##
        Sending a NextTickMessage to Agent1
        Tick 355 has occurred


    ## Message ##
        Sending a NextTickMessage to Agent2
        Tick 355 has occurred


    ## Message ##
        Sending a NextTickMessage to Agent1
        Tick 356 has occurred


    ## Message ##
        Sending a NextTickMessage to Agent2
        Tick 356 has occurred


    ## Message ##
        Sending a NextTickMessage to Agent1
        Tick 357 has occurred


    ## Message ##
        Sending a NextTickMessage to Agent2
        Tick 357 has occurred


    ## Message ##
        Sending a NextTickMessage to Agent1
        Tick 358 has occurred


    ## Message ##
        Sending a NextTickMessage to Agent2
        Tick 358 has occurred


    ## Message ##
        Sending a NextTickMessage to Agent1
        Tick 359 has occurred


    ## Message ##
        Sending a NextTickMessage to Agent2
        Tick 359 has occurred


    ## Message ##
        Sending a NextTickMessage to Agent1
        Tick 360 has occurred


    ## Message ##
        Sending a NextTickMessage to Agent2
        Tick 360 has occurred


    ## Message ##
        Sending a NextTickMessage to Agent1
        Tick 361 has occurred


    ## Message ##
        Sending a NextTickMessage to Agent2
        Tick 361 has occurred


    ## Message ##
        Sending a NextTickMessage to Agent1
        Tick 362 has occurred


    ## Message ##
        Sending a NextTickMessage to Agent2
        Tick 362 has occurred


    ## Message ##
        Sending a NextTickMessage to Agent1
        Tick 363 has occurred


    ## Message ##
        Sending a NextTickMessage to Agent2
        Tick 363 has occurred


    ## Message ##
        Sending a NextTickMessage to Agent1
        Tick 364 has occurred


    ## Message ##
        Sending a NextTickMessage to Agent2
        Tick 364 has occurred


    ## Message ##
        Sending a NextTickMessage to Agent1
        Tick 365 has occurred


    ## Message ##
        Sending a NextTickMessage to Agent2
        Tick 365 has occurred


    ## Message ##
        Sending a NextTickMessage to Agent1
        Tick 366 has occurred


    ## Message ##
        Sending a NextTickMessage to Agent2
        Tick 366 has occurred


    ## Message ##
        Sending a NextTickMessage to Agent1
        Tick 367 has occurred


    ## Message ##
        Sending a NextTickMessage to Agent2
        Tick 367 has occurred


    ## Message ##
        Sending a NextTickMessage to Agent1
        Tick 368 has occurred


    ## Message ##
        Sending a NextTickMessage to Agent2
        Tick 368 has occurred


    ## Message ##
        Sending a NextTickMessage to Agent1
        Tick 369 has occurred


    ## Message ##
        Sending a NextTickMessage to Agent2
        Tick 369 has occurred


    ## Message ##
        Sending a NextTickMessage to Agent1
        Tick 370 has occurred


    ## Message ##
        Sending a NextTickMessage to Agent2
        Tick 370 has occurred


    ## Message ##
        Sending a NextTickMessage to Agent1
        Tick 371 has occurred


    ## Message ##
        Sending a NextTickMessage to Agent2
        Tick 371 has occurred


    ## Message ##
        Sending a NextTickMessage to Agent1
        Tick 372 has occurred


    ## Message ##
        Sending a NextTickMessage to Agent2
        Tick 372 has occurred


    ## Message ##
        Sending a NextTickMessage to Agent1
        Tick 373 has occurred


    ## Message ##
        Sending a NextTickMessage to Agent2
        Tick 373 has occurred


    ## Message ##
        Sending a NextTickMessage to Agent1
        Tick 374 has occurred


    ## Message ##
        Sending a NextTickMessage to Agent2
        Tick 374 has occurred


    ## Message ##
        Sending a NextTickMessage to Agent1
        Tick 375 has occurred


    ## Message ##
        Sending a NextTickMessage to Agent2
        Tick 375 has occurred


    ## Message ##
        Sending a NextTickMessage to Agent1
        Tick 376 has occurred


    ## Message ##
        Sending a NextTickMessage to Agent2
        Tick 376 has occurred


    ## Message ##
        Sending a NextTickMessage to Agent1
        Tick 377 has occurred


    ## Message ##
        Sending a NextTickMessage to Agent2
        Tick 377 has occurred


    ## Message ##
        Sending a NextTickMessage to Agent1
        Tick 378 has occurred


    ## Message ##
        Sending a NextTickMessage to Agent2
        Tick 378 has occurred


    ## Message ##
        Sending a NextTickMessage to Agent1
        Tick 379 has occurred


    ## Message ##
        Sending a NextTickMessage to Agent2
        Tick 379 has occurred


    ## Message ##
        Sending a NextTickMessage to Agent1
        Tick 380 has occurred


    ## Message ##
        Sending a NextTickMessage to Agent2
        Tick 380 has occurred


    ## Message ##
        Sending a NextTickMessage to Agent1
        Tick 381 has occurred


    ## Message ##
        Sending a NextTickMessage to Agent2
        Tick 381 has occurred


    ## Message ##
        Sending a NextTickMessage to Agent1
        Tick 382 has occurred


    ## Message ##
        Sending a NextTickMessage to Agent2
        Tick 382 has occurred


    ## Message ##
        Sending a NextTickMessage to Agent1
        Tick 383 has occurred


    ## Message ##
        Sending a NextTickMessage to Agent2
        Tick 383 has occurred


    ## Message ##
        Sending a NextTickMessage to Agent1
        Tick 384 has occurred


    ## Message ##
        Sending a NextTickMessage to Agent2
        Tick 384 has occurred


    ## Message ##
        Sending a NextTickMessage to Agent1
        Tick 385 has occurred


    ## Message ##
        Sending a NextTickMessage to Agent2
        Tick 385 has occurred


    ## Message ##
        Sending a NextTickMessage to Agent1
        Tick 386 has occurred


    ## Message ##
        Sending a NextTickMessage to Agent2
        Tick 386 has occurred


    ## Message ##
        Sending a NextTickMessage to Agent1
        Tick 387 has occurred


    ## Message ##
        Sending a NextTickMessage to Agent2
        Tick 387 has occurred


    ## Message ##
        Sending a NextTickMessage to Agent1
        Tick 388 has occurred


    ## Message ##
        Sending a NextTickMessage to Agent2
        Tick 388 has occurred


    ## Message ##
        Sending a NextTickMessage to Agent1
        Tick 389 has occurred


    ## Message ##
        Sending a NextTickMessage to Agent2
        Tick 389 has occurred


    ## Message ##
        Sending a NextTickMessage to Agent1
        Tick 390 has occurred


    ## Message ##
        Sending a NextTickMessage to Agent2
        Tick 390 has occurred


    ## Message ##
        Sending a NextTickMessage to Agent1
        Tick 391 has occurred


    ## Message ##
        Sending a NextTickMessage to Agent2
        Tick 391 has occurred


    ## Message ##
        Sending a NextTickMessage to Agent1
        Tick 392 has occurred


    ## Message ##
        Sending a NextTickMessage to Agent2
        Tick 392 has occurred


    ## Message ##
        Sending a NextTickMessage to Agent1
        Tick 393 has occurred


    ## Message ##
        Sending a NextTickMessage to Agent2
        Tick 393 has occurred


    ## Message ##
        Sending a NextTickMessage to Agent1
        Tick 394 has occurred


    ## Message ##
        Sending a NextTickMessage to Agent2
        Tick 394 has occurred


    ## Message ##
        Sending a NextTickMessage to Agent1
        Tick 395 has occurred


    ## Message ##
        Sending a NextTickMessage to Agent2
        Tick 395 has occurred


    ## Message ##
        Sending a NextTickMessage to Agent1
        Tick 396 has occurred


    ## Message ##
        Sending a NextTickMessage to Agent2
        Tick 396 has occurred


    ## Message ##
        Sending a NextTickMessage to Agent1
        Tick 397 has occurred


    ## Message ##
        Sending a NextTickMessage to Agent2
        Tick 397 has occurred


    ## Message ##
        Sending a NextTickMessage to Agent1
        Tick 398 has occurred


    ## Message ##
        Sending a NextTickMessage to Agent2
        Tick 398 has occurred


    ## Message ##
        Sending a NextTickMessage to Agent1
        Tick 399 has occurred


    ## Message ##
        Sending a NextTickMessage to Agent2
        Tick 399 has occurred


    ## Message ##
        Sending a NextTickMessage to Agent1
        Tick 400 has occurred


    ## Message ##
        Sending a NextTickMessage to Agent2
        Tick 400 has occurred


    ## Message ##
        Sending a EndSimulationMessage to Agent1
        The Simulation is Over


    ## Message ##
        Sending a EndSimulationMessage to Agent2
        The Simulation is Over


    ## Agent ##
        Name Agent1
        Sent: 0
        Received: 404
        Completed: 

    ## Agent ##
        Name Agent2
        Sent: 0
        Received: 404
        Completed: 