####### Sequential Logger #######



    ## Message ##
        Sending a SetRandomSeedMessage to Agent1
        The random seed is -5839646516654907217


    ## Message ##
        Sending a SetRandomSeedMessage to Agent2
        The random seed is -5839646516654907217


    ## Message ##
        Sending a InitialTreeMessage to Agent1
        Tree Head: Problem1


    ## Message ##
        Sending a InitialTreeMessage to Agent2
        Tree Head: Problem1


    ## Message ##
        Sending a StartSimulationMessage to Agent1
        The Simulation has Started


    ## Message ##
        Sending a StartSimulationMessage to Agent2
        The Simulation has Started


    ## Message ##
        Sending a NextTickMessage to Agent1
        Tick 1 has occurred


    ## Message ##
        Sending a NextTickMessage to Agent2
        Tick 1 has occurred


    ## Message ##
        Sending a NextTickMessage to Agent1
        Tick 2 has occurred


    ## Message ##
        Sending a NextTickMessage to Agent2
        Tick 2 has occurred


    ## Message ##
        Sending a NextTickMessage to Agent1
        Tick 3 has occurred


    ## Message ##
        Sending a NextTickMessage to Agent2
        Tick 3 has occurred


    ## Message ##
        Sending a NextTickMessage to Agent1
        Tick 4 has occurred


    ## Message ##
        Sending a NextTickMessage to Agent2
        Tick 4 has occurred


    ## Message ##
        Sending a NextTickMessage to Agent1
        Tick 5 has occurred


    ## Message ##
        Sending a NextTickMessage to Agent2
        Tick 5 has occurred


    ## Message ##
        Sending a NextTickMessage to Agent1
        Tick 6 has occurred


    ## Message ##
        Sending a NextTickMessage to Agent2
        Tick 6 has occurred


    ## Message ##
        Sending a NextTickMessage to Agent1
        Tick 7 has occurred


    ## Message ##
        Sending a NextTickMessage to Agent2
        Tick 7 has occurred


    ## Message ##
        Sending a NextTickMessage to Agent1
        Tick 8 has occurred


    ## Message ##
        Sending a NextTickMessage to Agent2
        Tick 8 has occurred


    ## Message ##
        Sending a NextTickMessage to Agent1
        Tick 9 has occurred


    ## Message ##
        Sending a NextTickMessage to Agent2
        Tick 9 has occurred


    ## Message ##
        Sending a NextTickMessage to Agent1
        Tick 10 has occurred


    ## Message ##
        Sending a NextTickMessage to Agent2
        Tick 10 has occurred


    ## Message ##
        Sending a NextTickMessage to Agent1
        Tick 11 has occurred


    ## Message ##
        Sending a NextTickMessage to Agent2
        Tick 11 has occurred


    ## Message ##
        Sending a NextTickMessage to Agent1
        Tick 12 has occurred


    ## Message ##
        Sending a NextTickMessage to Agent2
        Tick 12 has occurred


    ## Message ##
        Sending a NextTickMessage to Agent1
        Tick 13 has occurred


    ## Message ##
        Sending a NextTickMessage to Agent2
        Tick 13 has occurred


    ## Message ##
        Sending a NextTickMessage to Agent1
        Tick 14 has occurred


    ## Message ##
        Sending a NextTickMessage to Agent2
        Tick 14 has occurred


    ## Message ##
        Sending a NextTickMessage to Agent1
        Tick 15 has occurred


    ## Message ##
        Sending a NextTickMessage to Agent2
        Tick 15 has occurred


    ## Message ##
        Sending a NextTickMessage to Agent1
        Tick 16 has occurred


    ## Message ##
        Sending a NextTickMessage to Agent2
        Tick 16 has occurred


    ## Message ##
        Sending a NextTickMessage to Agent1
        Tick 17 has occurred


    ## Message ##
        Sending a NextTickMessage to Agent2
        Tick 17 has occurred


    ## Message ##
        Sending a NextTickMessage to Agent1
        Tick 18 has occurred


    ## Message ##
        Sending a NextTickMessage to Agent2
        Tick 18 has occurred


    ## Message ##
        Sending a NextTickMessage to Agent1
        Tick 19 has occurred


    ## Message ##
        Sending a NextTickMessage to Agent2
        Tick 19 has occurred


    ## Message ##
        Sending a NextTickMessage to Agent1
        Tick 20 has occurred


    ## Message ##
        Sending a NextTickMessage to Agent2
        Tick 20 has occurred


    ## Message ##
        Sending a NextTickMessage to Agent1
        Tick 21 has occurred


    ## Message ##
        Sending a NextTickMessage to Agent2
        Tick 21 has occurred


    ## Message ##
        Sending a NextTickMessage to Agent1
        Tick 22 has occurred


    ## Message ##
        Sending a NextTickMessage to Agent2
        Tick 22 has occurred


    ## Message ##
        Sending a NextTickMessage to Agent1
        Tick 23 has occurred


    ## Message ##
        Sending a NextTickMessage to Agent2
        Tick 23 has occurred


    ## Message ##
        Sending a NextTickMessage to Agent1
        Tick 24 has occurred


    ## Message ##
        Sending a NextTickMessage to Agent2
        Tick 24 has occurred


    ## Message ##
        Sending a NextTickMessage to Agent1
        Tick 25 has occurred


    ## Message ##
        Sending a NextTickMessage to Agent2
        Tick 25 has occurred


    ## Message ##
        Sending a NextTickMessage to Agent1
        Tick 26 has occurred


    ## Message ##
        Sending a NextTickMessage to Agent2
        Tick 26 has occurred


    ## Message ##
        Sending a NextTickMessage to Agent1
        Tick 27 has occurred


    ## Message ##
        Sending a NextTickMessage to Agent2
        Tick 27 has occurred


    ## Message ##
        Sending a NextTickMessage to Agent1
        Tick 28 has occurred


    ## Message ##
        Sending a NextTickMessage to Agent2
        Tick 28 has occurred


    ## Message ##
        Sending a NextTickMessage to Agent1
        Tick 29 has occurred


    ## Message ##
        Sending a NextTickMessage to Agent2
        Tick 29 has occurred


    ## Message ##
        Sending a NextTickMessage to Agent1
        Tick 30 has occurred


    ## Message ##
        Sending a NextTickMessage to Agent2
        Tick 30 has occurred


    ## Message ##
        Sending a NextTickMessage to Agent1
        Tick 31 has occurred


    ## Message ##
        Sending a NextTickMessage to Agent2
        Tick 31 has occurred


    ## Message ##
        Sending a NextTickMessage to Agent1
        Tick 32 has occurred


    ## Message ##
        Sending a NextTickMessage to Agent2
        Tick 32 has occurred


    ## Message ##
        Sending a NextTickMessage to Agent1
        Tick 33 has occurred


    ## Message ##
        Sending a NextTickMessage to Agent2
        Tick 33 has occurred


    ## Message ##
        Sending a NextTickMessage to Agent1
        Tick 34 has occurred


    ## Message ##
        Sending a NextTickMessage to Agent2
        Tick 34 has occurred


    ## Message ##
        Sending a NextTickMessage to Agent1
        Tick 35 has occurred


    ## Message ##
        Sending a NextTickMessage to Agent2
        Tick 35 has occurred


    ## Message ##
        Sending a NextTickMessage to Agent1
        Tick 36 has occurred


    ## Message ##
        Sending a NextTickMessage to Agent2
        Tick 36 has occurred


    ## Message ##
        Sending a NextTickMessage to Agent1
        Tick 37 has occurred


    ## Message ##
        Sending a NextTickMessage to Agent2
        Tick 37 has occurred


    ## Message ##
        Sending a NextTickMessage to Agent1
        Tick 38 has occurred


    ## Message ##
        Sending a NextTickMessage to Agent2
        Tick 38 has occurred


    ## Message ##
        Sending a NextTickMessage to Agent1
        Tick 39 has occurred


    ## Message ##
        Sending a NextTickMessage to Agent2
        Tick 39 has occurred


    ## Message ##
        Sending a NextTickMessage to Agent1
        Tick 40 has occurred


    ## Message ##
        Sending a NextTickMessage to Agent2
        Tick 40 has occurred


    ## Message ##
        Sending a NextTickMessage to Agent1
        Tick 41 has occurred


    ## Message ##
        Sending a NextTickMessage to Agent2
        Tick 41 has occurred


    ## Message ##
        Sending a NextTickMessage to Agent1
        Tick 42 has occurred


    ## Message ##
        Sending a NextTickMessage to Agent2
        Tick 42 has occurred


    ## Message ##
        Sending a NextTickMessage to Agent1
        Tick 43 has occurred


    ## Message ##
        Sending a NextTickMessage to Agent2
        Tick 43 has occurred


    ## Message ##
        Sending a NextTickMessage to Agent1
        Tick 44 has occurred


    ## Message ##
        Sending a NextTickMessage to Agent2
        Tick 44 has occurred


    ## Message ##
        Sending a NextTickMessage to Agent1
        Tick 45 has occurred


    ## Message ##
        Sending a NextTickMessage to Agent2
        Tick 45 has occurred


    ## Message ##
        Sending a NextTickMessage to Agent1
        Tick 46 has occurred


    ## Message ##
        Sending a NextTickMessage to Agent2
        Tick 46 has occurred


    ## Message ##
        Sending a NextTickMessage to Agent1
        Tick 47 has occurred


    ## Message ##
        Sending a NextTickMessage to Agent2
        Tick 47 has occurred


    ## Message ##
        Sending a NextTickMessage to Agent1
        Tick 48 has occurred


    ## Message ##
        Sending a NextTickMessage to Agent2
        Tick 48 has occurred


    ## Message ##
        Sending a NextTickMessage to Agent1
        Tick 49 has occurred


    ## Message ##
        Sending a NextTickMessage to Agent2
        Tick 49 has occurred


    ## Message ##
        Sending a NextTickMessage to Agent1
        Tick 50 has occurred


    ## Message ##
        Sending a NextTickMessage to Agent2
        Tick 50 has occurred


    ## Message ##
        Sending a NextTickMessage to Agent1
        Tick 51 has occurred


    ## Message ##
        Sending a NextTickMessage to Agent2
        Tick 51 has occurred


    ## Message ##
        Sending a NextTickMessage to Agent1
        Tick 52 has occurred


    ## Message ##
        Sending a NextTickMessage to Agent2
        Tick 52 has occurred


    ## Message ##
        Sending a NextTickMessage to Agent1
        Tick 53 has occurred


    ## Message ##
        Sending a NextTickMessage to Agent2
        Tick 53 has occurred


    ## Message ##
        Sending a NextTickMessage to Agent1
        Tick 54 has occurred


    ## Message ##
        Sending a NextTickMessage to Agent2
        Tick 54 has occurred


    ## Message ##
        Sending a NextTickMessage to Agent1
        Tick 55 has occurred


    ## Message ##
        Sending a NextTickMessage to Agent2
        Tick 55 has occurred


    ## Message ##
        Sending a NextTickMessage to Agent1
        Tick 56 has occurred


    ## Message ##
        Sending a NextTickMessage to Agent2
        Tick 56 has occurred


    ## Message ##
        Sending a NextTickMessage to Agent1
        Tick 57 has occurred


    ## Message ##
        Sending a NextTickMessage to Agent2
        Tick 57 has occurred


    ## Message ##
        Sending a NextTickMessage to Agent1
        Tick 58 has occurred


    ## Message ##
        Sending a NextTickMessage to Agent2
        Tick 58 has occurred


    ## Message ##
        Sending a NextTickMessage to Agent1
        Tick 59 has occurred


    ## Message ##
        Sending a NextTickMessage to Agent2
        Tick 59 has occurred


    ## Message ##
        Sending a NextTickMessage to Agent1
        Tick 60 has occurred


    ## Message ##
        Sending a NextTickMessage to Agent2
        Tick 60 has occurred


    ## Message ##
        Sending a NextTickMessage to Agent1
        Tick 61 has occurred


    ## Message ##
        Sending a NextTickMessage to Agent2
        Tick 61 has occurred


    ## Message ##
        Sending a NextTickMessage to Agent1
        Tick 62 has occurred


    ## Message ##
        Sending a NextTickMessage to Agent2
        Tick 62 has occurred


    ## Message ##
        Sending a NextTickMessage to Agent1
        Tick 63 has occurred


    ## Message ##
        Sending a NextTickMessage to Agent2
        Tick 63 has occurred


    ## Message ##
        Sending a NextTickMessage to Agent1
        Tick 64 has occurred


    ## Message ##
        Sending a NextTickMessage to Agent2
        Tick 64 has occurred


    ## Message ##
        Sending a NextTickMessage to Agent1
        Tick 65 has occurred


    ## Message ##
        Sending a NextTickMessage to Agent2
        Tick 65 has occurred


    ## Message ##
        Sending a NextTickMessage to Agent1
        Tick 66 has occurred


    ## Message ##
        Sending a NextTickMessage to Agent2
        Tick 66 has occurred


    ## Message ##
        Sending a NextTickMessage to Agent1
        Tick 67 has occurred


    ## Message ##
        Sending a NextTickMessage to Agent2
        Tick 67 has occurred


    ## Message ##
        Sending a NextTickMessage to Agent1
        Tick 68 has occurred


    ## Message ##
        Sending a NextTickMessage to Agent2
        Tick 68 has occurred


    ## Message ##
        Sending a NextTickMessage to Agent1
        Tick 69 has occurred


    ## Message ##
        Sending a NextTickMessage to Agent2
        Tick 69 has occurred


    ## Message ##
        Sending a NextTickMessage to Agent1
        Tick 70 has occurred


    ## Message ##
        Sending a NextTickMessage to Agent2
        Tick 70 has occurred


    ## Message ##
        Sending a NextTickMessage to Agent1
        Tick 71 has occurred


    ## Message ##
        Sending a NextTickMessage to Agent2
        Tick 71 has occurred


    ## Message ##
        Sending a NextTickMessage to Agent1
        Tick 72 has occurred


    ## Message ##
        Sending a NextTickMessage to Agent2
        Tick 72 has occurred


    ## Message ##
        Sending a NextTickMessage to Agent1
        Tick 73 has occurred


    ## Message ##
        Sending a NextTickMessage to Agent2
        Tick 73 has occurred


    ## Message ##
        Sending a NextTickMessage to Agent1
        Tick 74 has occurred


    ## Message ##
        Sending a NextTickMessage to Agent2
        Tick 74 has occurred


    ## Message ##
        Sending a NextTickMessage to Agent1
        Tick 75 has occurred


    ## Message ##
        Sending a NextTickMessage to Agent2
        Tick 75 has occurred


    ## Message ##
        Sending a NextTickMessage to Agent1
        Tick 76 has occurred


    ## Message ##
        Sending a NextTickMessage to Agent2
        Tick 76 has occurred


    ## Message ##
        Sending a NextTickMessage to Agent1
        Tick 77 has occurred


    ## Message ##
        Sending a NextTickMessage to Agent2
        Tick 77 has occurred


    ## Message ##
        Sending a NextTickMessage to Agent1
        Tick 78 has occurred


    ## Message ##
        Sending a NextTickMessage to Agent2
        Tick 78 has occurred


    ## Message ##
        Sending a NextTickMessage to Agent1
        Tick 79 has occurred


    ## Message ##
        Sending a NextTickMessage to Agent2
        Tick 79 has occurred


    ## Message ##
        Sending a NextTickMessage to Agent1
        Tick 80 has occurred


    ## Message ##
        Sending a NextTickMessage to Agent2
        Tick 80 has occurred


    ## Message ##
        Sending a NextTickMessage to Agent1
        Tick 81 has occurred


    ## Message ##
        Sending a NextTickMessage to Agent2
        Tick 81 has occurred


    ## Message ##
        Sending a NextTickMessage to Agent1
        Tick 82 has occurred


    ## Message ##
        Sending a NextTickMessage to Agent2
        Tick 82 has occurred


    ## Message ##
        Sending a NextTickMessage to Agent1
        Tick 83 has occurred


    ## Message ##
        Sending a NextTickMessage to Agent2
        Tick 83 has occurred


    ## Message ##
        Sending a NextTickMessage to Agent1
        Tick 84 has occurred


    ## Message ##
        Sending a NextTickMessage to Agent2
        Tick 84 has occurred


    ## Message ##
        Sending a NextTickMessage to Agent1
        Tick 85 has occurred


    ## Message ##
        Sending a NextTickMessage to Agent2
        Tick 85 has occurred


    ## Message ##
        Sending a NextTickMessage to Agent1
        Tick 86 has occurred


    ## Message ##
        Sending a NextTickMessage to Agent2
        Tick 86 has occurred


    ## Message ##
        Sending a NextTickMessage to Agent1
        Tick 87 has occurred


    ## Message ##
        Sending a NextTickMessage to Agent2
        Tick 87 has occurred


    ## Message ##
        Sending a NextTickMessage to Agent1
        Tick 88 has occurred


    ## Message ##
        Sending a NextTickMessage to Agent2
        Tick 88 has occurred


    ## Message ##
        Sending a NextTickMessage to Agent1
        Tick 89 has occurred


    ## Message ##
        Sending a NextTickMessage to Agent2
        Tick 89 has occurred


    ## Message ##
        Sending a NextTickMessage to Agent1
        Tick 90 has occurred


    ## Message ##
        Sending a NextTickMessage to Agent2
        Tick 90 has occurred


    ## Message ##
        Sending a NextTickMessage to Agent1
        Tick 91 has occurred


    ## Message ##
        Sending a NextTickMessage to Agent2
        Tick 91 has occurred


    ## Message ##
        Sending a NextTickMessage to Agent1
        Tick 92 has occurred


    ## Message ##
        Sending a NextTickMessage to Agent2
        Tick 92 has occurred


    ## Message ##
        Sending a NextTickMessage to Agent1
        Tick 93 has occurred


    ## Message ##
        Sending a NextTickMessage to Agent2
        Tick 93 has occurred


    ## Message ##
        Sending a NextTickMessage to Agent1
        Tick 94 has occurred


    ## Message ##
        Sending a NextTickMessage to Agent2
        Tick 94 has occurred


    ## Message ##
        Sending a NextTickMessage to Agent1
        Tick 95 has occurred


    ## Message ##
        Sending a NextTickMessage to Agent2
        Tick 95 has occurred


    ## Message ##
        Sending a NextTickMessage to Agent1
        Tick 96 has occurred


    ## Message ##
        Sending a NextTickMessage to Agent2
        Tick 96 has occurred


    ## Message ##
        Sending a NextTickMessage to Agent1
        Tick 97 has occurred


    ## Message ##
        Sending a NextTickMessage to Agent2
        Tick 97 has occurred


    ## Message ##
        Sending a NextTickMessage to Agent1
        Tick 98 has occurred


    ## Message ##
        Sending a NextTickMessage to Agent2
        Tick 98 has occurred


    ## Message ##
        Sending a NextTickMessage to Agent1
        Tick 99 has occurred


    ## Message ##
        Sending a NextTickMessage to Agent2
        Tick 99 has occurred


    ## Message ##
        Sending a NextTickMessage to Agent1
        Tick 100 has occurred


    ## Message ##
        Sending a NextTickMessage to Agent2
        Tick 100 has occurred


    ## Message ##
        Sending a NextTickMessage to Agent1
        Tick 101 has occurred


    ## Message ##
        Sending a NextTickMessage to Agent2
        Tick 101 has occurred


    ## Message ##
        Sending a NextTickMessage to Agent1
        Tick 102 has occurred


    ## Message ##
        Sending a NextTickMessage to Agent2
        Tick 102 has occurred


    ## Message ##
        Sending a NextTickMessage to Agent1
        Tick 103 has occurred


    ## Message ##
        Sending a NextTickMessage to Agent2
        Tick 103 has occurred


    ## Message ##
        Sending a NextTickMessage to Agent1
        Tick 104 has occurred


    ## Message ##
        Sending a NextTickMessage to Agent2
        Tick 104 has occurred


    ## Message ##
        Sending a NextTickMessage to Agent1
        Tick 105 has occurred


    ## Message ##
        Sending a NextTickMessage to Agent2
        Tick 105 has occurred


    ## Message ##
        Sending a NextTickMessage to Agent1
        Tick 106 has occurred


    ## Message ##
        Sending a NextTickMessage to Agent2
        Tick 106 has occurred


    ## Message ##
        Sending a NextTickMessage to Agent1
        Tick 107 has occurred


    ## Message ##
        Sending a NextTickMessage to Agent2
        Tick 107 has occurred


    ## Message ##
        Sending a NextTickMessage to Agent1
        Tick 108 has occurred


    ## Message ##
        Sending a NextTickMessage to Agent2
        Tick 108 has occurred


    ## Message ##
        Sending a NextTickMessage to Agent1
        Tick 109 has occurred


    ## Message ##
        Sending a NextTickMessage to Agent2
        Tick 109 has occurred


    ## Message ##
        Sending a NextTickMessage to Agent1
        Tick 110 has occurred


    ## Message ##
        Sending a NextTickMessage to Agent2
        Tick 110 has occurred


    ## Message ##
        Sending a NextTickMessage to Agent1
        Tick 111 has occurred


    ## Message ##
        Sending a NextTickMessage to Agent2
        Tick 111 has occurred


    ## Message ##
        Sending a NextTickMessage to Agent1
        Tick 112 has occurred


    ## Message ##
        Sending a NextTickMessage to Agent2
        Tick 112 has occurred
