####### Ordered Logger #######


Final Duration: 400.0
Final Quality: 0.0
Seed: -3095260661427277098

##### Method Results #####

##### Relationship Results #####

##### Agent Results #####


    ## Agent ##
        Name Agent1
        Sent: 0
        Received: 404
        Completed: Final Duration: 400.0
Final Quality: 0.0
Seed: -3095260661427277098

##### Method Results #####

##### Relationship Results #####

##### Agent Results #####
