digraph G {
	"Root-OR-5000-MAX" -> "T1-AND-5000-SUM"
	"T1-AND-5000-SUM" -> "T3-AND-5000-SUM"
	"Root-OR-5000-MAX" -> "T2-OR-5000-MAX"
	"T2-OR-5000-MAX" -> "T4-AND-5000-SUM"
	"T2-OR-5000-MAX" -> "T5-OR-5000-MAX"
	"T2-OR-5000-MAX" -> "T6-AND-5000-SUM"
	"T3-AND-5000-SUM" -> M1
	"T4-AND-5000-SUM" -> M2
	"T4-AND-5000-SUM" -> M3
	"T5-OR-5000-MAX" -> M4
	"T5-OR-5000-MAX" -> M5
	"T5-OR-5000-MAX" -> M6
	"T5-OR-5000-MAX" -> M7
	"T6-AND-5000-SUM" -> M8
	"T6-AND-5000-SUM" -> M9
	"T6-AND-5000-SUM" -> M10
}
