digraph G {
	"RTS199-OR-80000-MAX" -> "T1-AND-80000-SUM"
	"T1-AND-80000-SUM" -> "T4-AND-80000-SUM"
	"T4-AND-80000-SUM" -> "T7-OR-80000-MAX"
	"RTS199-OR-80000-MAX" -> "T2-AND-80000-SUM"
	"T2-AND-80000-SUM" -> "T5-AND-80000-SUM"
	"T5-AND-80000-SUM" -> "T8-OR-80000-MAX"
	"RTS199-OR-80000-MAX" -> "T3-AND-80000-SUM"
	"T3-AND-80000-SUM" -> "T6-AND-80000-SUM"
	"T6-AND-80000-SUM" -> "T9-OR-80000-MAX"
	"T7-OR-80000-MAX" -> M1
	"T7-OR-80000-MAX" -> M2
	"T7-OR-80000-MAX" -> M3
	"T7-OR-80000-MAX" -> M4
	"T8-OR-80000-MAX" -> M5
	"T8-OR-80000-MAX" -> M6
	"T8-OR-80000-MAX" -> M7
	"T8-OR-80000-MAX" -> M8
	"T8-OR-80000-MAX" -> M9
	"T9-OR-80000-MAX" -> M10
	"T9-OR-80000-MAX" -> M11
}
