digraph G {
	"RTS130-AND-80000-SUM" -> "T1-AND-80000-SUM"
	"T1-AND-80000-SUM" -> "T2-AND-80000-SUM"
	"T2-AND-80000-SUM" -> "T3-OR-655-MAX"
	"T2-AND-80000-SUM" -> "T4-OR-4619-MAX"
	"T2-AND-80000-SUM" -> "T5-AND-32135-SUM"
	"T2-AND-80000-SUM" -> "T6-AND-42591-SUM"
	"T3-OR-655-MAX" -> M1
	"T3-OR-655-MAX" -> M2
	"T3-OR-655-MAX" -> M3
	"T3-OR-655-MAX" -> M4
	"T3-OR-655-MAX" -> M5
	"T3-OR-655-MAX" -> M6
	"T4-OR-4619-MAX" -> M7
	"T4-OR-4619-MAX" -> M8
	"T5-AND-32135-SUM" -> M9
	"T6-AND-42591-SUM" -> M10
	"T6-AND-42591-SUM" -> M11
	"T6-AND-42591-SUM" -> M12
	"T6-AND-42591-SUM" -> M13
}
