digraph G {
	"RTS16-OR-80000-MAX" -> "T1-AND-80000-SUM"
	"T1-AND-80000-SUM" -> "T3-AND-80000-SUM"
	"RTS16-OR-80000-MAX" -> "T2-AND-80000-SUM"
	"T2-AND-80000-SUM" -> "T4-OR-4834-MAX"
	"T2-AND-80000-SUM" -> "T5-OR-23478-MAX"
	"T2-AND-80000-SUM" -> "T6-AND-51688-SUM"
	"T3-AND-80000-SUM" -> M1
	"T3-AND-80000-SUM" -> M2
	"T3-AND-80000-SUM" -> M3
	"T3-AND-80000-SUM" -> M4
	"T4-OR-4834-MAX" -> M5
	"T4-OR-4834-MAX" -> M6
	"T4-OR-4834-MAX" -> M7
	"T5-OR-23478-MAX" -> M8
	"T5-OR-23478-MAX" -> M9
	"T5-OR-23478-MAX" -> M10
	"T5-OR-23478-MAX" -> M11
	"T6-AND-51688-SUM" -> M12
}
