digraph G {
	"RTS139-AND-80000-SUM" -> "T1-AND-20221-SUM"
	"T1-AND-20221-SUM" -> "T3-AND-20221-SUM"
	"T3-AND-20221-SUM" -> "T5-OR-20221-MAX"
	"RTS139-AND-80000-SUM" -> "T2-AND-59779-SUM"
	"T2-AND-59779-SUM" -> "T4-OR-59779-MAX"
	"T4-OR-59779-MAX" -> "T6-OR-59779-MAX"
	"T4-OR-59779-MAX" -> "T7-AND-59779-SUM"
	"T4-OR-59779-MAX" -> "T8-AND-59779-SUM"
	"T4-OR-59779-MAX" -> "T9-AND-59779-SUM"
	"T5-OR-20221-MAX" -> M1
	"T5-OR-20221-MAX" -> M2
	"T6-OR-59779-MAX" -> M3
	"T6-OR-59779-MAX" -> M4
	"T7-AND-59779-SUM" -> M5
	"T8-AND-59779-SUM" -> M6
	"T9-AND-59779-SUM" -> M7
	"T9-AND-59779-SUM" -> M8
	"T9-AND-59779-SUM" -> M9
	"T9-AND-59779-SUM" -> M10
	"T9-AND-59779-SUM" -> M11
}
