digraph G {
	"RTS113-AND-80000-SUM" -> "T1-OR-80000-MAX"
	"T1-OR-80000-MAX" -> "T2-AND-80000-SUM"
	"T1-OR-80000-MAX" -> "T3-AND-80000-SUM"
	"T1-OR-80000-MAX" -> "T4-OR-80000-MAX"
	"T2-AND-80000-SUM" -> M1
	"T2-AND-80000-SUM" -> M2
	"T3-AND-80000-SUM" -> M3
	"T4-OR-80000-MAX" -> M4
	"T4-OR-80000-MAX" -> M5
	"T4-OR-80000-MAX" -> M6
	"T4-OR-80000-MAX" -> M7
	"T4-OR-80000-MAX" -> M8
	"T4-OR-80000-MAX" -> M9
	"T4-OR-80000-MAX" -> M10
	"T4-OR-80000-MAX" -> M11
}
