digraph G {
	"RTS116-AND-80000-SUM" -> "T1-AND-80000-SUM"
	"T1-AND-80000-SUM" -> "T2-OR-8461-MAX"
	"T2-OR-8461-MAX" -> "T5-AND-8461-SUM"
	"T2-OR-8461-MAX" -> "T6-AND-8461-SUM"
	"T2-OR-8461-MAX" -> "T7-AND-8461-SUM"
	"T1-AND-80000-SUM" -> "T3-AND-8596-SUM"
	"T3-AND-8596-SUM" -> "T8-OR-8596-MAX"
	"T1-AND-80000-SUM" -> "T4-AND-62943-SUM"
	"T4-AND-62943-SUM" -> "T9-OR-62943-MAX"
	"T5-AND-8461-SUM" -> M1
	"T6-AND-8461-SUM" -> M2
	"T6-AND-8461-SUM" -> M3
	"T6-AND-8461-SUM" -> M4
	"T7-AND-8461-SUM" -> M5
	"T7-AND-8461-SUM" -> M6
	"T8-OR-8596-MAX" -> M7
	"T8-OR-8596-MAX" -> M8
	"T9-OR-62943-MAX" -> M9
	"T9-OR-62943-MAX" -> M10
	"T9-OR-62943-MAX" -> M11
	"T9-OR-62943-MAX" -> M12
	"T9-OR-62943-MAX" -> M13
	"T9-OR-62943-MAX" -> M14
	"T9-OR-62943-MAX" -> M15
}
