digraph G {
	"RTS224-AND-80000-SUM" -> "T1-AND-80000-SUM"
	"T1-AND-80000-SUM" -> "T2-OR-10839-MAX"
	"T2-OR-10839-MAX" -> "T5-OR-10839-MAX"
	"T2-OR-10839-MAX" -> "T6-AND-10839-SUM"
	"T1-AND-80000-SUM" -> "T3-AND-27219-SUM"
	"T3-AND-27219-SUM" -> "T7-OR-2106-MAX"
	"T3-AND-27219-SUM" -> "T8-OR-25113-MAX"
	"T1-AND-80000-SUM" -> "T4-AND-41942-SUM"
	"T4-AND-41942-SUM" -> "T9-AND-41942-SUM"
	"T5-OR-10839-MAX" -> M1
	"T5-OR-10839-MAX" -> M2
	"T5-OR-10839-MAX" -> M3
	"T6-AND-10839-SUM" -> M4
	"T7-OR-2106-MAX" -> M5
	"T7-OR-2106-MAX" -> M6
	"T7-OR-2106-MAX" -> M7
	"T7-OR-2106-MAX" -> M8
	"T7-OR-2106-MAX" -> M9
	"T7-OR-2106-MAX" -> M10
	"T8-OR-25113-MAX" -> M11
	"T8-OR-25113-MAX" -> M12
	"T8-OR-25113-MAX" -> M13
	"T9-AND-41942-SUM" -> M14
}
