digraph G {
	"RTS228-AND-80000-SUM" -> "T1-AND-21890-SUM"
	"T1-AND-21890-SUM" -> "T3-AND-21890-SUM"
	"T3-AND-21890-SUM" -> "T6-OR-2032-MAX"
	"T3-AND-21890-SUM" -> "T7-AND-19858-SUM"
	"RTS228-AND-80000-SUM" -> "T2-OR-58110-MAX"
	"T2-OR-58110-MAX" -> "T4-AND-58110-SUM"
	"T4-AND-58110-SUM" -> "T8-AND-58110-SUM"
	"T2-OR-58110-MAX" -> "T5-AND-58110-SUM"
	"T5-AND-58110-SUM" -> "T9-OR-58110-MAX"
	"T6-OR-2032-MAX" -> M1
	"T6-OR-2032-MAX" -> M2
	"T6-OR-2032-MAX" -> M3
	"T7-AND-19858-SUM" -> M4
	"T8-AND-58110-SUM" -> M5
	"T8-AND-58110-SUM" -> M6
	"T8-AND-58110-SUM" -> M7
	"T9-OR-58110-MAX" -> M8
	"T9-OR-58110-MAX" -> M9
	"T9-OR-58110-MAX" -> M10
}
