digraph G {
	"RTS222-AND-80000-SUM" -> "T1-AND-80000-SUM"
	"T1-AND-80000-SUM" -> "T2-AND-111-SUM"
	"T1-AND-80000-SUM" -> "T3-AND-8752-SUM"
	"T1-AND-80000-SUM" -> "T4-OR-16504-MAX"
	"T1-AND-80000-SUM" -> "T5-AND-17516-SUM"
	"T1-AND-80000-SUM" -> "T6-OR-37117-MAX"
	"T2-AND-111-SUM" -> M1
	"T3-AND-8752-SUM" -> M2
	"T4-OR-16504-MAX" -> M3
	"T4-OR-16504-MAX" -> M4
	"T5-AND-17516-SUM" -> M5
	"T5-AND-17516-SUM" -> M6
	"T5-AND-17516-SUM" -> M7
	"T5-AND-17516-SUM" -> M8
	"T5-AND-17516-SUM" -> M9
	"T5-AND-17516-SUM" -> M10
	"T6-OR-37117-MAX" -> M11
	"T6-OR-37117-MAX" -> M12
	"T6-OR-37117-MAX" -> M13
	"T6-OR-37117-MAX" -> M14
	"T6-OR-37117-MAX" -> M15
}
