digraph G {
	"RTS250-AND-80000-SUM" -> "T1-AND-80000-SUM"
	"T1-AND-80000-SUM" -> "T2-AND-80000-SUM"
	"T2-AND-80000-SUM" -> "T3-OR-1669-MAX"
	"T2-AND-80000-SUM" -> "T4-OR-9369-MAX"
	"T2-AND-80000-SUM" -> "T5-OR-16091-MAX"
	"T2-AND-80000-SUM" -> "T6-AND-52871-SUM"
	"T3-OR-1669-MAX" -> M1
	"T3-OR-1669-MAX" -> M2
	"T4-OR-9369-MAX" -> M3
	"T4-OR-9369-MAX" -> M4
	"T4-OR-9369-MAX" -> M5
	"T5-OR-16091-MAX" -> M6
	"T5-OR-16091-MAX" -> M7
	"T6-AND-52871-SUM" -> M8
	"T6-AND-52871-SUM" -> M9
	"T6-AND-52871-SUM" -> M10
}
