digraph G {
	"RTS225-AND-80000-SUM" -> "T1-AND-80000-SUM"
	"T1-AND-80000-SUM" -> "T2-OR-4765-MAX"
	"T1-AND-80000-SUM" -> "T3-AND-7344-SUM"
	"T1-AND-80000-SUM" -> "T4-OR-17337-MAX"
	"T1-AND-80000-SUM" -> "T5-AND-23047-SUM"
	"T1-AND-80000-SUM" -> "T6-OR-27507-MAX"
	"T2-OR-4765-MAX" -> M1
	"T2-OR-4765-MAX" -> M2
	"T2-OR-4765-MAX" -> M3
	"T2-OR-4765-MAX" -> M4
	"T2-OR-4765-MAX" -> M5
	"T2-OR-4765-MAX" -> M6
	"T2-OR-4765-MAX" -> M7
	"T3-AND-7344-SUM" -> M8
	"T4-OR-17337-MAX" -> M9
	"T4-OR-17337-MAX" -> M10
	"T4-OR-17337-MAX" -> M11
	"T4-OR-17337-MAX" -> M12
	"T5-AND-23047-SUM" -> M13
	"T6-OR-27507-MAX" -> M14
	"T6-OR-27507-MAX" -> M15
}
