digraph G {
	"RTS5-AND-80000-SUM" -> "T1-AND-80000-SUM"
	"T1-AND-80000-SUM" -> "T2-OR-15400-MAX"
	"T1-AND-80000-SUM" -> "T3-AND-29193-SUM"
	"T1-AND-80000-SUM" -> "T4-OR-35407-MAX"
	"T2-OR-15400-MAX" -> M1
	"T2-OR-15400-MAX" -> M2
	"T2-OR-15400-MAX" -> M3
	"T2-OR-15400-MAX" -> M4
	"T2-OR-15400-MAX" -> M5
	"T2-OR-15400-MAX" -> M6
	"T3-AND-29193-SUM" -> M7
	"T4-OR-35407-MAX" -> M8
	"T4-OR-35407-MAX" -> M9
	"T4-OR-35407-MAX" -> M10
}
