digraph G {
	"RTS55-AND-80000-SUM" -> "T1-AND-80000-SUM"
	"T1-AND-80000-SUM" -> "T2-AND-8858-SUM"
	"T2-AND-8858-SUM" -> "T4-OR-321-MAX"
	"T2-AND-8858-SUM" -> "T5-AND-887-SUM"
	"T2-AND-8858-SUM" -> "T6-AND-1129-SUM"
	"T2-AND-8858-SUM" -> "T7-AND-6521-SUM"
	"T1-AND-80000-SUM" -> "T3-AND-71142-SUM"
	"T3-AND-71142-SUM" -> "T8-AND-18308-SUM"
	"T3-AND-71142-SUM" -> "T9-OR-52834-MAX"
	"T4-OR-321-MAX" -> M1
	"T4-OR-321-MAX" -> M2
	"T4-OR-321-MAX" -> M3
	"T4-OR-321-MAX" -> M4
	"T4-OR-321-MAX" -> M5
	"T4-OR-321-MAX" -> M6
	"T5-AND-887-SUM" -> M7
	"T6-AND-1129-SUM" -> M8
	"T6-AND-1129-SUM" -> M9
	"T6-AND-1129-SUM" -> M10
	"T6-AND-1129-SUM" -> M11
	"T7-AND-6521-SUM" -> M12
	"T8-AND-18308-SUM" -> M13
	"T9-OR-52834-MAX" -> M14
	"T9-OR-52834-MAX" -> M15
}
