digraph G {
	"RTS74-AND-80000-SUM" -> "T1-AND-80000-SUM"
	"T1-AND-80000-SUM" -> "T2-OR-22953-MAX"
	"T1-AND-80000-SUM" -> "T3-OR-28508-MAX"
	"T1-AND-80000-SUM" -> "T4-AND-28539-SUM"
	"T2-OR-22953-MAX" -> M1
	"T2-OR-22953-MAX" -> M2
	"T3-OR-28508-MAX" -> M3
	"T3-OR-28508-MAX" -> M4
	"T3-OR-28508-MAX" -> M5
	"T3-OR-28508-MAX" -> M6
	"T3-OR-28508-MAX" -> M7
	"T3-OR-28508-MAX" -> M8
	"T3-OR-28508-MAX" -> M9
	"T3-OR-28508-MAX" -> M10
	"T4-AND-28539-SUM" -> M11
}
