digraph G {
	"RTS76-AND-80000-SUM" -> "T1-AND-80000-SUM"
	"T1-AND-80000-SUM" -> "T2-AND-18012-SUM"
	"T2-AND-18012-SUM" -> "T4-OR-1502-MAX"
	"T2-AND-18012-SUM" -> "T5-AND-16510-SUM"
	"T1-AND-80000-SUM" -> "T3-AND-61988-SUM"
	"T3-AND-61988-SUM" -> "T6-OR-3325-MAX"
	"T3-AND-61988-SUM" -> "T7-AND-3856-SUM"
	"T3-AND-61988-SUM" -> "T8-AND-10766-SUM"
	"T3-AND-61988-SUM" -> "T9-AND-44041-SUM"
	"T4-OR-1502-MAX" -> M1
	"T4-OR-1502-MAX" -> M2
	"T5-AND-16510-SUM" -> M3
	"T6-OR-3325-MAX" -> M4
	"T6-OR-3325-MAX" -> M5
	"T6-OR-3325-MAX" -> M6
	"T6-OR-3325-MAX" -> M7
	"T7-AND-3856-SUM" -> M8
	"T8-AND-10766-SUM" -> M9
	"T9-AND-44041-SUM" -> M10
	"T9-AND-44041-SUM" -> M11
}
