digraph G {
	"RTS84-AND-80000-SUM" -> "T1-OR-80000-MAX"
	"T1-OR-80000-MAX" -> "T2-AND-80000-SUM"
	"T2-AND-80000-SUM" -> "T5-OR-80000-MAX"
	"T1-OR-80000-MAX" -> "T3-AND-80000-SUM"
	"T3-AND-80000-SUM" -> "T6-OR-36807-MAX"
	"T3-AND-80000-SUM" -> "T7-AND-43193-SUM"
	"T1-OR-80000-MAX" -> "T4-AND-80000-SUM"
	"T4-AND-80000-SUM" -> "T8-AND-4642-SUM"
	"T4-AND-80000-SUM" -> "T9-OR-75358-MAX"
	"T5-OR-80000-MAX" -> M1
	"T5-OR-80000-MAX" -> M2
	"T6-OR-36807-MAX" -> M3
	"T6-OR-36807-MAX" -> M4
	"T6-OR-36807-MAX" -> M5
	"T6-OR-36807-MAX" -> M6
	"T6-OR-36807-MAX" -> M7
	"T6-OR-36807-MAX" -> M8
	"T7-AND-43193-SUM" -> M9
	"T8-AND-4642-SUM" -> M10
	"T8-AND-4642-SUM" -> M11
	"T9-OR-75358-MAX" -> M12
	"T9-OR-75358-MAX" -> M13
	"T9-OR-75358-MAX" -> M14
}
