digraph G {
	"RTS93-AND-80000-SUM" -> "T1-AND-80000-SUM"
	"T1-AND-80000-SUM" -> "T2-OR-80000-MAX"
	"T2-OR-80000-MAX" -> "T3-OR-80000-MAX"
	"T2-OR-80000-MAX" -> "T4-OR-80000-MAX"
	"T2-OR-80000-MAX" -> "T5-AND-80000-SUM"
	"T2-OR-80000-MAX" -> "T6-AND-80000-SUM"
	"T3-OR-80000-MAX" -> M1
	"T3-OR-80000-MAX" -> M2
	"T3-OR-80000-MAX" -> M3
	"T3-OR-80000-MAX" -> M4
	"T4-OR-80000-MAX" -> M5
	"T4-OR-80000-MAX" -> M6
	"T4-OR-80000-MAX" -> M7
	"T4-OR-80000-MAX" -> M8
	"T4-OR-80000-MAX" -> M9
	"T4-OR-80000-MAX" -> M10
	"T5-AND-80000-SUM" -> M11
	"T5-AND-80000-SUM" -> M12
	"T6-AND-80000-SUM" -> M13
	"T6-AND-80000-SUM" -> M14
	"T6-AND-80000-SUM" -> M15
}
