####### Ordered Logger #######


Final Duration: 400.0
Final Quality: 0.0
Seed: 9772675992

##### Method Results #####


    ## Method ##
        Name: Method27
        Completed By : Agent1
        With Quality : 18.0
        With Duration: 17


    ## Method ##
        Name: Method3
        Completed By : Agent1
        With Quality : 2.0
        With Duration: 8


    ## Method ##
        Name: Method2
        Completed By : Agent1
        With Quality : 10.0
        With Duration: 4


    ## Method ##
        Name: Method16
        Completed By : Agent1
        With Quality : 6.0
        With Duration: 6


    ## Method ##
        Name: Method18
        Completed By : Agent1
        With Quality : 24.0
        With Duration: 10


    ## Method ##
        Name: Method20
        Completed By : Agent1
        With Quality : 8.0
        With Duration: 5


    ## Method ##
        Name: Method22
        Completed By : Agent1
        With Quality : 32.0
        With Duration: 4


    ## Method ##
        Name: Method17
        Completed By : Agent1
        With Quality : 3.0
        With Duration: 3


    ## Method ##
        Name: Method8
        Completed By : Agent1
        With Quality : 31.0
        With Duration: 20


    ## Method ##
        Name: Method23
        Completed By : Agent1
        With Quality : 3.0
        With Duration: 5


    ## Method ##
        Name: Method10
        Completed By : Agent1
        With Quality : 46.0
        With Duration: 8


    ## Method ##
        Name: Method5
        Completed By : Agent1
        With Quality : 21.0
        With Duration: 7


    ## Method ##
        Name: Method24
        Completed By : Agent1
        With Quality : 9.0
        With Duration: 6


    ## Method ##
        Name: Method12
        Completed By : Agent1
        With Quality : 10.0
        With Duration: 7


    ## Method ##
        Name: Method14
        Completed By : Agent1
        With Quality : 8.0
        With Duration: 4


    ## Method ##
        Name: Method6
        Completed By : Agent1
        With Quality : 12.0
        With Duration: 9


    ## Method ##
        Name: Method21
        Completed By : Agent1
        With Quality : 16.0
        With Duration: 15


    ## Method ##
        Name: Method11
        Completed By : Agent1
        With Quality : 2.0
        With Duration: 1


    ## Method ##
        Name: Method7
        Completed By : Agent1
        With Quality : 16.0
        With Duration: 6


    ## Method ##
        Name: Method13
        Completed By : Agent1
        With Quality : 30.0
        With Duration: 12


    ## Method ##
        Name: Method29
        Completed By : Agent1
        With Quality : 6.0
        With Duration: 5


    ## Method ##
        Name: Method30
        Completed By : Agent1
        With Quality : 15.0
        With Duration: 1


    ## Method ##
        Name: Method15
        Completed By : Agent1
        With Quality : 1.5
        With Duration: 0


    ## Method ##
        Name: Method26
        Completed By : Agent1
        With Quality : 2.0
        With Duration: 2


    ## Method ##
        Name: Method9
        Completed By : Agent1
        With Quality : 1.0
        With Duration: 6


    ## Method ##
        Name: Method28
        Completed By : Agent1
        With Quality : 27.0
        With Duration: 4


    ## Method ##
        Name: Method1
        Completed By : Agent1
        With Quality : 13.0
        With Duration: 2

##### Relationship Results #####


    ## Relationship ##
        Name: enables3
        Type: Enables
        Source : Method27
        Target : Method11


    ## Relationship ##
        Name: disables2
        Type: Disables
        Source : Method16
        Target : Method3


    ## Relationship ##
        Name: hinders1
        Type: Hinders
        Source : Method2
        Target : Method15


    ## Relationship ##
        Name: facilitates2
        Type: Facilitates
        Source : Method18
        Target : Method10


    ## Relationship ##
        Name: hinders4
        Type: Hinders
        Source : Method21
        Target : Method20


    ## Relationship ##
        Name: enables4
        Type: Enables
        Source : Method22
        Target : Method19


    ## Relationship ##
        Name: facilitates1
        Type: Facilitates
        Source : Method7
        Target : Method8


    ## Relationship ##
        Name: hinders2
        Type: Hinders
        Source : Method5
        Target : Method23


    ## Relationship ##
        Name: facilitates4
        Type: Facilitates
        Source : Method26
        Target : Method24


    ## Relationship ##
        Name: hinders3
        Type: Hinders
        Source : Method28
        Target : Method12


    ## Relationship ##
        Name: disables3
        Type: Disables
        Source : Method29
        Target : Method14


    ## Relationship ##
        Name: disables1
        Type: Disables
        Source : Method4
        Target : Method6


    ## Relationship ##
        Name: facilitates3
        Type: Facilitates
        Source : Method13
        Target : Method30


    ## Relationship ##
        Name: enables2
        Type: Enables
        Source : Method9
        Target : Method25


    ## Relationship ##
        Name: enables2
        Type: Enables
        Source : Method9
        Target : Method25


    ## Relationship ##
        Name: enables1
        Type: Enables
        Source : Method1
        Target : Method4

##### Agent Results #####


    ## Agent ##
        Name Agent1
        Sent: 754
        Received: 4316
        Completed: Method21, Method20, Method12, Method28, Method5, Method10, Method27, Method15, Method1, Method16, Method24, Method2, Method4, Method13, Method26, Method8, Method23, Method17, Method11, Method29, Method7, Method30, Method22, Method9, Method18, Method12, Method6, Method20, Method23, Method16, Method13, Method26, Method29, Method21, Method8, Method22, Method27, Method28, Method7, Method17, Method9, Method30, Method10, Method25, Method2, Method24, Method5, Method15, Method1, Method11, Method18, Method10, Method21, Method18, Method13, Method9, Method5, Method28, Method2, Method30, Method23, Method8, Method26, Method22, Method7, Method14, Method24, Method12, Method1, Method29, Method3, Method15, Method25, Method6, Method17, Method19, Method27, Method16, Method20, Method28, Method5, Method16, Method13, Method14, Method12, Method1, Method20, Method6, Method9, Method17, Method8, Method7, Method26, Method23, Method18, Method10, Method22, Method24, Method29, Method30, Method4, Method2, Method15, Method27, Method21, Method25, Method7, Method17, Method10, Method9, Method1, Method15, Method3, Method26, Method22, Method14, Method27, Method18, Method4, Method28, Method29, Method24, Method16, Method2, Method25, Method5, Method12, Method20, Method30, Method21, Method23, Method13, Method19, Method8, Method12, Method30, Method10, Method20, Method13, Method17, Method1, Method27, Method11, Method26, Method9, Method2, Method5, Method15, Method23, Method18, Method29, Method7, Method3, Method16, Method6, Method24, Method21, Method28, Method8, Method25, Method22, Method29, Method6, Method24, Method15, Method17, Method22, Method30, Method7, Method5, Method21, Method1, Method8, Method9, Method20, Method16, Method19, Method26, Method12, Method23, Method13, Method10, Method2, Method27, Method4, Method18, Method28, Method27, Method3, Method2, Method16, Method18, Method20, Method22, Method17, Method8, Method23, Method10, Method5, Method24, Method12, Method14, Method6, Method21, Method11, Method7, Method13, Method29, Method30, Method15, Method26, Method9, Method28, Method1