####### Ordered Logger #######


Final Duration: 0.0
Final Quality: 0.0
Seed: -2286520016384615185

##### Method Results #####

##### Relationship Results #####

##### Agent Results #####


    ## Agent ##
        Name Agent1
        Sent: 0
        Received: 4
        Completed: Final Duration: 0.0
Final Quality: 0.0
Seed: -2286520016384615185

##### Method Results #####

##### Relationship Results #####

##### Agent Results #####
