####### Sequential Logger #######



    ## Message ##
        Sending a SetRandomSeedMessage to Agent1
        The random seed is -1158132902103617002


    ## Message ##
        Sending a InitialTreeMessage to Agent1
        Tree Head: RTS95


    ## Message ##
        Sending a StartSimulationMessage to Agent1
        The Simulation has Started


    ## Message ##
        Sending a EndSimulationMessage to Agent1
        The Simulation is Over


    ## Agent ##
        Name Agent1
        Sent: 0
        Received: 4
        Completed: 