####### Ordered Logger #######


Final Duration: 0.0
Final Quality: 0.0
Seed: 7296613479988796982

##### Method Results #####

##### Relationship Results #####

##### Agent Results #####


    ## Agent ##
        Name Agent1
        Sent: 0
        Received: 4
        Completed: Final Duration: 0.0
Final Quality: 0.0
Seed: 7296613479988796982

##### Method Results #####

##### Relationship Results #####

##### Agent Results #####
