####### Sequential Logger #######



    ## Message ##
        Sending a SetRandomSeedMessage to Agent1
        The random seed is 8179105525301230878


    ## Message ##
        Sending a InitialTreeMessage to Agent1
        Tree Head: RTS20


    ## Message ##
        Sending a StartSimulationMessage to Agent1
        The Simulation has Started


    ## Message ##
        Sending a EndSimulationMessage to Agent1
        The Simulation is Over


    ## Agent ##
        Name Agent1
        Sent: 0
        Received: 4
        Completed: 