####### Sequential Logger #######



    ## Message ##
        Sending a SetRandomSeedMessage to Agent1
        The random seed is 4371824726676315760


    ## Message ##
        Sending a InitialTreeMessage to Agent1
        Tree Head: RTS32


    ## Message ##
        Sending a StartSimulationMessage to Agent1
        The Simulation has Started


    ## Message ##
        Sending a EndSimulationMessage to Agent1
        The Simulation is Over


    ## Agent ##
        Name Agent1
        Sent: 0
        Received: 4
        Completed: 