####### Ordered Logger #######


Final Duration: 800.0
Final Quality: 0.0
Seed: 1895587841

##### Method Results #####


    ## Method ##
        Name: Method14
        Completed By : Agent1
        With Quality : 6.0
        With Duration: 5
        End Time: 13


    ## Method ##
        Name: Method11
        Completed By : Agent1
        With Quality : 4.0
        With Duration: 3
        End Time: 18


    ## Method ##
        Name: Method22
        Completed By : Agent1
        With Quality : 32.0
        With Duration: 5
        End Time: 25


    ## Method ##
        Name: Method26
        Completed By : Agent1
        With Quality : 0.0
        With Duration: 0
        End Time: 27


    ## Method ##
        Name: Method21
        Completed By : Agent1
        With Quality : 15.0
        With Duration: 18
        End Time: 47


    ## Method ##
        Name: Method17
        Completed By : Agent1
        With Quality : 5.0
        With Duration: 8
        End Time: 57


    ## Method ##
        Name: Method23
        Completed By : Agent1
        With Quality : 2.0
        With Duration: 5
        End Time: 64


    ## Method ##
        Name: Method2
        Completed By : Agent1
        With Quality : 17.0
        With Duration: 12
        End Time: 78


    ## Method ##
        Name: Method7
        Completed By : Agent1
        With Quality : 14.0
        With Duration: 6
        End Time: 86


    ## Method ##
        Name: Method12
        Completed By : Agent1
        With Quality : 11.0
        With Duration: 6
        End Time: 95


    ## Method ##
        Name: Method16
        Completed By : Agent1
        With Quality : 0.0
        With Duration: 0
        End Time: 97


    ## Method ##
        Name: Method30
        Completed By : Agent1
        With Quality : 5.0
        With Duration: 2
        End Time: 102


    ## Method ##
        Name: Method18
        Completed By : Agent1
        With Quality : 26.0
        With Duration: 9
        End Time: 113


    ## Method ##
        Name: Method25
        Completed By : Agent1
        With Quality : 9.0
        With Duration: 5
        End Time: 127


    ## Method ##
        Name: Method19
        Completed By : Agent1
        With Quality : 1.0
        With Duration: 1
        End Time: 135


    ## Method ##
        Name: Method9
        Completed By : Agent1
        With Quality : 1.0
        With Duration: 5
        End Time: 147


    ## Method ##
        Name: Method28
        Completed By : Agent1
        With Quality : 0.0
        With Duration: 0
        End Time: 149


    ## Method ##
        Name: Method10
        Completed By : Agent1
        With Quality : 20.0
        With Duration: 10
        End Time: 161


    ## Method ##
        Name: Method8
        Completed By : Agent1
        With Quality : 30.0
        With Duration: 14
        End Time: 177


    ## Method ##
        Name: Method6
        Completed By : Agent1
        With Quality : 15.0
        With Duration: 12
        End Time: 191


    ## Method ##
        Name: Method15
        Completed By : Agent1
        With Quality : 1.0
        With Duration: 2
        End Time: 195


    ## Method ##
        Name: Method24
        Completed By : Agent1
        With Quality : 10.0
        With Duration: 6
        End Time: 203


    ## Method ##
        Name: Method4
        Completed By : Agent1
        With Quality : 0.0
        With Duration: 0
        End Time: 205


    ## Method ##
        Name: Method27
        Completed By : Agent1
        With Quality : 18.0
        With Duration: 15
        End Time: 222


    ## Method ##
        Name: Method3
        Completed By : Agent1
        With Quality : 9.0
        With Duration: 9
        End Time: 233


    ## Method ##
        Name: Method20
        Completed By : Agent1
        With Quality : 10.0
        With Duration: 4
        End Time: 239


    ## Method ##
        Name: Method5
        Completed By : Agent1
        With Quality : 22.0
        With Duration: 7
        End Time: 248


    ## Method ##
        Name: Method1
        Completed By : Agent1
        With Quality : 27.0
        With Duration: 1
        End Time: 251


    ## Method ##
        Name: Method13
        Completed By : Agent1
        With Quality : 30.0
        With Duration: 18
        End Time: 271


    ## Method ##
        Name: Method29
        Completed By : Agent1
        With Quality : 6.0
        With Duration: 4
        End Time: 310

##### Relationship Results #####


    ## Relationship ##
        Name: disables4
        Type: Disables
        Source : Method18
        Target : Method14


    ## Relationship ##
        Name: disables5
        Type: Disables
        Source : Method14
        Target : Method16


    ## Relationship ##
        Name: enables4
        Type: Enables
        Source : Method22
        Target : Method19


    ## Relationship ##
        Name: disables3
        Type: Disables
        Source : Method29
        Target : Method17


    ## Relationship ##
        Name: enables2
        Type: Enables
        Source : Method9
        Target : Method26


    ## Relationship ##
        Name: disables2
        Type: Disables
        Source : Method15
        Target : Method8


    ## Relationship ##
        Name: disables1
        Type: Disables
        Source : Method4
        Target : Method6


    ## Relationship ##
        Name: enables3
        Type: Enables
        Source : Method24
        Target : Method13


    ## Relationship ##
        Name: enables1
        Type: Enables
        Source : Method1
        Target : Method4

##### Agent Results #####


    ## Agent ##
        Name Agent1
        Sent: 600
        Received: 8981
        Completed: Method23, Method15, Method18, Method17, Method22, Method1, Method6, Method9, Method4, Method2, Method7, Method12, Method21, Method25, Method20, Method24, Method10, Method5, Method30, Method27, Method19, Method3, Method29, Method11, Method16, Method26, Method25, Method5, Method22, Method16, Method10, Method27, Method3, Method2, Method17, Method15, Method29, Method23, Method7, Method30, Method21, Method9, Method14, Method18, Method12, Method26, Method24, Method6, Method19, Method1, Method11, Method20, Method2, Method22, Method3, Method19, Method24, Method8, Method18, Method13, Method6, Method7, Method5, Method27, Method10, Method25, Method15, Method17, Method1, Method20, Method29, Method21, Method23, Method16, Method11, Method12, Method30, Method9, Method4, Method25, Method9, Method29, Method3, Method20, Method7, Method2, Method14, Method27, Method12, Method30, Method10, Method1, Method5, Method11, Method6, Method24, Method15, Method18, Method21, Method22, Method26, Method23, Method3, Method12, Method16, Method23, Method18, Method5, Method17, Method22, Method8, Method25, Method7, Method2, Method15, Method11, Method21, Method19, Method9, Method20, Method1, Method29, Method10, Method24, Method27, Method6, Method30, Method3, Method25, Method20, Method24, Method2, Method16, Method21, Method9, Method7, Method18, Method15, Method6, Method11, Method30, Method12, Method22, Method17, Method10, Method13, Method26, Method23, Method29, Method5, Method27, Method1, Method23, Method1, Method16, Method11, Method15, Method7, Method22, Method5, Method19, Method24, Method25, Method14, Method9, Method21, Method26, Method10, Method17, Method6, Method30, Method29, Method18, Method3, Method12, Method2, Method27, Method20, Method28, Method8, Method9, Method2, Method20, Method3, Method27, Method29, Method11, Method6, Method1, Method30, Method15, Method25, Method26, Method16, Method10, Method4, Method24, Method12, Method18, Method5, Method22, Method21, Method28, Method23, Method7, Method11, Method21, Method9, Method30, Method16, Method24, Method15, Method10, Method7, Method23, Method27, Method1, Method6, Method12, Method29, Method14, Method20, Method5, Method2, Method18, Method26, Method3, Method28, Method22, Method25, Method14, Method11, Method22, Method21, Method17, Method23, Method2, Method7, Method12, Method30, Method18, Method25, Method19, Method9, Method10, Method8, Method6, Method15, Method24, Method27, Method3, Method20, Method5, Method1, Method13, Method29