####### Ordered Logger #######


Final Duration: 800.0
Final Quality: 0.0
Seed: 4990198414

##### Method Results #####


    ## Method ##
        Name: Method11
        Completed By : Agent1
        With Quality : 2.0
        With Duration: 1
        End Time: 4


    ## Method ##
        Name: Method30
        Completed By : Agent1
        With Quality : 5.0
        With Duration: 3
        End Time: 9


    ## Method ##
        Name: Method3
        Completed By : Agent1
        With Quality : 5.0
        With Duration: 9
        End Time: 20


    ## Method ##
        Name: Method8
        Completed By : Agent1
        With Quality : 26.0
        With Duration: 20
        End Time: 42


    ## Method ##
        Name: Method10
        Completed By : Agent1
        With Quality : 23.0
        With Duration: 9
        End Time: 53


    ## Method ##
        Name: Method17
        Completed By : Agent1
        With Quality : 5.0
        With Duration: 8
        End Time: 63


    ## Method ##
        Name: Method19
        Completed By : Agent1
        With Quality : 0.0
        With Duration: 0
        End Time: 65


    ## Method ##
        Name: Method12
        Completed By : Agent1
        With Quality : 11.0
        With Duration: 5
        End Time: 72


    ## Method ##
        Name: Method5
        Completed By : Agent1
        With Quality : 22.0
        With Duration: 5
        End Time: 82


    ## Method ##
        Name: Method6
        Completed By : Agent1
        With Quality : 12.0
        With Duration: 15
        End Time: 101


    ## Method ##
        Name: Method25
        Completed By : Agent1
        With Quality : 5.0
        With Duration: 4
        End Time: 109


    ## Method ##
        Name: Method29
        Completed By : Agent1
        With Quality : 2.0
        With Duration: 5
        End Time: 116


    ## Method ##
        Name: Method15
        Completed By : Agent1
        With Quality : 1.0
        With Duration: 2
        End Time: 120


    ## Method ##
        Name: Method20
        Completed By : Agent1
        With Quality : 10.0
        With Duration: 4
        End Time: 126


    ## Method ##
        Name: Method14
        Completed By : Agent1
        With Quality : 7.0
        With Duration: 4
        End Time: 132


    ## Method ##
        Name: Method7
        Completed By : Agent1
        With Quality : 18.0
        With Duration: 9
        End Time: 143


    ## Method ##
        Name: Method24
        Completed By : Agent1
        With Quality : 13.0
        With Duration: 6
        End Time: 151


    ## Method ##
        Name: Method23
        Completed By : Agent1
        With Quality : 2.0
        With Duration: 6
        End Time: 159


    ## Method ##
        Name: Method21
        Completed By : Agent1
        With Quality : 16.0
        With Duration: 18
        End Time: 179


    ## Method ##
        Name: Method27
        Completed By : Agent1
        With Quality : 18.0
        With Duration: 18
        End Time: 201


    ## Method ##
        Name: Method13
        Completed By : Agent1
        With Quality : 33.0
        With Duration: 12
        End Time: 215


    ## Method ##
        Name: Method22
        Completed By : Agent1
        With Quality : 31.0
        With Duration: 5
        End Time: 222


    ## Method ##
        Name: Method26
        Completed By : Agent1
        With Quality : 0.0
        With Duration: 0
        End Time: 226


    ## Method ##
        Name: Method18
        Completed By : Agent1
        With Quality : 21.0
        With Duration: 9
        End Time: 239


    ## Method ##
        Name: Method1
        Completed By : Agent1
        With Quality : 20.0
        With Duration: 2
        End Time: 244


    ## Method ##
        Name: Method28
        Completed By : Agent1
        With Quality : 0.0
        With Duration: 0
        End Time: 247


    ## Method ##
        Name: Method2
        Completed By : Agent1
        With Quality : 17.0
        With Duration: 7
        End Time: 258


    ## Method ##
        Name: Method4
        Completed By : Agent1
        With Quality : 1.0
        With Duration: 4
        End Time: 264


    ## Method ##
        Name: Method16
        Completed By : Agent1
        With Quality : 0.0
        With Duration: 0
        End Time: 266


    ## Method ##
        Name: Method9
        Completed By : Agent1
        With Quality : 1.0
        With Duration: 5
        End Time: 273

##### Relationship Results #####


    ## Relationship ##
        Name: disables2
        Type: Disables
        Source : Method15
        Target : Method8


    ## Relationship ##
        Name: disables3
        Type: Disables
        Source : Method29
        Target : Method17


    ## Relationship ##
        Name: disables1
        Type: Disables
        Source : Method4
        Target : Method6


    ## Relationship ##
        Name: disables4
        Type: Disables
        Source : Method18
        Target : Method14


    ## Relationship ##
        Name: disables5
        Type: Disables
        Source : Method14
        Target : Method16


    ## Relationship ##
        Name: enables3
        Type: Enables
        Source : Method24
        Target : Method13


    ## Relationship ##
        Name: enables4
        Type: Enables
        Source : Method22
        Target : Method19


    ## Relationship ##
        Name: enables1
        Type: Enables
        Source : Method1
        Target : Method4


    ## Relationship ##
        Name: enables2
        Type: Enables
        Source : Method9
        Target : Method26

##### Agent Results #####


    ## Agent ##
        Name Agent1
        Sent: 1860
        Received: 27826
        Completed: Method23, Method15, Method18, Method17, Method22, Method1, Method6, Method9, Method4, Method2, Method7, Method12, Method21, Method25, Method20, Method24, Method10, Method5, Method30, Method27, Method19, Method3, Method29, Method11, Method16, Method26, Method25, Method5, Method22, Method16, Method10, Method27, Method3, Method2, Method17, Method15, Method29, Method23, Method7, Method30, Method21, Method9, Method14, Method18, Method12, Method26, Method24, Method6, Method19, Method1, Method11, Method20, Method2, Method22, Method3, Method19, Method24, Method8, Method18, Method13, Method6, Method7, Method5, Method27, Method10, Method25, Method15, Method17, Method1, Method20, Method29, Method21, Method23, Method16, Method11, Method12, Method30, Method9, Method4, Method25, Method9, Method29, Method3, Method20, Method7, Method2, Method14, Method27, Method12, Method30, Method10, Method1, Method5, Method11, Method6, Method24, Method15, Method18, Method21, Method22, Method26, Method23, Method3, Method12, Method16, Method23, Method18, Method5, Method17, Method22, Method8, Method25, Method7, Method2, Method15, Method11, Method21, Method19, Method9, Method20, Method1, Method29, Method10, Method24, Method27, Method6, Method30, Method3, Method25, Method20, Method24, Method2, Method16, Method21, Method9, Method7, Method18, Method15, Method6, Method11, Method30, Method12, Method22, Method17, Method10, Method13, Method26, Method23, Method29, Method5, Method27, Method1, Method23, Method1, Method16, Method11, Method15, Method7, Method22, Method5, Method19, Method24, Method25, Method14, Method9, Method21, Method26, Method10, Method17, Method6, Method30, Method29, Method18, Method3, Method12, Method2, Method27, Method20, Method28, Method8, Method9, Method2, Method20, Method3, Method27, Method29, Method11, Method6, Method1, Method30, Method15, Method25, Method26, Method16, Method10, Method4, Method24, Method12, Method18, Method5, Method22, Method21, Method28, Method23, Method7, Method11, Method21, Method9, Method30, Method16, Method24, Method15, Method10, Method7, Method23, Method27, Method1, Method6, Method12, Method29, Method14, Method20, Method5, Method2, Method18, Method26, Method3, Method28, Method22, Method25, Method14, Method11, Method22, Method21, Method17, Method23, Method2, Method7, Method12, Method30, Method18, Method25, Method19, Method9, Method10, Method8, Method6, Method15, Method24, Method27, Method3, Method20, Method5, Method1, Method13, Method29, Method21, Method30, Method9, Method25, Method24, Method23, Method16, Method14, Method18, Method17, Method11, Method8, Method22, Method20, Method10, Method1, Method13, Method15, Method29, Method2, Method7, Method12, Method27, Method4, Method5, Method3, Method26, Method30, Method18, Method29, Method25, Method5, Method3, Method10, Method11, Method12, Method27, Method16, Method6, Method22, Method23, Method20, Method7, Method9, Method24, Method1, Method19, Method2, Method8, Method15, Method21, Method18, Method27, Method15, Method25, Method1, Method2, Method9, Method20, Method21, Method16, Method22, Method24, Method26, Method13, Method10, Method23, Method3, Method29, Method30, Method6, Method7, Method5, Method19, Method4, Method11, Method12, Method11, Method5, Method7, Method27, Method2, Method24, Method1, Method12, Method8, Method30, Method10, Method20, Method29, Method22, Method14, Method9, Method23, Method21, Method25, Method13, Method4, Method3, Method15, Method18, Method12, Method15, Method10, Method22, Method7, Method19, Method2, Method20, Method27, Method9, Method29, Method5, Method3, Method24, Method1, Method11, Method21, Method30, Method18, Method23, Method16, Method26, Method25, Method6, Method15, Method12, Method3, Method16, Method30, Method7, Method20, Method23, Method2, Method29, Method11, Method24, Method27, Method18, Method9, Method10, Method22, Method19, Method6, Method5, Method1, Method21, Method25, Method27, Method22, Method14, Method15, Method11, Method3, Method5, Method18, Method30, Method21, Method25, Method10, Method19, Method1, Method23, Method24, Method9, Method6, Method12, Method20, Method2, Method29, Method7, Method7, Method14, Method15, Method3, Method25, Method2, Method21, Method24, Method22, Method11, Method9, Method5, Method1, Method29, Method10, Method30, Method18, Method27, Method23, Method20, Method12, Method6, Method4, Method23, Method11, Method30, Method9, Method3, Method27, Method1, Method6, Method14, Method25, Method29, Method21, Method24, Method8, Method4, Method22, Method10, Method2, Method26, Method7, Method18, Method20, Method15, Method5, Method12, Method16, Method27, Method11, Method14, Method29, Method23, Method25, Method9, Method2, Method30, Method22, Method8, Method21, Method5, Method20, Method7, Method26, Method12, Method1, Method24, Method6, Method15, Method18, Method10, Method3, Method19, Method10, Method24, Method11, Method8, Method16, Method18, Method22, Method25, Method23, Method5, Method7, Method15, Method1, Method21, Method12, Method9, Method29, Method30, Method6, Method20, Method27, Method3, Method26, Method2, Method8, Method12, Method29, Method5, Method20, Method6, Method30, Method10, Method1, Method3, Method27, Method25, Method14, Method24, Method2, Method23, Method9, Method18, Method4, Method22, Method7, Method11, Method21, Method13, Method15, Method21, Method17, Method6, Method12, Method29, Method3, Method9, Method14, Method5, Method23, Method10, Method1, Method20, Method15, Method30, Method11, Method18, Method27, Method2, Method22, Method7, Method25, Method24, Method22, Method5, Method30, Method19, Method23, Method3, Method6, Method17, Method1, Method9, Method8, Method21, Method15, Method2, Method26, Method16, Method10, Method7, Method12, Method25, Method27, Method18, Method11, Method29, Method24, Method20, Method4, Method14, Method1, Method18, Method12, Method20, Method15, Method2, Method3, Method23, Method22, Method7, Method10, Method4, Method9, Method21, Method24, Method27, Method19, Method17, Method25, Method26, Method5, Method30, Method11, Method29, Method24, Method22, Method9, Method20, Method6, Method10, Method30, Method5, Method12, Method27, Method1, Method19, Method13, Method17, Method2, Method8, Method21, Method15, Method26, Method4, Method7, Method16, Method29, Method14, Method23, Method11, Method18, Method3, Method25, Method22, Method6, Method10, Method29, Method25, Method27, Method21, Method1, Method15, Method2, Method9, Method19, Method12, Method18, Method5, Method3, Method20, Method7, Method23, Method30, Method16, Method11, Method24, Method9, Method7, Method30, Method14, Method18, Method3, Method2, Method10, Method5, Method23, Method11, Method17, Method15, Method22, Method27, Method25, Method24, Method21, Method29, Method19, Method20, Method1, Method26, Method6, Method12, Method23, Method10, Method27, Method20, Method5, Method22, Method7, Method6, Method14, Method2, Method15, Method30, Method25, Method17, Method12, Method19, Method21, Method9, Method24, Method18, Method29, Method3, Method1, Method11, Method10, Method6, Method15, Method30, Method29, Method18, Method3, Method22, Method19, Method9, Method21, Method20, Method24, Method23, Method26, Method12, Method5, Method16, Method2, Method11, Method7, Method27, Method1, Method25, Method11, Method30, Method3, Method8, Method10, Method17, Method12, Method5, Method6, Method25, Method29, Method15, Method20, Method14, Method7, Method24, Method23, Method21, Method27, Method13, Method22, Method18, Method1, Method2, Method4, Method9