digraph G {
	"RTS138-AND-80000-SUM" -> "T1-AND-10551-SUM"
	"T1-AND-10551-SUM" -> "T3-AND-10551-SUM"
	"T3-AND-10551-SUM" -> "T5-AND-10551-SUM"
	"RTS138-AND-80000-SUM" -> "T2-AND-69449-SUM"
	"T2-AND-69449-SUM" -> "T4-OR-69449-MAX"
	"T4-OR-69449-MAX" -> "T6-AND-69449-SUM"
	"T4-OR-69449-MAX" -> "T7-AND-69449-SUM"
	"T4-OR-69449-MAX" -> "T8-AND-69449-SUM"
	"T4-OR-69449-MAX" -> "T9-OR-69449-MAX"
	"T5-AND-10551-SUM" -> M1
	"T6-AND-69449-SUM" -> M2
	"T7-AND-69449-SUM" -> M3
	"T7-AND-69449-SUM" -> M4
	"T7-AND-69449-SUM" -> M5
	"T7-AND-69449-SUM" -> M6
	"T8-AND-69449-SUM" -> M7
	"T8-AND-69449-SUM" -> M8
	"T9-OR-69449-MAX" -> M9
	"T9-OR-69449-MAX" -> M10
}
