digraph G {
	"RTS128-AND-80000-SUM" -> "T1-AND-80000-SUM"
	"T1-AND-80000-SUM" -> "T2-AND-19111-SUM"
	"T2-AND-19111-SUM" -> "T4-OR-19111-MAX"
	"T1-AND-80000-SUM" -> "T3-OR-60889-MAX"
	"T3-OR-60889-MAX" -> "T5-OR-60889-MAX"
	"T3-OR-60889-MAX" -> "T6-AND-60889-SUM"
	"T4-OR-19111-MAX" -> M1
	"T4-OR-19111-MAX" -> M2
	"T4-OR-19111-MAX" -> M3
	"T5-OR-60889-MAX" -> M4
	"T5-OR-60889-MAX" -> M5
	"T5-OR-60889-MAX" -> M6
	"T6-AND-60889-SUM" -> M7
	"T6-AND-60889-SUM" -> M8
	"T6-AND-60889-SUM" -> M9
	"T6-AND-60889-SUM" -> M10
	"T6-AND-60889-SUM" -> M11
}
