digraph G {
	"RTS162-AND-80000-SUM" -> "T1-AND-80000-SUM"
	"T1-AND-80000-SUM" -> "T2-AND-435-SUM"
	"T1-AND-80000-SUM" -> "T3-AND-2498-SUM"
	"T1-AND-80000-SUM" -> "T4-AND-14222-SUM"
	"T1-AND-80000-SUM" -> "T5-OR-17324-MAX"
	"T1-AND-80000-SUM" -> "T6-AND-45521-SUM"
	"T2-AND-435-SUM" -> M1
	"T3-AND-2498-SUM" -> M2
	"T4-AND-14222-SUM" -> M3
	"T5-OR-17324-MAX" -> M4
	"T5-OR-17324-MAX" -> M5
	"T5-OR-17324-MAX" -> M6
	"T5-OR-17324-MAX" -> M7
	"T6-AND-45521-SUM" -> M8
	"T6-AND-45521-SUM" -> M9
	"T6-AND-45521-SUM" -> M10
	"T6-AND-45521-SUM" -> M11
	"T6-AND-45521-SUM" -> M12
}
