digraph G {
	"RTS105-AND-80000-SUM" -> "T1-AND-29087-SUM"
	"T1-AND-29087-SUM" -> "T3-AND-29087-SUM"
	"RTS105-AND-80000-SUM" -> "T2-AND-50913-SUM"
	"T2-AND-50913-SUM" -> "T4-OR-50913-MAX"
	"T3-AND-29087-SUM" -> M1
	"T3-AND-29087-SUM" -> M2
	"T3-AND-29087-SUM" -> M3
	"T3-AND-29087-SUM" -> M4
	"T3-AND-29087-SUM" -> M5
	"T3-AND-29087-SUM" -> M6
	"T3-AND-29087-SUM" -> M7
	"T3-AND-29087-SUM" -> M8
	"T4-OR-50913-MAX" -> M9
	"T4-OR-50913-MAX" -> M10
	"T4-OR-50913-MAX" -> M11
	"T4-OR-50913-MAX" -> M12
}
