digraph G {
	"RTS131-AND-80000-SUM" -> "T1-AND-80000-SUM"
	"T1-AND-80000-SUM" -> "T2-OR-17126-MAX"
	"T1-AND-80000-SUM" -> "T3-OR-24944-MAX"
	"T1-AND-80000-SUM" -> "T4-AND-37930-SUM"
	"T2-OR-17126-MAX" -> M1
	"T2-OR-17126-MAX" -> M2
	"T2-OR-17126-MAX" -> M3
	"T2-OR-17126-MAX" -> M4
	"T2-OR-17126-MAX" -> M5
	"T3-OR-24944-MAX" -> M6
	"T3-OR-24944-MAX" -> M7
	"T3-OR-24944-MAX" -> M8
	"T3-OR-24944-MAX" -> M9
	"T3-OR-24944-MAX" -> M10
	"T4-AND-37930-SUM" -> M11
}
