digraph G {
	"RTS241-AND-80000-SUM" -> "T1-AND-80000-SUM"
	"T1-AND-80000-SUM" -> "T2-AND-2116-SUM"
	"T1-AND-80000-SUM" -> "T3-OR-3868-MAX"
	"T1-AND-80000-SUM" -> "T4-OR-6228-MAX"
	"T1-AND-80000-SUM" -> "T5-OR-8275-MAX"
	"T1-AND-80000-SUM" -> "T6-AND-59513-SUM"
	"T2-AND-2116-SUM" -> M1
	"T2-AND-2116-SUM" -> M2
	"T2-AND-2116-SUM" -> M3
	"T3-OR-3868-MAX" -> M4
	"T3-OR-3868-MAX" -> M5
	"T4-OR-6228-MAX" -> M6
	"T4-OR-6228-MAX" -> M7
	"T5-OR-8275-MAX" -> M8
	"T5-OR-8275-MAX" -> M9
	"T6-AND-59513-SUM" -> M10
	"T6-AND-59513-SUM" -> M11
}
