digraph G {
	"RTS236-AND-80000-SUM" -> "T1-AND-80000-SUM"
	"T1-AND-80000-SUM" -> "T2-OR-14798-MAX"
	"T1-AND-80000-SUM" -> "T3-OR-22368-MAX"
	"T1-AND-80000-SUM" -> "T4-AND-42834-SUM"
	"T2-OR-14798-MAX" -> M1
	"T2-OR-14798-MAX" -> M2
	"T2-OR-14798-MAX" -> M3
	"T2-OR-14798-MAX" -> M4
	"T2-OR-14798-MAX" -> M5
	"T3-OR-22368-MAX" -> M6
	"T3-OR-22368-MAX" -> M7
	"T3-OR-22368-MAX" -> M8
	"T3-OR-22368-MAX" -> M9
	"T3-OR-22368-MAX" -> M10
	"T4-AND-42834-SUM" -> M11
}
