digraph G {
	"RTS51-OR-80000-MAX" -> "T1-AND-80000-SUM"
	"T1-AND-80000-SUM" -> "T3-OR-3878-MAX"
	"T1-AND-80000-SUM" -> "T4-OR-6690-MAX"
	"T1-AND-80000-SUM" -> "T5-AND-69432-SUM"
	"RTS51-OR-80000-MAX" -> "T2-AND-80000-SUM"
	"T2-AND-80000-SUM" -> "T6-AND-80000-SUM"
	"T3-OR-3878-MAX" -> M1
	"T3-OR-3878-MAX" -> M2
	"T4-OR-6690-MAX" -> M3
	"T4-OR-6690-MAX" -> M4
	"T4-OR-6690-MAX" -> M5
	"T4-OR-6690-MAX" -> M6
	"T4-OR-6690-MAX" -> M7
	"T5-AND-69432-SUM" -> M8
	"T5-AND-69432-SUM" -> M9
	"T6-AND-80000-SUM" -> M10
	"T6-AND-80000-SUM" -> M11
	"T6-AND-80000-SUM" -> M12
	"T6-AND-80000-SUM" -> M13
	"T6-AND-80000-SUM" -> M14
}
