digraph G {
	"RTS62-AND-80000-SUM" -> "T1-AND-80000-SUM"
	"T1-AND-80000-SUM" -> "T2-OR-4861-MAX"
	"T2-OR-4861-MAX" -> "T4-AND-4861-SUM"
	"T2-OR-4861-MAX" -> "T5-AND-4861-SUM"
	"T1-AND-80000-SUM" -> "T3-AND-75139-SUM"
	"T3-AND-75139-SUM" -> "T6-AND-75139-SUM"
	"T4-AND-4861-SUM" -> M1
	"T5-AND-4861-SUM" -> M2
	"T5-AND-4861-SUM" -> M3
	"T5-AND-4861-SUM" -> M4
	"T5-AND-4861-SUM" -> M5
	"T5-AND-4861-SUM" -> M6
	"T5-AND-4861-SUM" -> M7
	"T5-AND-4861-SUM" -> M8
	"T5-AND-4861-SUM" -> M9
	"T5-AND-4861-SUM" -> M10
	"T5-AND-4861-SUM" -> M11
	"T5-AND-4861-SUM" -> M12
	"T6-AND-75139-SUM" -> M13
}
