digraph G {
	"RTS77-AND-80000-SUM" -> "T1-AND-80000-SUM"
	"T1-AND-80000-SUM" -> "T2-OR-12279-MAX"
	"T1-AND-80000-SUM" -> "T3-OR-27263-MAX"
	"T1-AND-80000-SUM" -> "T4-AND-40458-SUM"
	"T2-OR-12279-MAX" -> M1
	"T2-OR-12279-MAX" -> M2
	"T2-OR-12279-MAX" -> M3
	"T2-OR-12279-MAX" -> M4
	"T2-OR-12279-MAX" -> M5
	"T2-OR-12279-MAX" -> M6
	"T2-OR-12279-MAX" -> M7
	"T3-OR-27263-MAX" -> M8
	"T3-OR-27263-MAX" -> M9
	"T4-AND-40458-SUM" -> M10
	"T4-AND-40458-SUM" -> M11
	"T4-AND-40458-SUM" -> M12
}
